1,0,11,10,12,0.15272,1,0,0,0.36738,1500,0,6500,500,0,0,0,0
2,0,12,10,12,0.6461,0,0,0,0.43101,1500,0,6500,500,0,0,0,0
3,0,12,10,12,0.6822,0,0,0,0.40887,1500,0,6500,500,0,0,0,0
4,0,12,10,11,0.14322,1,0,0,0.36766,1500,0,6500,500,0,0,0,0
5,0,12,10,11,0.13337,1,0,0,0.47503,1500,0,6500,500,0,0,0,0
6,0,12,10,11,0.067603,1,0,0,0.3484,1500,0,6500,500,0,0,0,0
7,0,11,10,11,0.37595,0,0,0,0.47758,1500,0,6500,500,0,0,0,0
8,0,12,10,11,0.4042,1,0,0,0.32385,1500,0,6500,500,0,0,0,0
9,0,12,10,12,0.92144,0,0,0,0.3956,1500,0,6500,500,0,0,0,0
10,0,11,10,11,0.068891,0,0,0,0.29442,1500,0,6500,500,0,0,0,0
11,0,11,10,11,0.81969,0,0,0,0.34199,1500,0,6500,500,0,0,0,0
12,0,11,10,11,0.85974,0,0,0,0.46744,1500,0,6500,500,0,0,0,0
13,0,11,10,11,0.8958,0,0,0,0.3545,1500,0,6500,500,0,0,0,0
14,0,12,10,11,0.51695,1,0,0,0.38498,1500,0,6500,500,0,0,0,0
15,0,11,10,12,0.20094,1,0,0,0.41321,1500,0,6500,500,0,0,0,0
16,0,12,10,11,0.33449,1,0,0,0.34454,1500,0,6500,500,0,0,0,0
17,0,11,10,11,0.43614,0,0,0,0.42801,1500,0,6500,500,0,0,0,0
18,0,12,10,11,0.81098,1,0,0,0.43566,1500,0,6500,500,0,0,0,0
19,0,11,10,11,0.41076,0,0,0,0.48126,1500,0,6500,500,0,0,0,0
20,0,12,10,12,0.98796,0,0,0,0.47487,1500,0,6500,500,0,0,0,0
21,0,12,10,11,0.91407,1,0,0,0.43908,1500,0,6500,500,0,0,0,0
22,0,11,10,12,0.74399,1,0,0,0.3985,1500,0,6500,500,0,0,0,0
23,0,12,10,12,0.50119,0,0,0,0.29931,1500,0,6500,500,0,0,0,0
24,0,12,10,11,0.15524,1,0,0,0.36841,1500,0,6500,500,0,0,0,0
25,0,12,10,12,0.6189,0,0,0,0.4098,1500,0,6500,500,0,0,0,0
26,0,12,10,12,0.54784,0,0,0,0.4522,1500,0,6500,500,0,0,0,0
27,0,12,10,12,0.74942,0,0,0,0.39005,1500,0,6500,500,0,0,0,0
28,0,12,10,11,0.50373,1,0,0,0.4092,1500,0,6500,500,0,0,0,0
29,0,12,10,12,0.65207,0,0,0,0.49399,1500,0,6500,500,0,0,0,0
30,0,11,10,12,0.024991,1,0,0,0.44508,1500,0,6500,500,0,0,0,0
31,0,12,10,12,0.82948,0,0,0,0.38987,1500,0,6500,500,0,0,0,0
32,0,12,10,12,0.88145,0,0,0,0.34543,1500,0,6500,500,0,0,0,0
33,0,11,10,12,0.17861,1,0,0,0.38183,1500,0,6500,500,0,0,0,0
34,0,11,10,11,0.82489,0,0,0,0.39519,1500,0,6500,500,0,0,0,0
35,0,12,10,12,0.81484,0,0,0,0.44074,1500,0,6500,500,0,0,0,0
36,0,12,10,11,0.13768,1,0,0,0.41721,1500,0,6500,500,0,0,0,0
37,0,11,10,11,0.65878,0,0,0,0.44292,1500,0,6500,500,0,0,0,0
38,0,12,10,11,0.11079,1,0,0,0.39618,1500,0,6500,500,0,0,0,0
39,0,11,10,12,0.047475,1,0,0,0.40976,1500,0,6500,500,0,0,0,0
40,0,12,10,11,0.4609,1,0,0,0.39861,1500,0,6500,500,0,0,0,0
41,0,11,10,11,0.99364,0,0,0,0.41869,1500,0,6500,500,0,0,0,0
42,0,12,10,11,0.31743,1,0,0,0.41093,1500,0,6500,500,0,0,0,0
43,0,12,10,11,0.58348,1,0,0,0.36912,1500,0,6500,500,0,0,0,0
44,0,11,10,11,0.81905,0,0,0,0.3765,1500,0,6500,500,0,0,0,0
45,0,11,10,11,0.88912,0,0,0,0.38586,1500,0,6500,500,0,0,0,0
46,0,11,10,12,0.89092,1,0,0,0.41388,1500,0,6500,500,0,0,0,0
47,0,12,10,12,0.87857,0,0,0,0.3707,1500,0,6500,500,0,0,0,0
48,0,12,10,11,0.38192,1,0,0,0.489,1500,0,6500,500,0,0,0,0
49,0,12,10,12,0.59271,0,0,0,0.47589,1500,0,6500,500,0,0,0,0
50,0,12,10,12,0.96048,0,0,0,0.385,1500,0,6500,500,0,0,0,0
51,0,11,10,11,0.58898,0,0,0,0.32941,1500,0,6500,500,0,0,0,0
52,0,11,10,11,0.89224,0,0,0,0.3966,1500,0,6500,500,0,0,0,0
53,0,11,10,12,0.20151,1,0,0,0.35906,1500,0,6500,500,0,0,0,0
54,0,12,10,11,0.45052,1,0,0,0.44467,1500,0,6500,500,0,0,0,0
55,0,11,10,12,0.018454,1,0,0,0.34806,1500,0,6500,500,0,0,0,0
56,0,11,10,12,0.28505,1,0,0,0.43876,1500,0,6500,500,0,0,0,0
57,0,12,10,12,0.21428,0,0,0,0.31127,1500,0,6500,500,0,0,0,0
58,0,11,10,11,0.41079,0,0,0,0.45476,1500,0,6500,500,0,0,0,0
59,0,12,10,12,0.61912,0,0,0,0.36573,1500,0,6500,500,0,0,0,0
60,0,12,10,12,0.49625,0,0,0,0.33252,1500,0,6500,500,0,0,0,0
61,0,11,10,11,0.85802,0,0,0,0.3679,1500,0,6500,500,0,0,0,0
62,0,12,10,12,0.9007,0,0,0,0.42055,1500,0,6500,500,0,0,0,0
63,0,12,10,11,0.51532,1,0,0,0.48304,1500,0,6500,500,0,0,0,0
64,0,12,10,12,0.97845,0,0,0,0.41948,1500,0,6500,500,0,0,0,0
65,0,12,10,12,0.74324,0,0,0,0.38409,1500,0,6500,500,0,0,0,0
66,0,12,10,11,0.14541,1,0,0,0.33723,1500,0,6500,500,0,0,0,0
67,0,12,10,12,0.56696,0,0,0,0.31029,1500,0,6500,500,0,0,0,0
68,0,12,10,12,0.69244,0,0,0,0.42775,1500,0,6500,500,0,0,0,0
69,0,12,10,11,0.73511,1,0,0,0.41945,1500,0,6500,500,0,0,0,0
70,0,12,10,11,0.18031,1,0,0,0.42627,1500,0,6500,500,0,0,0,0
71,0,11,10,11,0.58289,0,0,0,0.42961,1500,0,6500,500,0,0,0,0
72,0,12,10,11,0.20468,1,0,0,0.4107,1500,0,6500,500,0,0,0,0
73,0,11,10,11,0.74027,0,0,0,0.36897,1500,0,6500,500,0,0,0,0
74,0,12,10,12,0.74031,0,0,0,0.43678,1500,0,6500,500,0,0,0,0
75,0,12,10,12,0.56505,0,0,0,0.37815,1500,0,6500,500,0,0,0,0
76,0,11,10,11,0.82743,0,0,0,0.36794,1500,0,6500,500,0,0,0,0
77,0,11,10,12,0.80558,1,0,0,0.42334,1500,0,6500,500,0,0,0,0
78,0,11,10,11,0.96817,0,0,0,0.40337,1500,0,6500,500,0,0,0,0
79,0,12,10,11,0.054957,1,0,0,0.40604,1500,0,6500,500,0,0,0,0
80,0,12,10,12,0.97728,0,0,0,0.4388,1500,0,6500,500,0,0,0,0
81,0,11,10,11,0.71818,0,0,0,0.31088,1500,0,6500,500,0,0,0,0
82,0,11,10,12,0.61421,1,0,0,0.35575,1500,0,6500,500,0,0,0,0
83,0,12,10,12,0.75472,0,0,0,0.43208,1500,0,6500,500,0,0,0,0
84,0,12,10,12,0.74706,0,0,0,0.4074,1500,0,6500,500,0,0,0,0
85,0,12,10,12,0.44351,0,0,0,0.38744,1500,0,6500,500,0,0,0,0
86,0,11,10,12,0.27534,1,0,0,0.48521,1500,0,6500,500,0,0,0,0
87,0,11,10,11,0.96713,0,0,0,0.46944,1500,0,6500,500,0,0,0,0
88,0,12,10,11,0.14016,1,0,0,0.47095,1500,0,6500,500,0,0,0,0
89,0,11,10,11,0.47728,0,0,0,0.41616,1500,0,6500,500,0,0,0,0
90,0,12,10,11,0.69908,1,0,0,0.46066,1500,0,6500,500,0,0,0,0
91,0,12,10,12,0.94337,0,0,0,0.35845,1500,0,6500,500,0,0,0,0
92,0,11,10,11,0.63985,0,0,0,0.34985,1500,0,6500,500,0,0,0,0
93,0,12,10,12,0.70791,0,0,0,0.31248,1500,0,6500,500,0,0,0,0
94,0,11,10,12,0.17605,1,0,0,0.3549,1500,0,6500,500,0,0,0,0
95,0,11,10,11,0.47511,0,0,0,0.46051,1500,0,6500,500,0,0,0,0
96,0,12,10,12,0.65444,0,0,0,0.3872,1500,0,6500,500,0,0,0,0
97,0,11,10,11,0.90759,0,0,0,0.38262,1500,0,6500,500,0,0,0,0
98,0,11,10,12,0.27874,1,0,0,0.36723,1500,0,6500,500,0,0,0,0
99,0,12,10,11,0.82768,1,0,0,0.43087,1500,0,6500,500,0,0,0,0
100,0,12,10,11,0.16205,1,0,0,0.36007,1500,0,6500,500,0,0,0,0
101,0,12,10,12,0.82951,0,0,0,0.49678,1500,0,6500,500,0,0,0,0
102,0,11,10,12,0.35087,1,0,0,0.36061,1500,0,6500,500,0,0,0,0
103,0,12,10,11,0.048455,1,0,0,0.40643,1500,0,6500,500,0,0,0,0
104,0,12,10,11,0.61222,1,0,0,0.43502,1500,0,6500,500,0,0,0,0
105,0,12,10,12,0.67021,0,0,0,0.34433,1500,0,6500,500,0,0,0,0
106,0,12,10,11,0.82498,1,0,0,0.45601,1500,0,6500,500,0,0,0,0
107,0,11,10,11,0.96236,0,0,0,0.37011,1500,0,6500,500,0,0,0,0
108,0,12,10,11,0.025346,1,0,0,0.37544,1500,0,6500,500,0,0,0,0
109,0,12,10,12,0.86293,0,0,0,0.34821,1500,0,6500,500,0,0,0,0
110,0,12,10,12,0.41482,0,0,0,0.36596,1500,0,6500,500,0,0,0,0
111,0,11,10,11,0.53849,0,0,0,0.32098,1500,0,6500,500,0,0,0,0
112,0,11,10,12,0.78676,1,0,0,0.40319,1500,0,6500,500,0,0,0,0
113,0,11,10,12,0.19903,1,0,0,0.41952,1500,0,6500,500,0,0,0,0
114,0,12,10,11,0.66772,1,0,0,0.3921,1500,0,6500,500,0,0,0,0
115,0,11,10,11,0.92944,0,0,0,0.36975,1500,0,6500,500,0,0,0,0
116,0,11,10,11,0.80923,0,0,0,0.32644,1500,0,6500,500,0,0,0,0
117,0,12,10,12,0.83936,0,0,0,0.4428,1500,0,6500,500,0,0,0,0
118,0,12,10,12,0.72835,0,0,0,0.42997,1500,0,6500,500,0,0,0,0
119,0,12,10,12,0.86553,0,0,0,0.34995,1500,0,6500,500,0,0,0,0
120,0,12,10,11,0.3631,1,0,0,0.40458,1500,0,6500,500,0,0,0,0
121,0,12,10,11,0.22323,1,0,0,0.41177,1500,0,6500,500,0,0,0,0
122,0,12,10,12,0.56708,0,0,0,0.37398,1500,0,6500,500,0,0,0,0
123,0,11,10,11,0.96087,0,0,0,0.43451,1500,0,6500,500,0,0,0,0
124,0,11,10,11,0.65398,0,0,0,0.40084,1500,0,6500,500,0,0,0,0
125,0,11,10,12,0.58926,1,0,0,0.4109,1500,0,6500,500,0,0,0,0
126,0,11,10,11,0.70212,0,0,0,0.42802,1500,0,6500,500,0,0,0,0
127,0,12,10,11,0.77273,1,0,0,0.37814,1500,0,6500,500,0,0,0,0
128,0,12,10,11,0.28718,1,0,0,0.34196,1500,0,6500,500,0,0,0,0
129,0,11,10,11,0.89943,0,0,0,0.29012,1500,0,6500,500,0,0,0,0
130,0,11,10,11,0.70257,0,0,0,0.43226,1500,0,6500,500,0,0,0,0
131,0,11,10,11,0.5541,0,0,0,0.38639,1500,0,6500,500,0,0,0,0
132,0,11,10,11,0.78872,0,0,0,0.41515,1500,0,6500,500,0,0,0,0
133,0,11,10,12,0.77416,1,0,0,0.40956,1500,0,6500,500,0,0,0,0
134,0,11,10,12,0.30045,1,0,0,0.35514,1500,0,6500,500,0,0,0,0
135,0,11,10,11,0.59611,0,0,0,0.42972,1500,0,6500,500,0,0,0,0
136,0,11,10,11,0.91586,0,0,0,0.41211,1500,0,6500,500,0,0,0,0
137,0,11,10,11,0.91161,0,0,0,0.48448,1500,0,6500,500,0,0,0,0
138,0,11,10,11,0.74316,0,0,0,0.40805,1500,0,6500,500,0,0,0,0
139,0,11,10,11,0.77024,0,0,0,0.4029,1500,0,6500,500,0,0,0,0
140,0,11,10,12,0.12141,1,0,0,0.34902,1500,0,6500,500,0,0,0,0
141,0,11,10,12,0.6416,1,0,0,0.38517,1500,0,6500,500,0,0,0,0
142,0,11,10,12,0.60464,1,0,0,0.42987,1500,0,6500,500,0,0,0,0
143,0,12,10,12,0.60345,0,0,0,0.41523,1500,0,6500,500,0,0,0,0
144,0,12,10,12,0.98374,0,0,0,0.42765,1500,0,6500,500,0,0,0,0
145,0,11,10,12,0.50389,1,0,0,0.36712,1500,0,6500,500,0,0,0,0
146,0,11,10,12,0.46914,1,0,0,0.43109,1500,0,6500,500,0,0,0,0
147,0,12,10,12,0.95071,0,0,0,0.36906,1500,0,6500,500,0,0,0,0
148,0,12,10,12,0.79458,0,0,0,0.41074,1500,0,6500,500,0,0,0,0
149,0,12,10,12,0.42378,0,0,0,0.4187,1500,0,6500,500,0,0,0,0
150,0,11,10,11,0.64387,0,0,0,0.37887,1500,0,6500,500,0,0,0,0
151,0,12,10,12,0.74001,0,0,0,0.35273,1500,0,6500,500,0,0,0,0
152,0,11,10,12,0.85332,1,0,0,0.43985,1500,0,6500,500,0,0,0,0
153,0,12,10,11,0.41281,1,0,0,0.33033,1500,0,6500,500,0,0,0,0
154,0,12,10,11,0.22343,1,0,0,0.39638,1500,0,6500,500,0,0,0,0
155,0,11,10,11,0.73349,0,0,0,0.34965,1500,0,6500,500,0,0,0,0
156,0,11,10,11,0.91988,0,0,0,0.35384,1500,0,6500,500,0,0,0,0
157,0,12,10,12,0.95663,0,0,0,0.47396,1500,0,6500,500,0,0,0,0
158,0,12,10,12,0.37405,0,0,0,0.4986,1500,0,6500,500,0,0,0,0
159,0,11,10,12,0.459,1,0,0,0.35032,1500,0,6500,500,0,0,0,0
160,0,12,10,11,0.23682,1,0,0,0.41356,1500,0,6500,500,0,0,0,0
161,0,11,10,11,0.7542,0,0,0,0.42985,1500,0,6500,500,0,0,0,0
162,0,12,10,11,0.15217,1,0,0,0.38366,1500,0,6500,500,0,0,0,0
163,0,11,10,11,0.85801,0,0,0,0.3955,1500,0,6500,500,0,0,0,0
164,0,11,10,11,0.70949,0,0,0,0.41811,1500,0,6500,500,0,0,0,0
165,0,11,10,11,0.83439,0,0,0,0.41159,1500,0,6500,500,0,0,0,0
166,0,12,10,11,0.51368,1,0,0,0.35712,1500,0,6500,500,0,0,0,0
167,0,11,10,11,0.91856,0,0,0,0.40987,1500,0,6500,500,0,0,0,0
168,0,12,10,11,0.22657,1,0,0,0.49965,1500,0,6500,500,0,0,0,0
169,0,11,10,11,0.92212,0,0,0,0.29797,1500,0,6500,500,0,0,0,0
170,0,12,10,12,0.82269,0,0,0,0.37854,1500,0,6500,500,0,0,0,0
171,0,12,10,11,0.85474,1,0,0,0.44519,1500,0,6500,500,0,0,0,0
172,0,11,10,11,0.88938,0,0,0,0.40196,1500,0,6500,500,0,0,0,0
173,0,11,10,11,0.41851,0,0,0,0.38864,1500,0,6500,500,0,0,0,0
174,0,11,10,11,0.67237,0,0,0,0.38549,1500,0,6500,500,0,0,0,0
175,0,11,10,11,0.54489,0,0,0,0.3957,1500,0,6500,500,0,0,0,0
176,0,12,10,11,0.22082,1,0,0,0.41876,1500,0,6500,500,0,0,0,0
177,0,11,10,11,0.93166,0,0,0,0.40479,1500,0,6500,500,0,0,0,0
178,0,11,10,11,0.87923,0,0,0,0.43811,1500,0,6500,500,0,0,0,0
179,0,11,10,11,0.96223,0,0,0,0.45829,1500,0,6500,500,0,0,0,0
180,0,11,10,11,0.61167,0,0,0,0.35088,1500,0,6500,500,0,0,0,0
181,0,12,10,11,0.3131,1,0,0,0.35487,1500,0,6500,500,0,0,0,0
182,0,12,10,12,0.57486,0,0,0,0.42782,1500,0,6500,500,0,0,0,0
183,0,11,10,12,0.29611,1,0,0,0.37537,1500,0,6500,500,0,0,0,0
184,0,12,10,11,0.48083,1,0,0,0.39143,1500,0,6500,500,0,0,0,0
185,0,11,10,11,0.97969,0,0,0,0.41103,1500,0,6500,500,0,0,0,0
186,0,11,10,11,0.93214,0,0,0,0.43008,1500,0,6500,500,0,0,0,0
187,0,12,10,12,0.66343,0,0,0,0.45986,1500,0,6500,500,0,0,0,0
188,0,11,10,11,0.51497,0,0,0,0.42818,1500,0,6500,500,0,0,0,0
189,0,12,10,11,0.30253,1,0,0,0.40723,1500,0,6500,500,0,0,0,0
190,0,12,10,12,0.76577,0,0,0,0.41007,1500,0,6500,500,0,0,0,0
191,0,11,10,12,0.4684,1,0,0,0.31655,1500,0,6500,500,0,0,0,0
192,0,11,10,11,0.61947,0,0,0,0.44838,1500,0,6500,500,0,0,0,0
193,0,11,10,11,0.76321,0,0,0,0.38856,1500,0,6500,500,0,0,0,0
194,0,12,10,12,0.7538,0,0,0,0.36609,1500,0,6500,500,0,0,0,0
195,0,12,10,11,0.47766,1,0,0,0.42482,1500,0,6500,500,0,0,0,0
196,0,12,10,11,0.40278,1,0,0,0.40776,1500,0,6500,500,0,0,0,0
197,0,12,10,12,0.77102,0,0,0,0.40087,1500,0,6500,500,0,0,0,0
198,0,12,10,12,0.46792,0,0,0,0.47341,1500,0,6500,500,0,0,0,0
199,0,11,10,11,0.65144,0,0,0,0.28466,1500,0,6500,500,0,0,0,0
200,0,12,10,11,0.085982,1,0,0,0.46603,1500,0,6500,500,0,0,0,0
201,0,12,10,12,0.93793,0,0,0,0.32341,1500,0,6500,500,0,0,0,0
202,0,12,10,12,0.75385,0,0,0,0.47513,1500,0,6500,500,0,0,0,0
203,0,11,10,11,0.68592,0,0,0,0.30768,1500,0,6500,500,0,0,0,0
204,0,12,10,12,0.72221,0,0,0,0.42926,1500,0,6500,500,0,0,0,0
205,0,12,10,12,0.64446,0,0,0,0.40037,1500,0,6500,500,0,0,0,0
206,0,11,10,12,0.24466,1,0,0,0.2579,1500,0,6500,500,0,0,0,0
207,0,12,10,12,0.76287,0,0,0,0.47494,1500,0,6500,500,0,0,0,0
208,0,11,10,12,0.53189,1,0,0,0.49615,1500,0,6500,500,0,0,0,0
209,0,11,10,12,0.22812,1,0,0,0.42333,1500,0,6500,500,0,0,0,0
210,0,12,10,12,0.3967,0,0,0,0.38173,1500,0,6500,500,0,0,0,0
211,0,11,10,11,0.89718,0,0,0,0.32416,1500,0,6500,500,0,0,0,0
212,0,12,10,12,0.89685,0,0,0,0.41397,1500,0,6500,500,0,0,0,0
213,0,12,10,12,0.70182,0,0,0,0.48559,1500,0,6500,500,0,0,0,0
214,0,12,10,12,0.59174,0,0,0,0.41801,1500,0,6500,500,0,0,0,0
215,0,11,10,11,0.73466,0,0,0,0.38434,1500,0,6500,500,0,0,0,0
216,0,11,10,11,0.68487,0,0,0,0.43509,1500,0,6500,500,0,0,0,0
217,0,12,10,12,0.35163,0,0,0,0.38406,1500,0,6500,500,0,0,0,0
218,0,11,10,11,0.95335,0,0,0,0.39237,1500,0,6500,500,0,0,0,0
219,0,11,10,11,0.77376,0,0,0,0.4098,1500,0,6500,500,0,0,0,0
220,0,12,10,12,0.82906,0,0,0,0.45637,1500,0,6500,500,0,0,0,0
221,0,12,10,12,0.86861,0,0,0,0.40617,1500,0,6500,500,0,0,0,0
222,0,11,10,12,0.52144,1,0,0,0.37616,1500,0,6500,500,0,0,0,0
223,0,12,10,12,0.93322,0,0,0,0.3824,1500,0,6500,500,0,0,0,0
224,0,11,10,11,0.81631,0,0,0,0.46216,1500,0,6500,500,0,0,0,0
225,0,12,10,12,0.94385,0,0,0,0.38586,1500,0,6500,500,0,0,0,0
226,0,11,10,11,0.94851,0,0,0,0.38739,1500,0,6500,500,0,0,0,0
227,0,11,10,11,0.48177,0,0,0,0.39859,1500,0,6500,500,0,0,0,0
228,0,11,10,11,0.89119,0,0,0,0.45004,1500,0,6500,500,0,0,0,0
229,0,12,10,12,0.77677,0,0,0,0.36264,1500,0,6500,500,0,0,0,0
230,0,12,10,12,0.78158,0,0,0,0.38101,1500,0,6500,500,0,0,0,0
231,0,12,10,12,0.84088,0,0,0,0.40321,1500,0,6500,500,0,0,0,0
232,0,11,10,12,0.1625,1,0,0,0.44282,1500,0,6500,500,0,0,0,0
233,0,12,10,12,0.9838,0,0,0,0.39318,1500,0,6500,500,0,0,0,0
234,0,11,10,12,0.16816,1,0,0,0.45434,1500,0,6500,500,0,0,0,0
235,0,12,10,12,0.76576,0,0,0,0.47576,1500,0,6500,500,0,0,0,0
236,0,11,10,11,0.6456,0,0,0,0.36899,1500,0,6500,500,0,0,0,0
237,0,11,10,12,0.1367,1,0,0,0.38939,1500,0,6500,500,0,0,0,0
238,0,11,10,12,0.18953,1,0,0,0.34745,1500,0,6500,500,0,0,0,0
239,0,12,10,12,0.85025,0,0,0,0.45131,1500,0,6500,500,0,0,0,0
240,0,11,10,11,0.81854,0,0,0,0.42602,1500,0,6500,500,0,0,0,0
241,0,12,10,11,0.030452,1,0,0,0.32907,1500,0,6500,500,0,0,0,0
242,0,12,10,11,0.13454,1,0,0,0.40982,1500,0,6500,500,0,0,0,0
243,0,12,10,11,0.084783,1,0,0,0.44883,1500,0,6500,500,0,0,0,0
244,0,12,10,12,0.52806,0,0,0,0.38691,1500,0,6500,500,0,0,0,0
245,0,12,10,11,0.6002,1,0,0,0.3824,1500,0,6500,500,0,0,0,0
246,0,11,10,11,0.41335,0,0,0,0.38793,1500,0,6500,500,0,0,0,0
247,0,11,10,11,0.99812,0,0,0,0.29684,1500,0,6500,500,0,0,0,0
248,0,11,10,11,0.78667,0,0,0,0.41595,1500,0,6500,500,0,0,0,0
249,0,12,10,12,0.68628,0,0,0,0.35826,1500,0,6500,500,0,0,0,0
250,0,11,10,12,0.47858,1,0,0,0.42762,1500,0,6500,500,0,0,0,0
251,0,11,10,11,0.27651,0,0,0,0.43007,1500,0,6500,500,0,0,0,0
252,0,12,10,12,0.80044,0,0,0,0.36604,1500,0,6500,500,0,0,0,0
253,0,11,10,12,0.17017,1,0,0,0.42866,1500,0,6500,500,0,0,0,0
254,0,11,10,11,0.24853,0,0,0,0.34305,1500,0,6500,500,0,0,0,0
255,0,12,10,12,0.84111,0,0,0,0.3869,1500,0,6500,500,0,0,0,0
256,0,12,10,12,0.55873,0,0,0,0.45907,1500,0,6500,500,0,0,0,0
257,0,11,10,11,0.8299,0,0,0,0.43062,1500,0,6500,500,0,0,0,0
258,0,12,10,12,0.95738,0,0,0,0.39946,1500,0,6500,500,0,0,0,0
259,0,11,10,11,0.57444,0,0,0,0.42702,1500,0,6500,500,0,0,0,0
260,0,12,10,11,0.20498,1,0,0,0.38973,1500,0,6500,500,0,0,0,0
261,0,11,10,11,0.96372,0,0,0,0.47236,1500,0,6500,500,0,0,0,0
262,0,11,10,11,0.97128,0,0,0,0.35985,1500,0,6500,500,0,0,0,0
263,0,12,10,11,0.87021,1,0,0,0.38638,1500,0,6500,500,0,0,0,0
264,0,12,10,12,0.9222,0,0,0,0.44021,1500,0,6500,500,0,0,0,0
265,0,12,10,12,0.62195,0,0,0,0.45067,1500,0,6500,500,0,0,0,0
266,0,12,10,11,0.22732,1,0,0,0.4342,1500,0,6500,500,0,0,0,0
267,0,12,10,12,0.79876,0,0,0,0.34679,1500,0,6500,500,0,0,0,0
268,0,12,10,12,0.70803,0,0,0,0.42804,1500,0,6500,500,0,0,0,0
269,0,12,10,11,0.46164,1,0,0,0.33134,1500,0,6500,500,0,0,0,0
270,0,11,10,11,0.79296,0,0,0,0.40892,1500,0,6500,500,0,0,0,0
271,0,12,10,12,0.84375,0,0,0,0.37826,1500,0,6500,500,0,0,0,0
272,0,12,10,12,0.82265,0,0,0,0.46097,1500,0,6500,500,0,0,0,0
273,0,11,10,12,0.60255,1,0,0,0.39501,1500,0,6500,500,0,0,0,0
274,0,11,10,11,0.83682,0,0,0,0.36302,1500,0,6500,500,0,0,0,0
275,0,12,10,12,0.45347,0,0,0,0.43147,1500,0,6500,500,0,0,0,0
276,0,12,10,11,0.39093,1,0,0,0.31995,1500,0,6500,500,0,0,0,0
277,0,12,10,12,0.96867,0,0,0,0.33532,1500,0,6500,500,0,0,0,0
278,0,12,10,11,0.61717,1,0,0,0.40748,1500,0,6500,500,0,0,0,0
279,0,12,10,12,0.85014,0,0,0,0.42127,1500,0,6500,500,0,0,0,0
280,0,11,10,11,0.95921,0,0,0,0.39318,1500,0,6500,500,0,0,0,0
281,0,11,10,12,0.32443,1,0,0,0.40137,1500,0,6500,500,0,0,0,0
282,0,11,10,11,0.73135,0,0,0,0.37986,1500,0,6500,500,0,0,0,0
283,0,11,10,11,0.79151,0,0,0,0.37436,1500,0,6500,500,0,0,0,0
284,0,11,10,11,0.58838,0,0,0,0.30667,1500,0,6500,500,0,0,0,0
285,0,12,10,12,0.83045,0,0,0,0.41968,1500,0,6500,500,0,0,0,0
286,0,12,10,11,0.36902,1,0,0,0.34795,1500,0,6500,500,0,0,0,0
287,0,11,10,12,0.2128,1,0,0,0.42676,1500,0,6500,500,0,0,0,0
288,0,12,10,12,0.37046,0,0,0,0.37068,1500,0,6500,500,0,0,0,0
289,0,11,10,11,0.89271,0,0,0,0.44647,1500,0,6500,500,0,0,0,0
290,0,11,10,11,0.92982,0,0,0,0.43033,1500,0,6500,500,0,0,0,0
291,0,11,10,11,0.68857,0,0,0,0.3695,1500,0,6500,500,0,0,0,0
292,0,12,10,11,0.28883,1,0,0,0.39575,1500,0,6500,500,0,0,0,0
293,0,11,10,12,0.43264,1,0,0,0.40369,1500,0,6500,500,0,0,0,0
294,0,12,10,11,0.5024,1,0,0,0.40768,1500,0,6500,500,0,0,0,0
295,0,11,10,11,0.91431,0,0,0,0.39147,1500,0,6500,500,0,0,0,0
296,0,11,10,11,0.19587,0,0,0,0.39066,1500,0,6500,500,0,0,0,0
297,0,12,10,12,0.95105,0,0,0,0.42248,1500,0,6500,500,0,0,0,0
298,0,11,10,12,0.33948,1,0,0,0.39818,1500,0,6500,500,0,0,0,0
299,0,12,10,12,0.83612,0,0,0,0.35675,1500,0,6500,500,0,0,0,0
300,0,12,10,12,0.97368,0,0,0,0.47663,1500,0,6500,500,0,0,0,0
301,0,12,10,11,0.35012,1,0,0,0.42542,1500,0,6500,500,0,0,0,0
302,0,12,10,11,0.43517,1,0,0,0.44883,1500,0,6500,500,0,0,0,0
303,0,12,10,12,0.79744,0,0,0,0.48445,1500,0,6500,500,0,0,0,0
304,0,12,10,11,0.17243,1,0,0,0.39671,1500,0,6500,500,0,0,0,0
305,0,11,10,11,0.51699,0,0,0,0.45092,1500,0,6500,500,0,0,0,0
306,0,11,10,11,0.8109,0,0,0,0.42048,1500,0,6500,500,0,0,0,0
307,0,11,10,11,0.86636,0,0,0,0.35802,1500,0,6500,500,0,0,0,0
308,0,11,10,11,0.81871,0,0,0,0.40264,1500,0,6500,500,0,0,0,0
309,0,12,10,12,0.94017,0,0,0,0.27756,1500,0,6500,500,0,0,0,0
310,0,12,10,11,0.67014,1,0,0,0.40949,1500,0,6500,500,0,0,0,0
311,0,12,10,11,0.77872,1,0,0,0.37069,1500,0,6500,500,0,0,0,0
312,0,12,10,11,0.46902,1,0,0,0.36805,1500,0,6500,500,0,0,0,0
313,0,12,10,12,0.92509,0,0,0,0.36795,1500,0,6500,500,0,0,0,0
314,0,12,10,11,0.30376,1,0,0,0.40223,1500,0,6500,500,0,0,0,0
315,0,12,10,12,0.76969,0,0,0,0.38708,1500,0,6500,500,0,0,0,0
316,0,11,10,12,0.33671,1,0,0,0.38239,1500,0,6500,500,0,0,0,0
317,0,11,10,12,0.24213,1,0,0,0.38665,1500,0,6500,500,0,0,0,0
318,0,12,10,12,0.4088,0,0,0,0.41725,1500,0,6500,500,0,0,0,0
319,0,11,10,11,0.83887,0,0,0,0.37978,1500,0,6500,500,0,0,0,0
320,0,12,10,12,0.85039,0,0,0,0.41787,1500,0,6500,500,0,0,0,0
321,0,12,10,12,0.94377,0,0,0,0.36651,1500,0,6500,500,0,0,0,0
322,0,11,10,12,0.074512,1,0,0,0.39263,1500,0,6500,500,0,0,0,0
323,0,12,10,12,0.95289,0,0,0,0.39324,1500,0,6500,500,0,0,0,0
324,0,12,10,12,0.90183,0,0,0,0.36303,1500,0,6500,500,0,0,0,0
325,0,11,10,11,0.96003,0,0,0,0.40291,1500,0,6500,500,0,0,0,0
326,0,11,10,12,0.79202,1,0,0,0.35338,1500,0,6500,500,0,0,0,0
327,0,11,10,11,0.40735,0,0,0,0.45321,1500,0,6500,500,0,0,0,0
328,0,12,10,12,0.82883,0,0,0,0.35353,1500,0,6500,500,0,0,0,0
329,0,12,10,12,0.71054,0,0,0,0.40555,1500,0,6500,500,0,0,0,0
330,0,12,10,12,0.91642,0,0,0,0.39807,1500,0,6500,500,0,0,0,0
331,0,11,10,11,0.92655,0,0,0,0.39452,1500,0,6500,500,0,0,0,0
332,0,11,10,12,0.090332,1,0,0,0.36846,1500,0,6500,500,0,0,0,0
333,0,11,10,11,0.92871,0,0,0,0.48428,1500,0,6500,500,0,0,0,0
334,0,11,10,11,0.84428,0,0,0,0.36241,1500,0,6500,500,0,0,0,0
335,0,11,10,11,0.75491,0,0,0,0.42862,1500,0,6500,500,0,0,0,0
336,0,12,10,11,0.46094,1,0,0,0.37844,1500,0,6500,500,0,0,0,0
337,0,12,10,12,0.45664,0,0,0,0.33619,1500,0,6500,500,0,0,0,0
338,0,11,10,11,0.9605,0,0,0,0.42974,1500,0,6500,500,0,0,0,0
339,0,12,10,11,0.52101,1,0,0,0.35716,1500,0,6500,500,0,0,0,0
340,0,11,10,11,0.7854,0,0,0,0.49572,1500,0,6500,500,0,0,0,0
341,0,12,10,12,0.83669,0,0,0,0.43806,1500,0,6500,500,0,0,0,0
342,0,11,10,12,0.082339,1,0,0,0.43445,1500,0,6500,500,0,0,0,0
343,0,12,10,12,0.36146,0,0,0,0.35817,1500,0,6500,500,0,0,0,0
344,0,12,10,12,0.73888,0,0,0,0.45785,1500,0,6500,500,0,0,0,0
345,0,11,10,11,0.79414,0,0,0,0.41562,1500,0,6500,500,0,0,0,0
346,0,12,10,12,0.60162,0,0,0,0.35625,1500,0,6500,500,0,0,0,0
347,0,12,10,12,0.91477,0,0,0,0.43991,1500,0,6500,500,0,0,0,0
348,0,12,10,12,0.55508,0,0,0,0.38884,1500,0,6500,500,0,0,0,0
349,0,11,10,11,0.56462,0,0,0,0.33662,1500,0,6500,500,0,0,0,0
350,0,12,10,12,0.35208,0,0,0,0.46993,1500,0,6500,500,0,0,0,0
351,0,12,10,12,0.89709,0,0,0,0.39282,1500,0,6500,500,0,0,0,0
352,0,11,10,11,0.93958,0,0,0,0.37068,1500,0,6500,500,0,0,0,0
353,0,11,10,11,0.76605,0,0,0,0.43932,1500,0,6500,500,0,0,0,0
354,0,11,10,11,0.7985,0,0,0,0.3318,1500,0,6500,500,0,0,0,0
355,0,11,10,11,0.94511,0,0,0,0.44568,1500,0,6500,500,0,0,0,0
356,0,12,10,11,0.19906,1,0,0,0.37186,1500,0,6500,500,0,0,0,0
357,0,12,10,12,0.78514,0,0,0,0.44304,1500,0,6500,500,0,0,0,0
358,0,11,10,11,0.92597,0,0,0,0.33836,1500,0,6500,500,0,0,0,0
359,0,11,10,11,0.74475,0,0,0,0.38794,1500,0,6500,500,0,0,0,0
360,0,12,10,12,0.96633,0,0,0,0.37349,1500,0,6500,500,0,0,0,0
361,0,12,10,12,0.8645,0,0,0,0.34934,1500,0,6500,500,0,0,0,0
362,0,12,10,11,0.28788,1,0,0,0.41168,1500,0,6500,500,0,0,0,0
363,0,11,10,11,0.39268,0,0,0,0.33416,1500,0,6500,500,0,0,0,0
364,0,11,10,11,0.42138,0,0,0,0.3489,1500,0,6500,500,0,0,0,0
365,0,12,10,12,0.90149,0,0,0,0.49353,1500,0,6500,500,0,0,0,0
366,0,12,10,12,0.742,0,0,0,0.44596,1500,0,6500,500,0,0,0,0
367,0,11,10,11,0.70076,0,0,0,0.40674,1500,0,6500,500,0,0,0,0
368,0,12,10,12,0.61933,0,0,0,0.40646,1500,0,6500,500,0,0,0,0
369,0,12,10,12,0.5027,0,0,0,0.39561,1500,0,6500,500,0,0,0,0
370,0,11,10,12,0.31394,1,0,0,0.42207,1500,0,6500,500,0,0,0,0
371,0,11,10,11,0.91239,0,0,0,0.38696,1500,0,6500,500,0,0,0,0
372,0,11,10,11,0.35944,0,0,0,0.34304,1500,0,6500,500,0,0,0,0
373,0,11,10,11,0.94267,0,0,0,0.4768,1500,0,6500,500,0,0,0,0
374,0,12,10,11,0.23452,1,0,0,0.3776,1500,0,6500,500,0,0,0,0
375,0,11,10,11,0.87071,0,0,0,0.46701,1500,0,6500,500,0,0,0,0
376,0,11,10,11,0.38535,0,0,0,0.40436,1500,0,6500,500,0,0,0,0
377,0,12,10,11,0.36864,1,0,0,0.40592,1500,0,6500,500,0,0,0,0
378,0,11,10,11,0.94753,0,0,0,0.43008,1500,0,6500,500,0,0,0,0
379,0,12,10,12,0.35853,0,0,0,0.32928,1500,0,6500,500,0,0,0,0
380,0,11,10,12,0.58723,1,0,0,0.387,1500,0,6500,500,0,0,0,0
381,0,12,10,12,0.8506,0,0,0,0.35446,1500,0,6500,500,0,0,0,0
382,0,11,10,11,0.89624,0,0,0,0.3578,1500,0,6500,500,0,0,0,0
383,0,12,10,12,0.61569,0,0,0,0.4146,1500,0,6500,500,0,0,0,0
384,0,11,10,11,0.37268,0,0,0,0.4841,1500,0,6500,500,0,0,0,0
385,0,12,10,12,0.53848,0,0,0,0.39339,1500,0,6500,500,0,0,0,0
386,0,11,10,11,0.87001,0,0,0,0.34838,1500,0,6500,500,0,0,0,0
387,0,12,10,12,0.94701,0,0,0,0.39196,1500,0,6500,500,0,0,0,0
388,0,11,10,12,0.14982,1,0,0,0.39685,1500,0,6500,500,0,0,0,0
389,0,12,10,12,0.8392,0,0,0,0.45496,1500,0,6500,500,0,0,0,0
390,0,11,10,11,0.75749,0,0,0,0.34429,1500,0,6500,500,0,0,0,0
391,0,12,10,12,0.76457,0,0,0,0.39845,1500,0,6500,500,0,0,0,0
392,0,11,10,11,0.32111,0,0,0,0.35799,1500,0,6500,500,0,0,0,0
393,0,12,10,12,0.8784,0,0,0,0.4305,1500,0,6500,500,0,0,0,0
394,0,11,10,11,0.74326,0,0,0,0.47272,1500,0,6500,500,0,0,0,0
395,0,12,10,12,0.94329,0,0,0,0.48579,1500,0,6500,500,0,0,0,0
396,0,12,10,12,0.84292,0,0,0,0.4285,1500,0,6500,500,0,0,0,0
397,0,11,10,11,0.95398,0,0,0,0.40689,1500,0,6500,500,0,0,0,0
398,0,12,10,12,0.71783,0,0,0,0.36164,1500,0,6500,500,0,0,0,0
399,0,11,10,11,0.56611,0,0,0,0.41321,1500,0,6500,500,0,0,0,0
400,0,11,10,11,0.83949,0,0,0,0.38067,1500,0,6500,500,0,0,0,0
401,0,11,10,12,0.26174,1,0,0,0.35961,1500,0,6500,500,0,0,0,0
402,0,12,10,12,0.89237,0,0,0,0.34147,1500,0,6500,500,0,0,0,0
403,0,11,10,11,0.60668,0,0,0,0.34588,1500,0,6500,500,0,0,0,0
404,0,11,10,11,0.93841,0,0,0,0.46107,1500,0,6500,500,0,0,0,0
405,0,11,10,11,0.91053,0,0,0,0.38047,1500,0,6500,500,0,0,0,0
406,0,11,10,11,0.51342,0,0,0,0.37858,1500,0,6500,500,0,0,0,0
407,0,11,10,11,0.75653,0,0,0,0.47937,1500,0,6500,500,0,0,0,0
408,0,11,10,12,0.34625,1,0,0,0.38774,1500,0,6500,500,0,0,0,0
409,0,12,10,11,0.17888,1,0,0,0.43217,1500,0,6500,500,0,0,0,0
410,0,12,10,12,0.60854,0,0,0,0.48226,1500,0,6500,500,0,0,0,0
411,0,12,10,11,0.94659,1,0,0,0.29314,1500,0,6500,500,0,0,0,0
412,0,11,10,11,0.7988,0,0,0,0.48582,1500,0,6500,500,0,0,0,0
413,0,12,10,12,0.90701,0,0,0,0.44243,1500,0,6500,500,0,0,0,0
414,0,11,10,11,0.88656,0,0,0,0.33196,1500,0,6500,500,0,0,0,0
415,0,12,10,11,0.3388,1,0,0,0.35807,1500,0,6500,500,0,0,0,0
416,0,12,10,12,0.89553,0,0,0,0.33542,1500,0,6500,500,0,0,0,0
417,0,11,10,12,0.24819,1,0,0,0.4004,1500,0,6500,500,0,0,0,0
418,0,12,10,12,0.31902,0,0,0,0.45571,1500,0,6500,500,0,0,0,0
419,0,11,10,12,0.68756,1,0,0,0.39284,1500,0,6500,500,0,0,0,0
420,0,12,10,12,0.5078,0,0,0,0.38634,1500,0,6500,500,0,0,0,0
421,0,11,10,11,0.7645,0,0,0,0.39515,1500,0,6500,500,0,0,0,0
422,0,11,10,11,0.40496,0,0,0,0.39395,1500,0,6500,500,0,0,0,0
423,0,12,10,12,0.89765,0,0,0,0.35753,1500,0,6500,500,0,0,0,0
424,0,12,10,11,0.19961,1,0,0,0.36742,1500,0,6500,500,0,0,0,0
425,0,11,10,11,0.084541,0,0,0,0.38646,1500,0,6500,500,0,0,0,0
426,0,11,10,12,0.35932,1,0,0,0.37926,1500,0,6500,500,0,0,0,0
427,0,11,10,11,0.82795,0,0,0,0.35244,1500,0,6500,500,0,0,0,0
428,0,11,10,11,0.81636,0,0,0,0.45804,1500,0,6500,500,0,0,0,0
429,0,12,10,12,0.86251,0,0,0,0.41038,1500,0,6500,500,0,0,0,0
430,0,11,10,11,0.94408,0,0,0,0.33614,1500,0,6500,500,0,0,0,0
431,0,12,10,12,0.5873,0,0,0,0.41295,1500,0,6500,500,0,0,0,0
432,0,12,10,11,0.20843,1,0,0,0.41649,1500,0,6500,500,0,0,0,0
433,0,11,10,11,0.83366,0,0,0,0.39607,1500,0,6500,500,0,0,0,0
434,0,12,10,11,0.31766,1,0,0,0.36885,1500,0,6500,500,0,0,0,0
435,0,11,10,11,0.44662,0,0,0,0.35716,1500,0,6500,500,0,0,0,0
436,0,11,10,11,0.98277,0,0,0,0.42915,1500,0,6500,500,0,0,0,0
437,0,11,10,12,0.58118,1,0,0,0.39216,1500,0,6500,500,0,0,0,0
438,0,11,10,12,0.022717,1,0,0,0.37972,1500,0,6500,500,0,0,0,0
439,0,11,10,12,0.72082,1,0,0,0.35315,1500,0,6500,500,0,0,0,0
440,0,12,10,12,0.91646,0,0,0,0.49364,1500,0,6500,500,0,0,0,0
441,0,12,10,12,0.70274,0,0,0,0.38809,1500,0,6500,500,0,0,0,0
442,0,12,10,12,0.95543,0,0,0,0.44742,1500,0,6500,500,0,0,0,0
443,0,12,10,11,0.42805,1,0,0,0.36801,1500,0,6500,500,0,0,0,0
444,0,11,10,11,0.63598,0,0,0,0.32262,1500,0,6500,500,0,0,0,0
445,0,12,10,11,0.59534,1,0,0,0.41959,1500,0,6500,500,0,0,0,0
446,0,11,10,12,0.58657,1,0,0,0.34177,1500,0,6500,500,0,0,0,0
447,0,11,10,11,0.68969,0,0,0,0.39644,1500,0,6500,500,0,0,0,0
448,0,11,10,11,0.87066,0,0,0,0.39179,1500,0,6500,500,0,0,0,0
449,0,11,10,11,0.90148,0,0,0,0.45816,1500,0,6500,500,0,0,0,0
450,0,11,10,12,0.3682,1,0,0,0.38528,1500,0,6500,500,0,0,0,0
451,0,12,10,11,0.19989,1,0,0,0.38558,1500,0,6500,500,0,0,0,0
452,0,12,10,12,0.92854,0,0,0,0.41275,1500,0,6500,500,0,0,0,0
453,0,12,10,12,0.85956,0,0,0,0.44432,1500,0,6500,500,0,0,0,0
454,0,12,10,12,0.69674,0,0,0,0.33849,1500,0,6500,500,0,0,0,0
455,0,12,10,12,0.8488,0,0,0,0.40895,1500,0,6500,500,0,0,0,0
456,0,11,10,11,0.83016,0,0,0,0.35494,1500,0,6500,500,0,0,0,0
457,0,11,10,11,0.88439,0,0,0,0.40908,1500,0,6500,500,0,0,0,0
458,0,12,10,11,0.035448,1,0,0,0.31203,1500,0,6500,500,0,0,0,0
459,0,11,10,11,0.93891,0,0,0,0.40305,1500,0,6500,500,0,0,0,0
460,0,11,10,11,0.90577,0,0,0,0.36536,1500,0,6500,500,0,0,0,0
461,0,11,10,11,0.94169,0,0,0,0.35068,1500,0,6500,500,0,0,0,0
462,0,11,10,11,0.82178,0,0,0,0.37583,1500,0,6500,500,0,0,0,0
463,0,12,10,11,0.20463,1,0,0,0.38125,1500,0,6500,500,0,0,0,0
464,0,12,10,12,0.81757,0,0,0,0.38317,1500,0,6500,500,0,0,0,0
465,0,11,10,11,0.81497,0,0,0,0.35361,1500,0,6500,500,0,0,0,0
466,0,11,10,12,0.211,1,0,0,0.39065,1500,0,6500,500,0,0,0,0
467,0,11,10,11,0.64184,0,0,0,0.45369,1500,0,6500,500,0,0,0,0
468,0,12,10,12,0.29835,0,0,0,0.40778,1500,0,6500,500,0,0,0,0
469,0,11,10,11,0.8945,0,0,0,0.34894,1500,0,6500,500,0,0,0,0
470,0,12,10,12,0.36796,0,0,0,0.40121,1500,0,6500,500,0,0,0,0
471,0,12,10,12,0.79227,0,0,0,0.38977,1500,0,6500,500,0,0,0,0
472,0,11,10,11,0.83382,0,0,0,0.4073,1500,0,6500,500,0,0,0,0
473,0,11,10,12,0.12921,1,0,0,0.36454,1500,0,6500,500,0,0,0,0
474,0,12,10,12,0.65768,0,0,0,0.39536,1500,0,6500,500,0,0,0,0
475,0,12,10,12,0.74588,0,0,0,0.44385,1500,0,6500,500,0,0,0,0
476,0,11,10,11,0.87245,0,0,0,0.41394,1500,0,6500,500,0,0,0,0
477,0,11,10,11,0.86674,0,0,0,0.49925,1500,0,6500,500,0,0,0,0
478,0,12,10,12,0.94486,0,0,0,0.33013,1500,0,6500,500,0,0,0,0
479,0,12,10,12,0.96421,0,0,0,0.41435,1500,0,6500,500,0,0,0,0
480,0,11,10,11,0.93884,0,0,0,0.3399,1500,0,6500,500,0,0,0,0
481,0,12,10,12,0.92424,0,0,0,0.38087,1500,0,6500,500,0,0,0,0
482,0,11,10,12,0.19093,1,0,0,0.40843,1500,0,6500,500,0,0,0,0
483,0,11,10,11,0.89644,0,0,0,0.39746,1500,0,6500,500,0,0,0,0
484,0,12,10,12,0.40634,0,0,0,0.3715,1500,0,6500,500,0,0,0,0
485,0,11,10,12,0.08073,1,0,0,0.40281,1500,0,6500,500,0,0,0,0
486,0,12,10,12,0.94714,0,0,0,0.41515,1500,0,6500,500,0,0,0,0
487,0,12,10,11,0.35118,1,0,0,0.34652,1500,0,6500,500,0,0,0,0
488,0,11,10,11,0.78297,0,0,0,0.43264,1500,0,6500,500,0,0,0,0
489,0,11,10,11,0.17536,0,0,0,0.4271,1500,0,6500,500,0,0,0,0
490,0,12,10,12,0.57284,0,0,0,0.43414,1500,0,6500,500,0,0,0,0
491,0,12,10,11,0.53382,1,0,0,0.35943,1500,0,6500,500,0,0,0,0
492,0,12,10,12,0.48924,0,0,0,0.41239,1500,0,6500,500,0,0,0,0
493,0,11,10,11,0.736,0,0,0,0.39589,1500,0,6500,500,0,0,0,0
494,0,12,10,12,0.83495,0,0,0,0.46287,1500,0,6500,500,0,0,0,0
495,0,11,10,12,0.30377,1,0,0,0.32819,1500,0,6500,500,0,0,0,0
496,0,11,10,11,0.46135,0,0,0,0.42033,1500,0,6500,500,0,0,0,0
497,0,11,10,12,0.30231,1,0,0,0.3636,1500,0,6500,500,0,0,0,0
498,0,11,10,11,0.9892,0,0,0,0.3633,1500,0,6500,500,0,0,0,0
499,0,11,10,11,0.49104,0,0,0,0.48032,1500,0,6500,500,0,0,0,0
500,0,11,10,12,0.036777,1,0,0,0.42137,1500,0,6500,500,0,0,0,0
501,0,11,10,12,0.25792,1,0,0,0.33741,1500,0,6500,500,0,0,0,0
502,0,12,10,12,0.84466,0,0,0,0.38964,1500,0,6500,500,0,0,0,0
503,0,12,10,11,0.072315,1,0,0,0.34694,1500,0,6500,500,0,0,0,0
504,0,11,10,12,0.30536,1,0,0,0.43163,1500,0,6500,500,0,0,0,0
505,0,12,10,12,0.5846,0,0,0,0.46771,1500,0,6500,500,0,0,0,0
506,0,12,10,11,0.13816,1,0,0,0.38333,1500,0,6500,500,0,0,0,0
507,0,11,10,11,0.83978,0,0,0,0.43659,1500,0,6500,500,0,0,0,0
508,0,11,10,11,0.91319,0,0,0,0.40521,1500,0,6500,500,0,0,0,0
509,0,12,10,12,0.9147,0,0,0,0.36442,1500,0,6500,500,0,0,0,0
510,0,12,10,12,0.83178,0,0,0,0.42784,1500,0,6500,500,0,0,0,0
511,0,12,10,12,0.98764,0,0,0,0.38276,1500,0,6500,500,0,0,0,0
512,0,12,10,12,0.98031,0,0,0,0.48696,1500,0,6500,500,0,0,0,0
513,0,11,10,12,0.024858,1,0,0,0.38317,1500,0,6500,500,0,0,0,0
514,0,11,10,11,0.6984,0,0,0,0.41744,1500,0,6500,500,0,0,0,0
515,0,12,10,12,0.80501,0,0,0,0.36879,1500,0,6500,500,0,0,0,0
516,0,12,10,12,0.85263,0,0,0,0.40015,1500,0,6500,500,0,0,0,0
517,0,11,10,11,0.98252,0,0,0,0.39979,1500,0,6500,500,0,0,0,0
518,0,12,10,11,0.34631,1,0,0,0.37565,1500,0,6500,500,0,0,0,0
519,0,12,10,12,0.79873,0,0,0,0.33006,1500,0,6500,500,0,0,0,0
520,0,11,10,12,0.45815,1,0,0,0.40995,1500,0,6500,500,0,0,0,0
521,0,12,10,11,0.12889,1,0,0,0.41129,1500,0,6500,500,0,0,0,0
522,0,12,10,12,0.83238,0,0,0,0.37993,1500,0,6500,500,0,0,0,0
523,0,11,10,12,0.75169,1,0,0,0.38444,1500,0,6500,500,0,0,0,0
524,0,11,10,11,0.88477,0,0,0,0.33735,1500,0,6500,500,0,0,0,0
525,0,11,10,11,0.81846,0,0,0,0.41053,1500,0,6500,500,0,0,0,0
526,0,12,10,12,0.92024,0,0,0,0.35872,1500,0,6500,500,0,0,0,0
527,0,11,10,11,0.90448,0,0,0,0.3965,1500,0,6500,500,0,0,0,0
528,0,11,10,12,0.81556,1,0,0,0.3575,1500,0,6500,500,0,0,0,0
529,0,12,10,11,0.27549,1,0,0,0.35764,1500,0,6500,500,0,0,0,0
530,0,11,10,12,0.17484,1,0,0,0.36375,1500,0,6500,500,0,0,0,0
531,0,11,10,11,0.92496,0,0,0,0.35003,1500,0,6500,500,0,0,0,0
532,0,12,10,11,0.15002,1,0,0,0.44251,1500,0,6500,500,0,0,0,0
533,0,12,10,12,0.77904,0,0,0,0.39309,1500,0,6500,500,0,0,0,0
534,0,12,10,12,0.97198,0,0,0,0.34835,1500,0,6500,500,0,0,0,0
535,0,11,10,11,0.77185,0,0,0,0.41835,1500,0,6500,500,0,0,0,0
536,0,11,10,11,0.79544,0,0,0,0.38932,1500,0,6500,500,0,0,0,0
537,0,11,10,11,0.77814,0,0,0,0.46056,1500,0,6500,500,0,0,0,0
538,0,11,10,11,0.37363,0,0,0,0.33834,1500,0,6500,500,0,0,0,0
539,0,12,10,12,0.84307,0,0,0,0.40575,1500,0,6500,500,0,0,0,0
540,0,12,10,12,0.67353,0,0,0,0.46969,1500,0,6500,500,0,0,0,0
541,0,11,10,12,0.24302,1,0,0,0.44725,1500,0,6500,500,0,0,0,0
542,0,11,10,12,0.082292,1,0,0,0.49143,1500,0,6500,500,0,0,0,0
543,0,12,10,11,0.080664,1,0,0,0.43818,1500,0,6500,500,0,0,0,0
544,0,11,10,12,0.48197,1,0,0,0.442,1500,0,6500,500,0,0,0,0
545,0,11,10,12,0.081911,1,0,0,0.41801,1500,0,6500,500,0,0,0,0
546,0,11,10,11,0.50143,0,0,0,0.34008,1500,0,6500,500,0,0,0,0
547,0,12,10,12,0.78393,0,0,0,0.36772,1500,0,6500,500,0,0,0,0
548,0,12,10,12,0.7881,0,0,0,0.46879,1500,0,6500,500,0,0,0,0
549,0,11,10,11,0.86416,0,0,0,0.37198,1500,0,6500,500,0,0,0,0
550,0,11,10,11,0.67089,0,0,0,0.38863,1500,0,6500,500,0,0,0,0
551,0,12,10,12,0.75655,0,0,0,0.39816,1500,0,6500,500,0,0,0,0
552,0,11,10,11,0.48648,0,0,0,0.46369,1500,0,6500,500,0,0,0,0
553,0,12,10,12,0.89932,0,0,0,0.49219,1500,0,6500,500,0,0,0,0
554,0,12,10,12,0.96222,0,0,0,0.40309,1500,0,6500,500,0,0,0,0
555,0,11,10,12,0.62958,1,0,0,0.37384,1500,0,6500,500,0,0,0,0
556,0,12,10,11,0.27047,1,0,0,0.39842,1500,0,6500,500,0,0,0,0
557,0,11,10,12,0.20397,1,0,0,0.42592,1500,0,6500,500,0,0,0,0
558,0,12,10,11,0.35355,1,0,0,0.41091,1500,0,6500,500,0,0,0,0
559,0,12,10,12,0.94946,0,0,0,0.36985,1500,0,6500,500,0,0,0,0
560,0,12,10,12,0.78125,0,0,0,0.4415,1500,0,6500,500,0,0,0,0
561,0,12,10,12,0.90947,0,0,0,0.34183,1500,0,6500,500,0,0,0,0
562,0,11,10,11,0.89962,0,0,0,0.30038,1500,0,6500,500,0,0,0,0
563,0,12,10,12,0.74846,0,0,0,0.41156,1500,0,6500,500,0,0,0,0
564,0,11,10,11,0.52406,0,0,0,0.38547,1500,0,6500,500,0,0,0,0
565,0,11,10,11,0.82131,0,0,0,0.34477,1500,0,6500,500,0,0,0,0
566,0,11,10,11,0.90889,0,0,0,0.41324,1500,0,6500,500,0,0,0,0
567,0,12,10,12,0.27659,0,0,0,0.47802,1500,0,6500,500,0,0,0,0
568,0,12,10,11,0.35221,1,0,0,0.32543,1500,0,6500,500,0,0,0,0
569,0,12,10,12,0.96666,0,0,0,0.36304,1500,0,6500,500,0,0,0,0
570,0,12,10,12,0.73552,0,0,0,0.40301,1500,0,6500,500,0,0,0,0
571,0,11,10,11,0.88403,0,0,0,0.27859,1500,0,6500,500,0,0,0,0
572,0,12,10,11,0.44636,1,0,0,0.33132,1500,0,6500,500,0,0,0,0
573,0,12,10,12,0.79024,0,0,0,0.38628,1500,0,6500,500,0,0,0,0
574,0,11,10,11,0.89912,0,0,0,0.40525,1500,0,6500,500,0,0,0,0
575,0,12,10,11,0.17657,1,0,0,0.45206,1500,0,6500,500,0,0,0,0
576,0,12,10,11,0.19509,1,0,0,0.40538,1500,0,6500,500,0,0,0,0
577,0,12,10,12,0.42451,0,0,0,0.43602,1500,0,6500,500,0,0,0,0
578,0,11,10,11,0.94497,0,0,0,0.39151,1500,0,6500,500,0,0,0,0
579,0,12,10,12,0.98742,0,0,0,0.38835,1500,0,6500,500,0,0,0,0
580,0,11,10,11,0.98507,0,0,0,0.37688,1500,0,6500,500,0,0,0,0
581,0,11,10,11,0.98989,0,0,0,0.45414,1500,0,6500,500,0,0,0,0
582,0,11,10,11,0.75506,0,0,0,0.31608,1500,0,6500,500,0,0,0,0
583,0,12,10,11,0.15548,1,0,0,0.38315,1500,0,6500,500,0,0,0,0
584,0,11,10,11,0.95078,0,0,0,0.36254,1500,0,6500,500,0,0,0,0
585,0,12,10,12,0.92638,0,0,0,0.48968,1500,0,6500,500,0,0,0,0
586,0,12,10,12,0.93563,0,0,0,0.40775,1500,0,6500,500,0,0,0,0
587,0,11,10,12,0.042379,1,0,0,0.44988,1500,0,6500,500,0,0,0,0
588,0,12,10,12,0.90678,0,0,0,0.49533,1500,0,6500,500,0,0,0,0
589,0,11,10,12,0.74262,1,0,0,0.41888,1500,0,6500,500,0,0,0,0
590,0,11,10,12,0.12177,1,0,0,0.49754,1500,0,6500,500,0,0,0,0
591,0,12,10,12,0.62752,0,0,0,0.47077,1500,0,6500,500,0,0,0,0
592,0,11,10,11,0.93817,0,0,0,0.46361,1500,0,6500,500,0,0,0,0
593,0,12,10,12,0.84192,0,0,0,0.38,1500,0,6500,500,0,0,0,0
594,0,11,10,11,0.72097,0,0,0,0.45207,1500,0,6500,500,0,0,0,0
595,0,12,10,12,0.91215,0,0,0,0.38969,1500,0,6500,500,0,0,0,0
596,0,12,10,12,0.96528,0,0,0,0.39913,1500,0,6500,500,0,0,0,0
597,0,12,10,12,0.81697,0,0,0,0.44312,1500,0,6500,500,0,0,0,0
598,0,11,10,11,0.92203,0,0,0,0.38074,1500,0,6500,500,0,0,0,0
599,0,12,10,11,0.099874,1,0,0,0.3543,1500,0,6500,500,0,0,0,0
600,0,12,10,12,0.84168,0,0,0,0.34799,1500,0,6500,500,0,0,0,0
601,0,12,10,12,0.86294,0,0,0,0.32891,1500,0,6500,500,0,0,0,0
602,0,11,10,11,0.97099,0,0,0,0.41922,1500,0,6500,500,0,0,0,0
603,0,12,10,12,0.97914,0,0,0,0.46561,1500,0,6500,500,0,0,0,0
604,0,11,10,11,0.77228,0,0,0,0.29365,1500,0,6500,500,0,0,0,0
605,0,11,10,11,0.80455,0,0,0,0.37645,1500,0,6500,500,0,0,0,0
606,0,12,10,11,0.20147,1,0,0,0.40454,1500,0,6500,500,0,0,0,0
607,0,11,10,12,0.60271,1,0,0,0.27132,1500,0,6500,500,0,0,0,0
608,0,12,10,12,0.22802,0,0,0,0.3899,1500,0,6500,500,0,0,0,0
609,0,11,10,11,0.78855,0,0,0,0.40138,1500,0,6500,500,0,0,0,0
610,0,11,10,11,0.68046,0,0,0,0.38695,1500,0,6500,500,0,0,0,0
611,0,11,10,12,0.1805,1,0,0,0.33754,1500,0,6500,500,0,0,0,0
612,0,12,10,12,0.82972,0,0,0,0.36581,1500,0,6500,500,0,0,0,0
613,0,11,10,11,0.56346,0,0,0,0.40989,1500,0,6500,500,0,0,0,0
614,0,11,10,11,0.45366,0,0,0,0.39222,1500,0,6500,500,0,0,0,0
615,0,11,10,11,0.51108,0,0,0,0.44754,1500,0,6500,500,0,0,0,0
616,0,12,10,12,0.55906,0,0,0,0.4741,1500,0,6500,500,0,0,0,0
617,0,11,10,11,0.98558,0,0,0,0.40727,1500,0,6500,500,0,0,0,0
618,0,11,10,12,0.89983,1,0,0,0.32487,1500,0,6500,500,0,0,0,0
619,0,11,10,11,0.9217,0,0,0,0.3751,1500,0,6500,500,0,0,0,0
620,0,11,10,12,0.30703,1,0,0,0.40914,1500,0,6500,500,0,0,0,0
621,0,12,10,12,0.63941,0,0,0,0.41134,1500,0,6500,500,0,0,0,0
622,0,11,10,11,0.89757,0,0,0,0.37862,1500,0,6500,500,0,0,0,0
623,0,12,10,12,0.96825,0,0,0,0.47207,1500,0,6500,500,0,0,0,0
624,0,12,10,11,0.52205,1,0,0,0.3433,1500,0,6500,500,0,0,0,0
625,0,12,10,12,0.55428,0,0,0,0.36195,1500,0,6500,500,0,0,0,0
626,0,12,10,12,0.35746,0,0,0,0.39108,1500,0,6500,500,0,0,0,0
627,0,12,10,12,0.71327,0,0,0,0.32801,1500,0,6500,500,0,0,0,0
628,0,12,10,12,0.73496,0,0,0,0.36132,1500,0,6500,500,0,0,0,0
629,0,12,10,12,0.70841,0,0,0,0.41851,1500,0,6500,500,0,0,0,0
630,0,12,10,12,0.89078,0,0,0,0.48624,1500,0,6500,500,0,0,0,0
631,0,12,10,12,0.49744,0,0,0,0.44671,1500,0,6500,500,0,0,0,0
632,0,11,10,11,0.86834,0,0,0,0.41676,1500,0,6500,500,0,0,0,0
633,0,11,10,12,0.17604,1,0,0,0.43087,1500,0,6500,500,0,0,0,0
634,0,12,10,12,0.49415,0,0,0,0.4184,1500,0,6500,500,0,0,0,0
635,0,12,10,12,0.88099,0,0,0,0.37167,1500,0,6500,500,0,0,0,0
636,0,11,10,11,0.68338,0,0,0,0.39416,1500,0,6500,500,0,0,0,0
637,0,11,10,12,0.62865,1,0,0,0.2239,1500,0,6500,500,0,0,0,0
638,0,11,10,11,0.85602,0,0,0,0.34546,1500,0,6500,500,0,0,0,0
639,0,11,10,12,0.23052,1,0,0,0.36456,1500,0,6500,500,0,0,0,0
640,0,12,10,12,0.92754,0,0,0,0.43274,1500,0,6500,500,0,0,0,0
641,0,11,10,11,0.55851,0,0,0,0.36424,1500,0,6500,500,0,0,0,0
642,0,11,10,12,0.66155,1,0,0,0.40228,1500,0,6500,500,0,0,0,0
643,0,11,10,12,0.49778,1,0,0,0.46549,1500,0,6500,500,0,0,0,0
644,0,12,10,12,0.79463,0,0,0,0.36281,1500,0,6500,500,0,0,0,0
645,0,11,10,11,0.80506,0,0,0,0.44316,1500,0,6500,500,0,0,0,0
646,0,11,10,11,0.85699,0,0,0,0.39795,1500,0,6500,500,0,0,0,0
647,0,12,10,12,0.87365,0,0,0,0.43936,1500,0,6500,500,0,0,0,0
648,0,12,10,12,0.81484,0,0,0,0.36148,1500,0,6500,500,0,0,0,0
649,0,11,10,11,0.90171,0,0,0,0.42403,1500,0,6500,500,0,0,0,0
650,0,11,10,11,0.55014,0,0,0,0.3596,1500,0,6500,500,0,0,0,0
651,0,11,10,12,0.4849,1,0,0,0.38171,1500,0,6500,500,0,0,0,0
652,0,11,10,11,0.81204,0,0,0,0.46877,1500,0,6500,500,0,0,0,0
653,0,12,10,12,0.85358,0,0,0,0.32676,1500,0,6500,500,0,0,0,0
654,0,12,10,11,0.035291,1,0,0,0.3077,1500,0,6500,500,0,0,0,0
655,0,12,10,12,0.81865,0,0,0,0.35246,1500,0,6500,500,0,0,0,0
656,0,12,10,12,0.82174,0,0,0,0.37932,1500,0,6500,500,0,0,0,0
657,0,11,10,11,0.69869,0,0,0,0.36219,1500,0,6500,500,0,0,0,0
658,0,11,10,11,0.58513,0,0,0,0.47758,1500,0,6500,500,0,0,0,0
659,0,11,10,12,0.46411,1,0,0,0.48841,1500,0,6500,500,0,0,0,0
660,0,12,10,11,0.24862,1,0,0,0.34198,1500,0,6500,500,0,0,0,0
661,0,12,10,12,0.17426,0,0,0,0.40643,1500,0,6500,500,0,0,0,0
662,0,11,10,12,0.17015,1,0,0,0.36524,1500,0,6500,500,0,0,0,0
663,0,11,10,11,0.63645,0,0,0,0.46353,1500,0,6500,500,0,0,0,0
664,0,12,10,12,0.977,0,0,0,0.40809,1500,0,6500,500,0,0,0,0
665,0,11,10,12,0.19841,1,0,0,0.38931,1500,0,6500,500,0,0,0,0
666,0,11,10,12,0.02007,1,0,0,0.38182,1500,0,6500,500,0,0,0,0
667,0,12,10,11,0.23089,1,0,0,0.4157,1500,0,6500,500,0,0,0,0
668,0,11,10,11,0.94973,0,0,0,0.3976,1500,0,6500,500,0,0,0,0
669,0,12,10,12,0.89976,0,0,0,0.42139,1500,0,6500,500,0,0,0,0
670,0,11,10,12,0.16007,1,0,0,0.44953,1500,0,6500,500,0,0,0,0
671,0,12,10,12,0.94243,0,0,0,0.36701,1500,0,6500,500,0,0,0,0
672,0,11,10,12,0.31812,1,0,0,0.43937,1500,0,6500,500,0,0,0,0
673,0,12,10,12,0.78274,0,0,0,0.45343,1500,0,6500,500,0,0,0,0
674,0,11,10,11,0.83382,0,0,0,0.46564,1500,0,6500,500,0,0,0,0
675,0,12,10,12,0.7585,0,0,0,0.47542,1500,0,6500,500,0,0,0,0
676,0,11,10,12,0.17543,1,0,0,0.31617,1500,0,6500,500,0,0,0,0
677,0,12,10,11,0.28923,1,0,0,0.3578,1500,0,6500,500,0,0,0,0
678,0,11,10,11,0.96551,0,0,0,0.39214,1500,0,6500,500,0,0,0,0
679,0,12,10,11,0.30931,1,0,0,0.45229,1500,0,6500,500,0,0,0,0
680,0,12,10,11,0.31018,1,0,0,0.42848,1500,0,6500,500,0,0,0,0
681,0,12,10,11,0.28351,1,0,0,0.4265,1500,0,6500,500,0,0,0,0
682,0,11,10,11,0.54612,0,0,0,0.37425,1500,0,6500,500,0,0,0,0
683,0,12,10,11,0.069255,1,0,0,0.34973,1500,0,6500,500,0,0,0,0
684,0,12,10,12,0.87183,0,0,0,0.39262,1500,0,6500,500,0,0,0,0
685,0,12,10,12,0.57867,0,0,0,0.34435,1500,0,6500,500,0,0,0,0
686,0,11,10,11,0.71341,0,0,0,0.46692,1500,0,6500,500,0,0,0,0
687,0,12,10,12,0.90132,0,0,0,0.34638,1500,0,6500,500,0,0,0,0
688,0,11,10,11,0.93961,0,0,0,0.42559,1500,0,6500,500,0,0,0,0
689,0,11,10,12,0.30474,1,0,0,0.41124,1500,0,6500,500,0,0,0,0
690,0,12,10,11,0.26537,1,0,0,0.40642,1500,0,6500,500,0,0,0,0
691,0,12,10,12,0.93015,0,0,0,0.36543,1500,0,6500,500,0,0,0,0
692,0,12,10,12,0.81799,0,0,0,0.43666,1500,0,6500,500,0,0,0,0
693,0,11,10,11,0.81022,0,0,0,0.3678,1500,0,6500,500,0,0,0,0
694,0,11,10,11,0.88483,0,0,0,0.34037,1500,0,6500,500,0,0,0,0
695,0,12,10,11,0.23663,1,0,0,0.38533,1500,0,6500,500,0,0,0,0
696,0,11,10,11,0.69911,0,0,0,0.4888,1500,0,6500,500,0,0,0,0
697,0,11,10,11,0.69183,0,0,0,0.32098,1500,0,6500,500,0,0,0,0
698,0,12,10,12,0.7067,0,0,0,0.42426,1500,0,6500,500,0,0,0,0
699,0,11,10,11,0.76997,0,0,0,0.37958,1500,0,6500,500,0,0,0,0
700,0,11,10,11,0.9435,0,0,0,0.47772,1500,0,6500,500,0,0,0,0
701,0,11,10,12,0.49414,1,0,0,0.3173,1500,0,6500,500,0,0,0,0
702,0,11,10,11,0.94855,0,0,0,0.42926,1500,0,6500,500,0,0,0,0
703,0,11,10,11,0.97708,0,0,0,0.43254,1500,0,6500,500,0,0,0,0
704,0,11,10,11,0.60149,0,0,0,0.36026,1500,0,6500,500,0,0,0,0
705,0,11,10,11,0.22276,0,0,0,0.39145,1500,0,6500,500,0,0,0,0
706,0,12,10,12,0.58016,0,0,0,0.41281,1500,0,6500,500,0,0,0,0
707,0,12,10,12,0.87366,0,0,0,0.47778,1500,0,6500,500,0,0,0,0
708,0,12,10,12,0.54992,0,0,0,0.32279,1500,0,6500,500,0,0,0,0
709,0,11,10,11,0.88338,0,0,0,0.31714,1500,0,6500,500,0,0,0,0
710,0,11,10,12,0.82804,1,0,0,0.38066,1500,0,6500,500,0,0,0,0
711,0,12,10,11,0.34163,1,0,0,0.42872,1500,0,6500,500,0,0,0,0
712,0,12,10,12,0.84657,0,0,0,0.34549,1500,0,6500,500,0,0,0,0
713,0,12,10,12,0.93007,0,0,0,0.46603,1500,0,6500,500,0,0,0,0
714,0,12,10,12,0.92444,0,0,0,0.44556,1500,0,6500,500,0,0,0,0
715,0,11,10,11,0.74786,0,0,0,0.43917,1500,0,6500,500,0,0,0,0
716,0,12,10,11,0.83618,1,0,0,0.45326,1500,0,6500,500,0,0,0,0
717,0,12,10,12,0.7973,0,0,0,0.48118,1500,0,6500,500,0,0,0,0
718,0,12,10,12,0.73018,0,0,0,0.35999,1500,0,6500,500,0,0,0,0
719,0,11,10,11,0.73623,0,0,0,0.41568,1500,0,6500,500,0,0,0,0
720,0,11,10,11,0.64027,0,0,0,0.40181,1500,0,6500,500,0,0,0,0
721,0,12,10,12,0.53326,0,0,0,0.35782,1500,0,6500,500,0,0,0,0
722,0,11,10,12,0.40201,1,0,0,0.31255,1500,0,6500,500,0,0,0,0
723,0,12,10,12,0.48682,0,0,0,0.3688,1500,0,6500,500,0,0,0,0
724,0,11,10,11,0.8651,0,0,0,0.34565,1500,0,6500,500,0,0,0,0
725,0,11,10,11,0.86756,0,0,0,0.37191,1500,0,6500,500,0,0,0,0
726,0,11,10,11,0.96897,0,0,0,0.33116,1500,0,6500,500,0,0,0,0
727,0,12,10,12,0.97967,0,0,0,0.46503,1500,0,6500,500,0,0,0,0
728,0,11,10,12,0.39318,1,0,0,0.39951,1500,0,6500,500,0,0,0,0
729,0,12,10,12,0.86844,0,0,0,0.39499,1500,0,6500,500,0,0,0,0
730,0,12,10,12,0.61707,0,0,0,0.36638,1500,0,6500,500,0,0,0,0
731,0,11,10,11,0.70754,0,0,0,0.41373,1500,0,6500,500,0,0,0,0
732,0,11,10,11,0.56488,0,0,0,0.45738,1500,0,6500,500,0,0,0,0
733,0,12,10,11,0.1152,1,0,0,0.43541,1500,0,6500,500,0,0,0,0
734,0,11,10,12,0.83215,1,0,0,0.43275,1500,0,6500,500,0,0,0,0
735,0,12,10,12,0.89007,0,0,0,0.45952,1500,0,6500,500,0,0,0,0
736,0,12,10,12,0.61886,0,0,0,0.44844,1500,0,6500,500,0,0,0,0
737,0,11,10,12,0.5392,1,0,0,0.37989,1500,0,6500,500,0,0,0,0
738,0,11,10,11,0.80177,0,0,0,0.3903,1500,0,6500,500,0,0,0,0
739,0,12,10,12,0.9666,0,0,0,0.35264,1500,0,6500,500,0,0,0,0
740,0,12,10,12,0.72786,0,0,0,0.32499,1500,0,6500,500,0,0,0,0
741,0,12,10,11,0.24818,1,0,0,0.38623,1500,0,6500,500,0,0,0,0
742,0,12,10,12,0.92374,0,0,0,0.36766,1500,0,6500,500,0,0,0,0
743,0,11,10,11,0.80856,0,0,0,0.39736,1500,0,6500,500,0,0,0,0
744,0,11,10,11,0.88001,0,0,0,0.43789,1500,0,6500,500,0,0,0,0
745,0,11,10,11,0.72615,0,0,0,0.35767,1500,0,6500,500,0,0,0,0
746,0,12,10,12,0.88354,0,0,0,0.46307,1500,0,6500,500,0,0,0,0
747,0,12,10,12,0.77734,0,0,0,0.4921,1500,0,6500,500,0,0,0,0
748,0,11,10,11,0.94783,0,0,0,0.37355,1500,0,6500,500,0,0,0,0
749,0,11,10,12,0.24206,1,0,0,0.36331,1500,0,6500,500,0,0,0,0
750,0,11,10,11,0.7221,0,0,0,0.41676,1500,0,6500,500,0,0,0,0
751,0,11,10,11,0.828,0,0,0,0.40677,1500,0,6500,500,0,0,0,0
752,0,12,10,12,0.66383,0,0,0,0.37417,1500,0,6500,500,0,0,0,0
753,0,11,10,12,0.57754,1,0,0,0.3848,1500,0,6500,500,0,0,0,0
754,0,11,10,12,0.46348,1,0,0,0.44122,1500,0,6500,500,0,0,0,0
755,0,11,10,11,0.76113,0,0,0,0.33251,1500,0,6500,500,0,0,0,0
756,0,12,10,11,0.5426,1,0,0,0.38373,1500,0,6500,500,0,0,0,0
757,0,11,10,12,0.57912,1,0,0,0.40998,1500,0,6500,500,0,0,0,0
758,0,12,10,12,0.71571,0,0,0,0.4447,1500,0,6500,500,0,0,0,0
759,0,12,10,12,0.94552,0,0,0,0.37678,1500,0,6500,500,0,0,0,0
760,0,12,10,12,0.83208,0,0,0,0.41089,1500,0,6500,500,0,0,0,0
761,0,12,10,12,0.74938,0,0,0,0.47553,1500,0,6500,500,0,0,0,0
762,0,12,10,12,0.42147,0,0,0,0.46355,1500,0,6500,500,0,0,0,0
763,0,11,10,12,0.54426,1,0,0,0.35983,1500,0,6500,500,0,0,0,0
764,0,12,10,12,0.57552,0,0,0,0.4917,1500,0,6500,500,0,0,0,0
765,0,12,10,12,0.92282,0,0,0,0.40799,1500,0,6500,500,0,0,0,0
766,0,11,10,11,0.66861,0,0,0,0.42204,1500,0,6500,500,0,0,0,0
767,0,11,10,12,0.51653,1,0,0,0.31774,1500,0,6500,500,0,0,0,0
768,0,12,10,12,0.53202,0,0,0,0.38177,1500,0,6500,500,0,0,0,0
769,0,11,10,11,0.53067,0,0,0,0.41036,1500,0,6500,500,0,0,0,0
770,0,11,10,11,0.97774,0,0,0,0.4216,1500,0,6500,500,0,0,0,0
771,0,12,10,12,0.72524,0,0,0,0.49074,1500,0,6500,500,0,0,0,0
772,0,11,10,11,0.9456,0,0,0,0.34021,1500,0,6500,500,0,0,0,0
773,0,11,10,12,0.067968,1,0,0,0.47444,1500,0,6500,500,0,0,0,0
774,0,11,10,11,0.87714,0,0,0,0.41712,1500,0,6500,500,0,0,0,0
775,0,11,10,11,0.94229,0,0,0,0.37269,1500,0,6500,500,0,0,0,0
776,0,11,10,11,0.84676,0,0,0,0.3995,1500,0,6500,500,0,0,0,0
777,0,11,10,11,0.92442,0,0,0,0.31576,1500,0,6500,500,0,0,0,0
778,0,12,10,12,0.8973,0,0,0,0.34755,1500,0,6500,500,0,0,0,0
779,0,12,10,12,0.92103,0,0,0,0.35017,1500,0,6500,500,0,0,0,0
780,0,12,10,12,0.92575,0,0,0,0.3558,1500,0,6500,500,0,0,0,0
781,0,12,10,12,0.98466,0,0,0,0.38651,1500,0,6500,500,0,0,0,0
782,0,11,10,11,0.80926,0,0,0,0.3908,1500,0,6500,500,0,0,0,0
783,0,11,10,12,0.10531,1,0,0,0.42982,1500,0,6500,500,0,0,0,0
784,0,11,10,11,0.96466,0,0,0,0.40131,1500,0,6500,500,0,0,0,0
785,0,12,10,11,0.11416,1,0,0,0.37518,1500,0,6500,500,0,0,0,0
786,0,12,10,12,0.93744,0,0,0,0.41281,1500,0,6500,500,0,0,0,0
787,0,12,10,12,0.90433,0,0,0,0.45477,1500,0,6500,500,0,0,0,0
788,0,12,10,12,0.69763,0,0,0,0.41264,1500,0,6500,500,0,0,0,0
789,0,11,10,12,0.5513,1,0,0,0.35934,1500,0,6500,500,0,0,0,0
790,0,11,10,11,0.80396,0,0,0,0.43972,1500,0,6500,500,0,0,0,0
791,0,11,10,11,0.67267,0,0,0,0.42324,1500,0,6500,500,0,0,0,0
792,0,12,10,12,0.75731,0,0,0,0.41431,1500,0,6500,500,0,0,0,0
793,0,12,10,12,0.72103,0,0,0,0.38613,1500,0,6500,500,0,0,0,0
794,0,11,10,11,0.68913,0,0,0,0.45855,1500,0,6500,500,0,0,0,0
795,0,12,10,11,0.30801,1,0,0,0.35589,1500,0,6500,500,0,0,0,0
796,1,11,10,12,0.30609,1,0,0,0.36738,1500,0,6500,500,0,0,0,0
797,1,11,10,11,0.60332,0,0,0,0.43101,1500,0,6500,500,0,0,0,0
798,1,12,10,12,0.88276,0,0,0,0.40887,1500,0,6500,500,0,0,0,0
799,1,12,10,11,0.10852,1,0,0,0.36766,1500,0,6500,500,0,0,0,0
800,1,11,10,12,0.21417,1,0,0,0.47503,1500,0,6500,500,0,0,0,0
801,1,11,10,12,0.48567,1,0,0,0.3484,1500,0,6500,500,0,0,0,0
802,1,11,10,11,0.43953,0,0,0,0.47758,1500,0,6500,500,0,0,0,0
803,1,11,10,12,0.17918,1,0,0,0.32385,1500,0,6500,500,0,0,0,0
804,1,11,10,11,0.97737,0,0,0,0.3956,1500,0,6500,500,0,0,0,0
805,1,12,10,12,0.95326,0,0,0,0.29442,1500,0,6500,500,0,0,0,0
806,1,12,10,12,0.34285,0,0,0,0.34199,1500,0,6500,500,0,0,0,0
807,1,11,10,11,0.9981,0,0,0,0.46744,1500,0,6500,500,0,0,0,0
808,1,12,10,12,0.75742,0,0,0,0.3545,1500,0,6500,500,0,0,0,0
809,1,12,10,11,0.13927,1,0,0,0.38498,1500,0,6500,500,0,0,0,0
810,1,11,10,12,0.024501,1,0,0,0.41321,1500,0,6500,500,0,0,0,0
811,1,12,10,11,0.013654,1,0,0,0.34454,1500,0,6500,500,0,0,0,0
812,1,12,10,12,0.59159,0,0,0,0.42801,1500,0,6500,500,0,0,0,0
813,1,12,10,11,0.081612,1,0,0,0.43566,1500,0,6500,500,0,0,0,0
814,1,12,10,12,0.9781,0,0,0,0.48126,1500,0,6500,500,0,0,0,0
815,1,12,10,12,0.66324,0,0,0,0.47487,1500,0,6500,500,0,0,0,0
816,1,12,10,11,0.74687,1,0,0,0.43908,1500,0,6500,500,0,0,0,0
817,1,12,10,11,0.070456,1,0,0,0.3985,1500,0,6500,500,0,0,0,0
818,1,11,10,11,0.91383,0,0,0,0.29931,1500,0,6500,500,0,0,0,0
819,1,11,10,12,0.078657,1,0,0,0.36841,1500,0,6500,500,0,0,0,0
820,1,12,10,12,0.75365,0,0,0,0.4098,1500,0,6500,500,0,0,0,0
821,1,11,10,11,0.18847,0,0,0,0.4522,1500,0,6500,500,0,0,0,0
822,1,12,10,12,0.6323,0,0,0,0.39005,1500,0,6500,500,0,0,0,0
823,1,12,10,11,0.086865,1,0,0,0.4092,1500,0,6500,500,0,0,0,0
824,1,11,10,11,0.88804,0,0,0,0.49399,1500,0,6500,500,0,0,0,0
825,1,12,10,11,0.42402,1,0,0,0.44508,1500,0,6500,500,0,0,0,0
826,1,11,10,11,0.96223,0,0,0,0.38987,1500,0,6500,500,0,0,0,0
827,1,12,10,12,0.96739,0,0,0,0.34543,1500,0,6500,500,0,0,0,0
828,1,11,10,12,0.090068,1,0,0,0.38183,1500,0,6500,500,0,0,0,0
829,1,12,10,12,0.98401,0,0,0,0.39519,1500,0,6500,500,0,0,0,0
830,1,11,10,11,0.85764,0,0,0,0.44074,1500,0,6500,500,0,0,0,0
831,1,11,10,12,0.019466,1,0,0,0.41721,1500,0,6500,500,0,0,0,0
832,1,12,10,12,0.29193,0,0,0,0.44292,1500,0,6500,500,0,0,0,0
833,1,11,10,12,0.5015,1,0,0,0.39618,1500,0,6500,500,0,0,0,0
834,1,11,10,12,0.47322,1,0,0,0.40976,1500,0,6500,500,0,0,0,0
835,1,12,10,11,0.32986,1,0,0,0.39861,1500,0,6500,500,0,0,0,0
836,1,11,10,11,0.82969,0,0,0,0.41869,1500,0,6500,500,0,0,0,0
837,1,11,10,12,0.23525,1,0,0,0.41093,1500,0,6500,500,0,0,0,0
838,1,12,10,11,0.15797,1,0,0,0.36912,1500,0,6500,500,0,0,0,0
839,1,11,10,11,0.81458,0,0,0,0.3765,1500,0,6500,500,0,0,0,0
840,1,11,10,11,0.52623,0,0,0,0.38586,1500,0,6500,500,0,0,0,0
841,1,11,10,12,0.74829,1,0,0,0.41388,1500,0,6500,500,0,0,0,0
842,1,12,10,12,0.94156,0,0,0,0.3707,1500,0,6500,500,0,0,0,0
843,1,12,10,11,0.40298,1,0,0,0.489,1500,0,6500,500,0,0,0,0
844,1,11,10,11,0.7066,0,0,0,0.47589,1500,0,6500,500,0,0,0,0
845,1,11,10,11,0.88459,0,0,0,0.385,1500,0,6500,500,0,0,0,0
846,1,11,10,11,0.53176,0,0,0,0.32941,1500,0,6500,500,0,0,0,0
847,1,11,10,11,0.95217,0,0,0,0.3966,1500,0,6500,500,0,0,0,0
848,1,12,10,11,0.10069,1,0,0,0.35906,1500,0,6500,500,0,0,0,0
849,1,12,10,11,0.078214,1,0,0,0.44467,1500,0,6500,500,0,0,0,0
850,1,11,10,12,0.030084,1,0,0,0.34806,1500,0,6500,500,0,0,0,0
851,1,11,10,12,0.2942,1,0,0,0.43876,1500,0,6500,500,0,0,0,0
852,1,12,10,12,0.81604,0,0,0,0.31127,1500,0,6500,500,0,0,0,0
853,1,12,10,12,0.87878,0,0,0,0.45476,1500,0,6500,500,0,0,0,0
854,1,12,10,12,0.70832,0,0,0,0.36573,1500,0,6500,500,0,0,0,0
855,1,12,10,12,0.98035,0,0,0,0.33252,1500,0,6500,500,0,0,0,0
856,1,11,10,11,0.55289,0,0,0,0.3679,1500,0,6500,500,0,0,0,0
857,1,12,10,12,0.91268,0,0,0,0.42055,1500,0,6500,500,0,0,0,0
858,1,11,10,12,0.17382,1,0,0,0.48304,1500,0,6500,500,0,0,0,0
859,1,11,10,11,0.94884,0,0,0,0.41948,1500,0,6500,500,0,0,0,0
860,1,11,10,11,0.65822,0,0,0,0.38409,1500,0,6500,500,0,0,0,0
861,1,11,10,12,0.62859,1,0,0,0.33723,1500,0,6500,500,0,0,0,0
862,1,12,10,12,0.78886,0,0,0,0.31029,1500,0,6500,500,0,0,0,0
863,1,12,10,12,0.87432,0,0,0,0.42775,1500,0,6500,500,0,0,0,0
864,1,12,10,11,0.12931,1,0,0,0.41945,1500,0,6500,500,0,0,0,0
865,1,11,10,12,0.020091,1,0,0,0.42627,1500,0,6500,500,0,0,0,0
866,1,12,10,12,0.93559,0,0,0,0.42961,1500,0,6500,500,0,0,0,0
867,1,12,10,11,0.5909,1,0,0,0.4107,1500,0,6500,500,0,0,0,0
868,1,12,10,12,0.81159,0,0,0,0.36897,1500,0,6500,500,0,0,0,0
869,1,11,10,11,0.17143,0,0,0,0.43678,1500,0,6500,500,0,0,0,0
870,1,11,10,11,0.96646,0,0,0,0.37815,1500,0,6500,500,0,0,0,0
871,1,12,10,12,0.19696,0,0,0,0.36794,1500,0,6500,500,0,0,0,0
872,1,12,10,11,0.02688,1,0,0,0.42334,1500,0,6500,500,0,0,0,0
873,1,11,10,11,0.32175,0,0,0,0.40337,1500,0,6500,500,0,0,0,0
874,1,12,10,11,0.56065,1,0,0,0.40604,1500,0,6500,500,0,0,0,0
875,1,12,10,12,0.91886,0,0,0,0.4388,1500,0,6500,500,0,0,0,0
876,1,11,10,11,0.9699,0,0,0,0.31088,1500,0,6500,500,0,0,0,0
877,1,11,10,12,0.64205,1,0,0,0.35575,1500,0,6500,500,0,0,0,0
878,1,12,10,12,0.71521,0,0,0,0.43208,1500,0,6500,500,0,0,0,0
879,1,12,10,12,0.9394,0,0,0,0.4074,1500,0,6500,500,0,0,0,0
880,1,12,10,12,0.69693,0,0,0,0.38744,1500,0,6500,500,0,0,0,0
881,1,11,10,12,0.068978,1,0,0,0.48521,1500,0,6500,500,0,0,0,0
882,1,11,10,11,0.87014,0,0,0,0.46944,1500,0,6500,500,0,0,0,0
883,1,12,10,11,0.041456,1,0,0,0.47095,1500,0,6500,500,0,0,0,0
884,1,11,10,11,0.67705,0,0,0,0.41616,1500,0,6500,500,0,0,0,0
885,1,11,10,12,0.068541,1,0,0,0.46066,1500,0,6500,500,0,0,0,0
886,1,11,10,11,0.95916,0,0,0,0.35845,1500,0,6500,500,0,0,0,0
887,1,12,10,12,0.60028,0,0,0,0.34985,1500,0,6500,500,0,0,0,0
888,1,12,10,12,0.65622,0,0,0,0.31248,1500,0,6500,500,0,0,0,0
889,1,11,10,12,0.069158,1,0,0,0.3549,1500,0,6500,500,0,0,0,0
890,1,11,10,11,0.60676,0,0,0,0.46051,1500,0,6500,500,0,0,0,0
891,1,12,10,12,0.86226,0,0,0,0.3872,1500,0,6500,500,0,0,0,0
892,1,11,10,11,0.9644,0,0,0,0.38262,1500,0,6500,500,0,0,0,0
893,1,11,10,12,0.17051,1,0,0,0.36723,1500,0,6500,500,0,0,0,0
894,1,11,10,12,0.48265,1,0,0,0.43087,1500,0,6500,500,0,0,0,0
895,1,11,10,12,0.02479,1,0,0,0.36007,1500,0,6500,500,0,0,0,0
896,1,11,10,11,0.65174,0,0,0,0.49678,1500,0,6500,500,0,0,0,0
897,1,12,10,11,0.1624,1,0,0,0.36061,1500,0,6500,500,0,0,0,0
898,1,12,10,11,0.018206,1,0,0,0.40643,1500,0,6500,500,0,0,0,0
899,1,11,10,12,0.69848,1,0,0,0.43502,1500,0,6500,500,0,0,0,0
900,1,12,10,12,0.91228,0,0,0,0.34433,1500,0,6500,500,0,0,0,0
901,1,11,10,12,0.035636,1,0,0,0.45601,1500,0,6500,500,0,0,0,0
902,1,11,10,11,0.89117,0,0,0,0.37011,1500,0,6500,500,0,0,0,0
903,1,11,10,12,0.083227,1,0,0,0.37544,1500,0,6500,500,0,0,0,0
904,1,11,10,11,0.96175,0,0,0,0.34821,1500,0,6500,500,0,0,0,0
905,1,12,10,12,0.98709,0,0,0,0.36596,1500,0,6500,500,0,0,0,0
906,1,12,10,12,0.2812,0,0,0,0.32098,1500,0,6500,500,0,0,0,0
907,1,12,10,11,0.16952,1,0,0,0.40319,1500,0,6500,500,0,0,0,0
908,1,12,10,11,0.15419,1,0,0,0.41952,1500,0,6500,500,0,0,0,0
909,1,11,10,12,0.040871,1,0,0,0.3921,1500,0,6500,500,0,0,0,0
910,1,12,10,12,0.98929,0,0,0,0.36975,1500,0,6500,500,0,0,0,0
911,1,12,10,12,0.41698,0,0,0,0.32644,1500,0,6500,500,0,0,0,0
912,1,12,10,12,0.97158,0,0,0,0.4428,1500,0,6500,500,0,0,0,0
913,1,11,10,11,0.41608,0,0,0,0.42997,1500,0,6500,500,0,0,0,0
914,1,11,10,11,0.56294,0,0,0,0.34995,1500,0,6500,500,0,0,0,0
915,1,12,10,11,0.022753,1,0,0,0.40458,1500,0,6500,500,0,0,0,0
916,1,11,10,12,0.64131,1,0,0,0.41177,1500,0,6500,500,0,0,0,0
917,1,11,10,11,0.98054,0,0,0,0.37398,1500,0,6500,500,0,0,0,0
918,1,11,10,11,0.64791,0,0,0,0.43451,1500,0,6500,500,0,0,0,0
919,1,11,10,11,0.70211,0,0,0,0.40084,1500,0,6500,500,0,0,0,0
920,1,12,10,11,0.092557,1,0,0,0.4109,1500,0,6500,500,0,0,0,0
921,1,11,10,11,0.6636,0,0,0,0.42802,1500,0,6500,500,0,0,0,0
922,1,11,10,12,0.14139,1,0,0,0.37814,1500,0,6500,500,0,0,0,0
923,1,11,10,12,0.94926,1,0,0,0.34196,1500,0,6500,500,0,0,0,0
924,1,11,10,11,0.98934,0,0,0,0.29012,1500,0,6500,500,0,0,0,0
925,1,12,10,12,0.90414,0,0,0,0.43226,1500,0,6500,500,0,0,0,0
926,1,12,10,12,0.91918,0,0,0,0.38639,1500,0,6500,500,0,0,0,0
927,1,11,10,11,0.96841,0,0,0,0.41515,1500,0,6500,500,0,0,0,0
928,1,12,10,11,0.51013,1,0,0,0.40956,1500,0,6500,500,0,0,0,0
929,1,12,10,11,0.085726,1,0,0,0.35514,1500,0,6500,500,0,0,0,0
930,1,11,10,11,0.3872,0,0,0,0.42972,1500,0,6500,500,0,0,0,0
931,1,11,10,11,0.58927,0,0,0,0.41211,1500,0,6500,500,0,0,0,0
932,1,12,10,12,0.86259,0,0,0,0.48448,1500,0,6500,500,0,0,0,0
933,1,12,10,12,0.97544,0,0,0,0.40805,1500,0,6500,500,0,0,0,0
934,1,11,10,11,0.99387,0,0,0,0.4029,1500,0,6500,500,0,0,0,0
935,1,11,10,12,0.069651,1,0,0,0.34902,1500,0,6500,500,0,0,0,0
936,1,12,10,11,0.53782,1,0,0,0.38517,1500,0,6500,500,0,0,0,0
937,1,12,10,11,0.022896,1,0,0,0.42987,1500,0,6500,500,0,0,0,0
938,1,12,10,12,0.99224,0,0,0,0.41523,1500,0,6500,500,0,0,0,0
939,1,12,10,12,0.40516,0,0,0,0.42765,1500,0,6500,500,0,0,0,0
940,1,12,10,11,0.19512,1,0,0,0.36712,1500,0,6500,500,0,0,0,0
941,1,11,10,12,0.066289,1,0,0,0.43109,1500,0,6500,500,0,0,0,0
942,1,11,10,11,0.51577,0,0,0,0.36906,1500,0,6500,500,0,0,0,0
943,1,12,10,12,0.7929,0,0,0,0.41074,1500,0,6500,500,0,0,0,0
944,1,11,10,11,0.7635,0,0,0,0.4187,1500,0,6500,500,0,0,0,0
945,1,12,10,12,0.39168,0,0,0,0.37887,1500,0,6500,500,0,0,0,0
946,1,12,10,12,0.97728,0,0,0,0.35273,1500,0,6500,500,0,0,0,0
947,1,12,10,11,0.085255,1,0,0,0.43985,1500,0,6500,500,0,0,0,0
948,1,12,10,11,0.49348,1,0,0,0.33033,1500,0,6500,500,0,0,0,0
949,1,12,10,11,0.063847,1,0,0,0.39638,1500,0,6500,500,0,0,0,0
950,1,12,10,12,0.96208,0,0,0,0.34965,1500,0,6500,500,0,0,0,0
951,1,12,10,12,0.3196,0,0,0,0.35384,1500,0,6500,500,0,0,0,0
952,1,11,10,11,0.59772,0,0,0,0.47396,1500,0,6500,500,0,0,0,0
953,1,11,10,11,0.65768,0,0,0,0.4986,1500,0,6500,500,0,0,0,0
954,1,11,10,12,0.1445,1,0,0,0.35032,1500,0,6500,500,0,0,0,0
955,1,11,10,12,0.21466,1,0,0,0.41356,1500,0,6500,500,0,0,0,0
956,1,12,10,12,0.60719,0,0,0,0.42985,1500,0,6500,500,0,0,0,0
957,1,11,10,12,0.023943,1,0,0,0.38366,1500,0,6500,500,0,0,0,0
958,1,12,10,12,0.79024,0,0,0,0.3955,1500,0,6500,500,0,0,0,0
959,1,11,10,11,0.7657,0,0,0,0.41811,1500,0,6500,500,0,0,0,0
960,1,11,10,11,0.43945,0,0,0,0.41159,1500,0,6500,500,0,0,0,0
961,1,11,10,12,0.11788,1,0,0,0.35712,1500,0,6500,500,0,0,0,0
962,1,12,10,12,0.60801,0,0,0,0.40987,1500,0,6500,500,0,0,0,0
963,1,11,10,12,0.49561,1,0,0,0.49965,1500,0,6500,500,0,0,0,0
964,1,11,10,11,0.61308,0,0,0,0.29797,1500,0,6500,500,0,0,0,0
965,1,11,10,11,0.82585,0,0,0,0.37854,1500,0,6500,500,0,0,0,0
966,1,11,10,12,0.032642,1,0,0,0.44519,1500,0,6500,500,0,0,0,0
967,1,11,10,11,0.64418,0,0,0,0.40196,1500,0,6500,500,0,0,0,0
968,1,11,10,11,0.98091,0,0,0,0.38864,1500,0,6500,500,0,0,0,0
969,1,11,10,11,0.86862,0,0,0,0.38549,1500,0,6500,500,0,0,0,0
970,1,12,10,12,0.73984,0,0,0,0.3957,1500,0,6500,500,0,0,0,0
971,1,12,10,11,0.086,1,0,0,0.41876,1500,0,6500,500,0,0,0,0
972,1,12,10,12,0.87426,0,0,0,0.40479,1500,0,6500,500,0,0,0,0
973,1,11,10,11,0.71844,0,0,0,0.43811,1500,0,6500,500,0,0,0,0
974,1,12,10,12,0.80478,0,0,0,0.45829,1500,0,6500,500,0,0,0,0
975,1,11,10,11,0.18081,0,0,0,0.35088,1500,0,6500,500,0,0,0,0
976,1,11,10,12,0.26296,1,0,0,0.35487,1500,0,6500,500,0,0,0,0
977,1,11,10,11,0.97072,0,0,0,0.42782,1500,0,6500,500,0,0,0,0
978,1,11,10,12,0.0063116,1,0,0,0.37537,1500,0,6500,500,0,0,0,0
979,1,12,10,11,0.057232,1,0,0,0.39143,1500,0,6500,500,0,0,0,0
980,1,12,10,12,0.57333,0,0,0,0.41103,1500,0,6500,500,0,0,0,0
981,1,12,10,12,0.80744,0,0,0,0.43008,1500,0,6500,500,0,0,0,0
982,1,12,10,12,0.84586,0,0,0,0.45986,1500,0,6500,500,0,0,0,0
983,1,12,10,12,0.99812,0,0,0,0.42818,1500,0,6500,500,0,0,0,0
984,1,12,10,11,0.097833,1,0,0,0.40723,1500,0,6500,500,0,0,0,0
985,1,12,10,12,0.66511,0,0,0,0.41007,1500,0,6500,500,0,0,0,0
986,1,12,10,11,0.18082,1,0,0,0.31655,1500,0,6500,500,0,0,0,0
987,1,12,10,12,0.91767,0,0,0,0.44838,1500,0,6500,500,0,0,0,0
988,1,12,10,12,0.28088,0,0,0,0.38856,1500,0,6500,500,0,0,0,0
989,1,11,10,11,0.78925,0,0,0,0.36609,1500,0,6500,500,0,0,0,0
990,1,11,10,12,0.15006,1,0,0,0.42482,1500,0,6500,500,0,0,0,0
991,1,11,10,12,0.2331,1,0,0,0.40776,1500,0,6500,500,0,0,0,0
992,1,11,10,11,0.74962,0,0,0,0.40087,1500,0,6500,500,0,0,0,0
993,1,11,10,11,0.93442,0,0,0,0.47341,1500,0,6500,500,0,0,0,0
994,1,11,10,11,0.52074,0,0,0,0.28466,1500,0,6500,500,0,0,0,0
995,1,12,10,11,0.18834,1,0,0,0.46603,1500,0,6500,500,0,0,0,0
996,1,12,10,12,0.69908,0,0,0,0.32341,1500,0,6500,500,0,0,0,0
997,1,12,10,12,0.84534,0,0,0,0.47513,1500,0,6500,500,0,0,0,0
998,1,11,10,11,0.88365,0,0,0,0.30768,1500,0,6500,500,0,0,0,0
999,1,12,10,12,0.63962,0,0,0,0.42926,1500,0,6500,500,0,0,0,0
1000,1,11,10,11,0.79032,0,0,0,0.40037,1500,0,6500,500,0,0,0,0
1001,1,11,10,12,0.6953,1,0,0,0.2579,1500,0,6500,500,0,0,0,0
1002,1,12,10,12,0.90426,0,0,0,0.47494,1500,0,6500,500,0,0,0,0
1003,1,11,10,12,0.44182,1,0,0,0.49615,1500,0,6500,500,0,0,0,0
1004,1,12,10,11,0.28228,1,0,0,0.42333,1500,0,6500,500,0,0,0,0
1005,1,12,10,12,0.88907,0,0,0,0.38173,1500,0,6500,500,0,0,0,0
1006,1,12,10,12,0.74972,0,0,0,0.32416,1500,0,6500,500,0,0,0,0
1007,1,11,10,11,0.4092,0,0,0,0.41397,1500,0,6500,500,0,0,0,0
1008,1,12,10,12,0.7842,0,0,0,0.48559,1500,0,6500,500,0,0,0,0
1009,1,12,10,12,0.63626,0,0,0,0.41801,1500,0,6500,500,0,0,0,0
1010,1,12,10,12,0.3714,0,0,0,0.38434,1500,0,6500,500,0,0,0,0
1011,1,12,10,12,0.43891,0,0,0,0.43509,1500,0,6500,500,0,0,0,0
1012,1,12,10,12,0.73153,0,0,0,0.38406,1500,0,6500,500,0,0,0,0
1013,1,11,10,11,0.84661,0,0,0,0.39237,1500,0,6500,500,0,0,0,0
1014,1,11,10,11,0.83862,0,0,0,0.4098,1500,0,6500,500,0,0,0,0
1015,1,11,10,11,0.6925,0,0,0,0.45637,1500,0,6500,500,0,0,0,0
1016,1,12,10,12,0.87088,0,0,0,0.40617,1500,0,6500,500,0,0,0,0
1017,1,11,10,12,0.044238,1,0,0,0.37616,1500,0,6500,500,0,0,0,0
1018,1,12,10,12,0.98342,0,0,0,0.3824,1500,0,6500,500,0,0,0,0
1019,1,12,10,12,0.81433,0,0,0,0.46216,1500,0,6500,500,0,0,0,0
1020,1,11,10,11,0.91703,0,0,0,0.38586,1500,0,6500,500,0,0,0,0
1021,1,11,10,11,0.60181,0,0,0,0.38739,1500,0,6500,500,0,0,0,0
1022,1,12,10,12,0.98893,0,0,0,0.39859,1500,0,6500,500,0,0,0,0
1023,1,12,10,12,0.80798,0,0,0,0.45004,1500,0,6500,500,0,0,0,0
1024,1,11,10,11,0.93088,0,0,0,0.36264,1500,0,6500,500,0,0,0,0
1025,1,12,10,12,0.26327,0,0,0,0.38101,1500,0,6500,500,0,0,0,0
1026,1,11,10,11,0.73528,0,0,0,0.40321,1500,0,6500,500,0,0,0,0
1027,1,12,10,11,0.08773,1,0,0,0.44282,1500,0,6500,500,0,0,0,0
1028,1,12,10,12,0.40568,0,0,0,0.39318,1500,0,6500,500,0,0,0,0
1029,1,11,10,12,0.0023697,1,0,0,0.45434,1500,0,6500,500,0,0,0,0
1030,1,11,10,11,0.98249,0,0,0,0.47576,1500,0,6500,500,0,0,0,0
1031,1,12,10,12,0.83049,0,0,0,0.36899,1500,0,6500,500,0,0,0,0
1032,1,11,10,12,0.1227,1,0,0,0.38939,1500,0,6500,500,0,0,0,0
1033,1,12,10,11,0.083471,1,0,0,0.34745,1500,0,6500,500,0,0,0,0
1034,1,11,10,11,0.82336,0,0,0,0.45131,1500,0,6500,500,0,0,0,0
1035,1,11,10,11,0.94029,0,0,0,0.42602,1500,0,6500,500,0,0,0,0
1036,1,11,10,12,0.1668,1,0,0,0.32907,1500,0,6500,500,0,0,0,0
1037,1,12,10,11,0.84369,1,0,0,0.40982,1500,0,6500,500,0,0,0,0
1038,1,11,10,12,0.61496,1,0,0,0.44883,1500,0,6500,500,0,0,0,0
1039,1,11,10,11,0.61836,0,0,0,0.38691,1500,0,6500,500,0,0,0,0
1040,1,12,10,11,0.61537,1,0,0,0.3824,1500,0,6500,500,0,0,0,0
1041,1,11,10,11,0.30351,0,0,0,0.38793,1500,0,6500,500,0,0,0,0
1042,1,11,10,11,0.9605,0,0,0,0.29684,1500,0,6500,500,0,0,0,0
1043,1,12,10,12,0.66637,0,0,0,0.41595,1500,0,6500,500,0,0,0,0
1044,1,12,10,12,0.67794,0,0,0,0.35826,1500,0,6500,500,0,0,0,0
1045,1,11,10,12,0.2724,1,0,0,0.42762,1500,0,6500,500,0,0,0,0
1046,1,12,10,12,0.84215,0,0,0,0.43007,1500,0,6500,500,0,0,0,0
1047,1,11,10,11,0.99341,0,0,0,0.36604,1500,0,6500,500,0,0,0,0
1048,1,12,10,11,0.061023,1,0,0,0.42866,1500,0,6500,500,0,0,0,0
1049,1,12,10,12,0.92598,0,0,0,0.34305,1500,0,6500,500,0,0,0,0
1050,1,11,10,11,0.59005,0,0,0,0.3869,1500,0,6500,500,0,0,0,0
1051,1,11,10,11,0.67676,0,0,0,0.45907,1500,0,6500,500,0,0,0,0
1052,1,11,10,11,0.78292,0,0,0,0.43062,1500,0,6500,500,0,0,0,0
1053,1,12,10,12,0.99121,0,0,0,0.39946,1500,0,6500,500,0,0,0,0
1054,1,12,10,12,0.79825,0,0,0,0.42702,1500,0,6500,500,0,0,0,0
1055,1,12,10,11,0.043837,1,0,0,0.38973,1500,0,6500,500,0,0,0,0
1056,1,12,10,12,0.2553,0,0,0,0.47236,1500,0,6500,500,0,0,0,0
1057,1,12,10,12,0.90373,0,0,0,0.35985,1500,0,6500,500,0,0,0,0
1058,1,11,10,12,0.56478,1,0,0,0.38638,1500,0,6500,500,0,0,0,0
1059,1,11,10,11,0.60101,0,0,0,0.44021,1500,0,6500,500,0,0,0,0
1060,1,11,10,11,0.93462,0,0,0,0.45067,1500,0,6500,500,0,0,0,0
1061,1,11,10,12,0.1292,1,0,0,0.4342,1500,0,6500,500,0,0,0,0
1062,1,11,10,11,0.98635,0,0,0,0.34679,1500,0,6500,500,0,0,0,0
1063,1,11,10,11,0.78451,0,0,0,0.42804,1500,0,6500,500,0,0,0,0
1064,1,12,10,11,0.23305,1,0,0,0.33134,1500,0,6500,500,0,0,0,0
1065,1,12,10,12,0.35027,0,0,0,0.40892,1500,0,6500,500,0,0,0,0
1066,1,11,10,11,0.89001,0,0,0,0.37826,1500,0,6500,500,0,0,0,0
1067,1,11,10,11,0.27499,0,0,0,0.46097,1500,0,6500,500,0,0,0,0
1068,1,11,10,12,0.71933,1,0,0,0.39501,1500,0,6500,500,0,0,0,0
1069,1,11,10,11,0.35942,0,0,0,0.36302,1500,0,6500,500,0,0,0,0
1070,1,12,10,12,0.69494,0,0,0,0.43147,1500,0,6500,500,0,0,0,0
1071,1,11,10,12,0.010048,1,0,0,0.31995,1500,0,6500,500,0,0,0,0
1072,1,11,10,11,0.8841,0,0,0,0.33532,1500,0,6500,500,0,0,0,0
1073,1,12,10,11,0.15922,1,0,0,0.40748,1500,0,6500,500,0,0,0,0
1074,1,12,10,12,0.74236,0,0,0,0.42127,1500,0,6500,500,0,0,0,0
1075,1,11,10,11,0.60216,0,0,0,0.39318,1500,0,6500,500,0,0,0,0
1076,1,12,10,11,0.033056,1,0,0,0.40137,1500,0,6500,500,0,0,0,0
1077,1,12,10,12,0.96483,0,0,0,0.37986,1500,0,6500,500,0,0,0,0
1078,1,11,10,11,0.98941,0,0,0,0.37436,1500,0,6500,500,0,0,0,0
1079,1,12,10,12,0.90755,0,0,0,0.30667,1500,0,6500,500,0,0,0,0
1080,1,12,10,12,0.79819,0,0,0,0.41968,1500,0,6500,500,0,0,0,0
1081,1,12,10,11,0.015748,1,0,0,0.34795,1500,0,6500,500,0,0,0,0
1082,1,11,10,12,0.52695,1,0,0,0.42676,1500,0,6500,500,0,0,0,0
1083,1,11,10,11,0.99657,0,0,0,0.37068,1500,0,6500,500,0,0,0,0
1084,1,11,10,11,0.98904,0,0,0,0.44647,1500,0,6500,500,0,0,0,0
1085,1,11,10,11,0.68092,0,0,0,0.43033,1500,0,6500,500,0,0,0,0
1086,1,11,10,11,0.93613,0,0,0,0.3695,1500,0,6500,500,0,0,0,0
1087,1,11,10,12,0.0071448,1,0,0,0.39575,1500,0,6500,500,0,0,0,0
1088,1,11,10,12,0.16894,1,0,0,0.40369,1500,0,6500,500,0,0,0,0
1089,1,12,10,11,0.15753,1,0,0,0.40768,1500,0,6500,500,0,0,0,0
1090,1,12,10,12,0.93697,0,0,0,0.39147,1500,0,6500,500,0,0,0,0
1091,1,11,10,11,0.47719,0,0,0,0.39066,1500,0,6500,500,0,0,0,0
1092,1,12,10,12,0.64425,0,0,0,0.42248,1500,0,6500,500,0,0,0,0
1093,1,12,10,11,0.7293,1,0,0,0.39818,1500,0,6500,500,0,0,0,0
1094,1,12,10,12,0.53529,0,0,0,0.35675,1500,0,6500,500,0,0,0,0
1095,1,12,10,12,0.95641,0,0,0,0.47663,1500,0,6500,500,0,0,0,0
1096,1,11,10,12,0.40303,1,0,0,0.42542,1500,0,6500,500,0,0,0,0
1097,1,11,10,12,0.045001,1,0,0,0.44883,1500,0,6500,500,0,0,0,0
1098,1,11,10,11,0.98552,0,0,0,0.48445,1500,0,6500,500,0,0,0,0
1099,1,11,10,12,0.46014,1,0,0,0.39671,1500,0,6500,500,0,0,0,0
1100,1,11,10,11,0.30956,0,0,0,0.45092,1500,0,6500,500,0,0,0,0
1101,1,12,10,12,0.78537,0,0,0,0.42048,1500,0,6500,500,0,0,0,0
1102,1,11,10,11,0.80598,0,0,0,0.35802,1500,0,6500,500,0,0,0,0
1103,1,12,10,12,0.36288,0,0,0,0.40264,1500,0,6500,500,0,0,0,0
1104,1,11,10,11,0.97431,0,0,0,0.27756,1500,0,6500,500,0,0,0,0
1105,1,12,10,11,0.3551,1,0,0,0.40949,1500,0,6500,500,0,0,0,0
1106,1,12,10,11,0.50195,1,0,0,0.37069,1500,0,6500,500,0,0,0,0
1107,1,12,10,11,0.3738,1,0,0,0.36805,1500,0,6500,500,0,0,0,0
1108,1,11,10,11,0.59706,0,0,0,0.36795,1500,0,6500,500,0,0,0,0
1109,1,11,10,12,0.29799,1,0,0,0.40223,1500,0,6500,500,0,0,0,0
1110,1,11,10,11,0.67809,0,0,0,0.38708,1500,0,6500,500,0,0,0,0
1111,1,12,10,11,0.0028494,1,0,0,0.38239,1500,0,6500,500,0,0,0,0
1112,1,11,10,12,0.020332,1,0,0,0.38665,1500,0,6500,500,0,0,0,0
1113,1,11,10,11,0.86119,0,0,0,0.41725,1500,0,6500,500,0,0,0,0
1114,1,12,10,12,0.95109,0,0,0,0.37978,1500,0,6500,500,0,0,0,0
1115,1,12,10,12,0.84925,0,0,0,0.41787,1500,0,6500,500,0,0,0,0
1116,1,11,10,11,0.6004,0,0,0,0.36651,1500,0,6500,500,0,0,0,0
1117,1,12,10,11,0.0030199,1,0,0,0.39263,1500,0,6500,500,0,0,0,0
1118,1,11,10,11,0.4474,0,0,0,0.39324,1500,0,6500,500,0,0,0,0
1119,1,12,10,12,0.37236,0,0,0,0.36303,1500,0,6500,500,0,0,0,0
1120,1,12,10,12,0.95701,0,0,0,0.40291,1500,0,6500,500,0,0,0,0
1121,1,11,10,12,0.0013427,1,0,0,0.35338,1500,0,6500,500,0,0,0,0
1122,1,11,10,11,0.79449,0,0,0,0.45321,1500,0,6500,500,0,0,0,0
1123,1,11,10,11,0.7495,0,0,0,0.35353,1500,0,6500,500,0,0,0,0
1124,1,12,10,12,0.9473,0,0,0,0.40555,1500,0,6500,500,0,0,0,0
1125,1,11,10,11,0.8613,0,0,0,0.39807,1500,0,6500,500,0,0,0,0
1126,1,11,10,11,0.66848,0,0,0,0.39452,1500,0,6500,500,0,0,0,0
1127,1,11,10,12,0.40021,1,0,0,0.36846,1500,0,6500,500,0,0,0,0
1128,1,11,10,11,0.94806,0,0,0,0.48428,1500,0,6500,500,0,0,0,0
1129,1,11,10,11,0.92954,0,0,0,0.36241,1500,0,6500,500,0,0,0,0
1130,1,12,10,12,0.42408,0,0,0,0.42862,1500,0,6500,500,0,0,0,0
1131,1,11,10,12,0.052276,1,0,0,0.37844,1500,0,6500,500,0,0,0,0
1132,1,11,10,11,0.93535,0,0,0,0.33619,1500,0,6500,500,0,0,0,0
1133,1,11,10,11,0.98424,0,0,0,0.42974,1500,0,6500,500,0,0,0,0
1134,1,12,10,11,0.51425,1,0,0,0.35716,1500,0,6500,500,0,0,0,0
1135,1,11,10,11,0.82946,0,0,0,0.49572,1500,0,6500,500,0,0,0,0
1136,1,12,10,12,0.47658,0,0,0,0.43806,1500,0,6500,500,0,0,0,0
1137,1,11,10,12,0.12365,1,0,0,0.43445,1500,0,6500,500,0,0,0,0
1138,1,11,10,11,0.77807,0,0,0,0.35817,1500,0,6500,500,0,0,0,0
1139,1,12,10,12,0.99759,0,0,0,0.45785,1500,0,6500,500,0,0,0,0
1140,1,12,10,12,0.85091,0,0,0,0.41562,1500,0,6500,500,0,0,0,0
1141,1,12,10,12,0.9832,0,0,0,0.35625,1500,0,6500,500,0,0,0,0
1142,1,12,10,12,0.92952,0,0,0,0.43991,1500,0,6500,500,0,0,0,0
1143,1,11,10,11,0.94979,0,0,0,0.38884,1500,0,6500,500,0,0,0,0
1144,1,11,10,11,0.78608,0,0,0,0.33662,1500,0,6500,500,0,0,0,0
1145,1,11,10,11,0.97802,0,0,0,0.46993,1500,0,6500,500,0,0,0,0
1146,1,11,10,11,0.99272,0,0,0,0.39282,1500,0,6500,500,0,0,0,0
1147,1,12,10,12,0.86148,0,0,0,0.37068,1500,0,6500,500,0,0,0,0
1148,1,12,10,12,0.88472,0,0,0,0.43932,1500,0,6500,500,0,0,0,0
1149,1,12,10,12,0.43152,0,0,0,0.3318,1500,0,6500,500,0,0,0,0
1150,1,12,10,12,0.8965,0,0,0,0.44568,1500,0,6500,500,0,0,0,0
1151,1,11,10,12,0.21198,1,0,0,0.37186,1500,0,6500,500,0,0,0,0
1152,1,12,10,12,0.40502,0,0,0,0.44304,1500,0,6500,500,0,0,0,0
1153,1,12,10,12,0.73365,0,0,0,0.33836,1500,0,6500,500,0,0,0,0
1154,1,11,10,11,0.24427,0,0,0,0.38794,1500,0,6500,500,0,0,0,0
1155,1,12,10,12,0.99217,0,0,0,0.37349,1500,0,6500,500,0,0,0,0
1156,1,12,10,12,0.74491,0,0,0,0.34934,1500,0,6500,500,0,0,0,0
1157,1,11,10,12,0.18881,1,0,0,0.41168,1500,0,6500,500,0,0,0,0
1158,1,11,10,11,0.87365,0,0,0,0.33416,1500,0,6500,500,0,0,0,0
1159,1,12,10,12,0.79804,0,0,0,0.3489,1500,0,6500,500,0,0,0,0
1160,1,11,10,11,0.51543,0,0,0,0.49353,1500,0,6500,500,0,0,0,0
1161,1,11,10,11,0.94964,0,0,0,0.44596,1500,0,6500,500,0,0,0,0
1162,1,11,10,11,0.83813,0,0,0,0.40674,1500,0,6500,500,0,0,0,0
1163,1,11,10,11,0.36136,0,0,0,0.40646,1500,0,6500,500,0,0,0,0
1164,1,11,10,11,0.97223,0,0,0,0.39561,1500,0,6500,500,0,0,0,0
1165,1,11,10,12,0.16573,1,0,0,0.42207,1500,0,6500,500,0,0,0,0
1166,1,11,10,11,0.36123,0,0,0,0.38696,1500,0,6500,500,0,0,0,0
1167,1,11,10,11,0.95687,0,0,0,0.34304,1500,0,6500,500,0,0,0,0
1168,1,11,10,11,0.81723,0,0,0,0.4768,1500,0,6500,500,0,0,0,0
1169,1,12,10,11,0.20259,1,0,0,0.3776,1500,0,6500,500,0,0,0,0
1170,1,11,10,11,0.86621,0,0,0,0.46701,1500,0,6500,500,0,0,0,0
1171,1,12,10,12,0.37224,0,0,0,0.40436,1500,0,6500,500,0,0,0,0
1172,1,12,10,11,0.026557,1,0,0,0.40592,1500,0,6500,500,0,0,0,0
1173,1,12,10,12,0.90367,0,0,0,0.43008,1500,0,6500,500,0,0,0,0
1174,1,11,10,11,0.79599,0,0,0,0.32928,1500,0,6500,500,0,0,0,0
1175,1,11,10,12,0.006593,1,0,0,0.387,1500,0,6500,500,0,0,0,0
1176,1,12,10,12,0.93708,0,0,0,0.35446,1500,0,6500,500,0,0,0,0
1177,1,11,10,11,0.72425,0,0,0,0.3578,1500,0,6500,500,0,0,0,0
1178,1,12,10,12,0.66175,0,0,0,0.4146,1500,0,6500,500,0,0,0,0
1179,1,11,10,11,0.71865,0,0,0,0.4841,1500,0,6500,500,0,0,0,0
1180,1,11,10,11,0.93495,0,0,0,0.39339,1500,0,6500,500,0,0,0,0
1181,1,12,10,12,0.87311,0,0,0,0.34838,1500,0,6500,500,0,0,0,0
1182,1,11,10,11,0.86722,0,0,0,0.39196,1500,0,6500,500,0,0,0,0
1183,1,12,10,11,0.099762,1,0,0,0.39685,1500,0,6500,500,0,0,0,0
1184,1,12,10,12,0.9534,0,0,0,0.45496,1500,0,6500,500,0,0,0,0
1185,1,12,10,12,0.54529,0,0,0,0.34429,1500,0,6500,500,0,0,0,0
1186,1,11,10,11,0.73243,0,0,0,0.39845,1500,0,6500,500,0,0,0,0
1187,1,12,10,12,0.47919,0,0,0,0.35799,1500,0,6500,500,0,0,0,0
1188,1,11,10,11,0.96454,0,0,0,0.4305,1500,0,6500,500,0,0,0,0
1189,1,12,10,12,0.98343,0,0,0,0.47272,1500,0,6500,500,0,0,0,0
1190,1,12,10,12,0.37359,0,0,0,0.48579,1500,0,6500,500,0,0,0,0
1191,1,12,10,12,0.75291,0,0,0,0.4285,1500,0,6500,500,0,0,0,0
1192,1,11,10,11,0.34883,0,0,0,0.40689,1500,0,6500,500,0,0,0,0
1193,1,11,10,11,0.84353,0,0,0,0.36164,1500,0,6500,500,0,0,0,0
1194,1,11,10,11,0.27476,0,0,0,0.41321,1500,0,6500,500,0,0,0,0
1195,1,11,10,11,0.99266,0,0,0,0.38067,1500,0,6500,500,0,0,0,0
1196,1,12,10,11,0.57903,1,0,0,0.35961,1500,0,6500,500,0,0,0,0
1197,1,12,10,12,0.64617,0,0,0,0.34147,1500,0,6500,500,0,0,0,0
1198,1,12,10,12,0.84414,0,0,0,0.34588,1500,0,6500,500,0,0,0,0
1199,1,12,10,12,0.98098,0,0,0,0.46107,1500,0,6500,500,0,0,0,0
1200,1,11,10,11,0.97666,0,0,0,0.38047,1500,0,6500,500,0,0,0,0
1201,1,12,10,12,0.89552,0,0,0,0.37858,1500,0,6500,500,0,0,0,0
1202,1,11,10,11,0.9923,0,0,0,0.47937,1500,0,6500,500,0,0,0,0
1203,1,12,10,11,0.061221,1,0,0,0.38774,1500,0,6500,500,0,0,0,0
1204,1,12,10,11,0.86082,1,0,0,0.43217,1500,0,6500,500,0,0,0,0
1205,1,12,10,12,0.96356,0,0,0,0.48226,1500,0,6500,500,0,0,0,0
1206,1,12,10,11,0.053873,1,0,0,0.29314,1500,0,6500,500,0,0,0,0
1207,1,12,10,12,0.91823,0,0,0,0.48582,1500,0,6500,500,0,0,0,0
1208,1,12,10,12,0.80042,0,0,0,0.44243,1500,0,6500,500,0,0,0,0
1209,1,11,10,11,0.99667,0,0,0,0.33196,1500,0,6500,500,0,0,0,0
1210,1,11,10,12,0.48429,1,0,0,0.35807,1500,0,6500,500,0,0,0,0
1211,1,11,10,11,0.63926,0,0,0,0.33542,1500,0,6500,500,0,0,0,0
1212,1,11,10,12,0.30846,1,0,0,0.4004,1500,0,6500,500,0,0,0,0
1213,1,12,10,12,0.4466,0,0,0,0.45571,1500,0,6500,500,0,0,0,0
1214,1,11,10,12,0.029951,1,0,0,0.39284,1500,0,6500,500,0,0,0,0
1215,1,12,10,12,0.90642,0,0,0,0.38634,1500,0,6500,500,0,0,0,0
1216,1,12,10,12,0.87325,0,0,0,0.39515,1500,0,6500,500,0,0,0,0
1217,1,12,10,12,0.92771,0,0,0,0.39395,1500,0,6500,500,0,0,0,0
1218,1,12,10,12,0.41417,0,0,0,0.35753,1500,0,6500,500,0,0,0,0
1219,1,11,10,12,0.024734,1,0,0,0.36742,1500,0,6500,500,0,0,0,0
1220,1,11,10,11,0.81207,0,0,0,0.38646,1500,0,6500,500,0,0,0,0
1221,1,11,10,12,0.24702,1,0,0,0.37926,1500,0,6500,500,0,0,0,0
1222,1,11,10,11,0.40216,0,0,0,0.35244,1500,0,6500,500,0,0,0,0
1223,1,11,10,11,0.88997,0,0,0,0.45804,1500,0,6500,500,0,0,0,0
1224,1,12,10,12,0.96018,0,0,0,0.41038,1500,0,6500,500,0,0,0,0
1225,1,12,10,12,0.89419,0,0,0,0.33614,1500,0,6500,500,0,0,0,0
1226,1,11,10,11,0.74456,0,0,0,0.41295,1500,0,6500,500,0,0,0,0
1227,1,11,10,12,0.38509,1,0,0,0.41649,1500,0,6500,500,0,0,0,0
1228,1,12,10,12,0.86749,0,0,0,0.39607,1500,0,6500,500,0,0,0,0
1229,1,12,10,11,0.077425,1,0,0,0.36885,1500,0,6500,500,0,0,0,0
1230,1,12,10,12,0.44366,0,0,0,0.35716,1500,0,6500,500,0,0,0,0
1231,1,11,10,11,0.40419,0,0,0,0.42915,1500,0,6500,500,0,0,0,0
1232,1,12,10,11,0.34483,1,0,0,0.39216,1500,0,6500,500,0,0,0,0
1233,1,12,10,11,0.65477,1,0,0,0.37972,1500,0,6500,500,0,0,0,0
1234,1,11,10,12,0.11428,1,0,0,0.35315,1500,0,6500,500,0,0,0,0
1235,1,11,10,11,0.74607,0,0,0,0.49364,1500,0,6500,500,0,0,0,0
1236,1,12,10,12,0.80213,0,0,0,0.38809,1500,0,6500,500,0,0,0,0
1237,1,11,10,11,0.45541,0,0,0,0.44742,1500,0,6500,500,0,0,0,0
1238,1,11,10,12,0.0069109,1,0,0,0.36801,1500,0,6500,500,0,0,0,0
1239,1,11,10,11,0.023865,0,0,0,0.32262,1500,0,6500,500,0,0,0,0
1240,1,11,10,12,0.022852,1,0,0,0.41959,1500,0,6500,500,0,0,0,0
1241,1,11,10,12,0.40253,1,0,0,0.34177,1500,0,6500,500,0,0,0,0
1242,1,11,10,11,0.66529,0,0,0,0.39644,1500,0,6500,500,0,0,0,0
1243,1,11,10,11,0.53495,0,0,0,0.39179,1500,0,6500,500,0,0,0,0
1244,1,12,10,12,0.35907,0,0,0,0.45816,1500,0,6500,500,0,0,0,0
1245,1,11,10,12,0.62728,1,0,0,0.38528,1500,0,6500,500,0,0,0,0
1246,1,11,10,12,0.38151,1,0,0,0.38558,1500,0,6500,500,0,0,0,0
1247,1,12,10,12,0.40268,0,0,0,0.41275,1500,0,6500,500,0,0,0,0
1248,1,12,10,12,0.989,0,0,0,0.44432,1500,0,6500,500,0,0,0,0
1249,1,12,10,12,0.15051,0,0,0,0.33849,1500,0,6500,500,0,0,0,0
1250,1,11,10,11,0.90806,0,0,0,0.40895,1500,0,6500,500,0,0,0,0
1251,1,11,10,11,0.68378,0,0,0,0.35494,1500,0,6500,500,0,0,0,0
1252,1,12,10,12,0.76379,0,0,0,0.40908,1500,0,6500,500,0,0,0,0
1253,1,11,10,12,0.15121,1,0,0,0.31203,1500,0,6500,500,0,0,0,0
1254,1,11,10,11,0.76543,0,0,0,0.40305,1500,0,6500,500,0,0,0,0
1255,1,12,10,12,0.96997,0,0,0,0.36536,1500,0,6500,500,0,0,0,0
1256,1,12,10,12,0.97238,0,0,0,0.35068,1500,0,6500,500,0,0,0,0
1257,1,12,10,12,0.96906,0,0,0,0.37583,1500,0,6500,500,0,0,0,0
1258,1,11,10,12,0.088418,1,0,0,0.38125,1500,0,6500,500,0,0,0,0
1259,1,12,10,12,0.93898,0,0,0,0.38317,1500,0,6500,500,0,0,0,0
1260,1,12,10,12,0.58434,0,0,0,0.35361,1500,0,6500,500,0,0,0,0
1261,1,11,10,12,0.16346,1,0,0,0.39065,1500,0,6500,500,0,0,0,0
1262,1,11,10,11,0.90981,0,0,0,0.45369,1500,0,6500,500,0,0,0,0
1263,1,12,10,12,0.98693,0,0,0,0.40778,1500,0,6500,500,0,0,0,0
1264,1,11,10,11,0.78846,0,0,0,0.34894,1500,0,6500,500,0,0,0,0
1265,1,12,10,12,0.9668,0,0,0,0.40121,1500,0,6500,500,0,0,0,0
1266,1,11,10,11,0.83405,0,0,0,0.38977,1500,0,6500,500,0,0,0,0
1267,1,12,10,12,0.94101,0,0,0,0.4073,1500,0,6500,500,0,0,0,0
1268,1,11,10,12,0.06593,1,0,0,0.36454,1500,0,6500,500,0,0,0,0
1269,1,11,10,11,0.82172,0,0,0,0.39536,1500,0,6500,500,0,0,0,0
1270,1,11,10,11,0.41474,0,0,0,0.44385,1500,0,6500,500,0,0,0,0
1271,1,12,10,12,0.47234,0,0,0,0.41394,1500,0,6500,500,0,0,0,0
1272,1,11,10,11,0.16664,0,0,0,0.49925,1500,0,6500,500,0,0,0,0
1273,1,11,10,11,0.69676,0,0,0,0.33013,1500,0,6500,500,0,0,0,0
1274,1,12,10,12,0.9684,0,0,0,0.41435,1500,0,6500,500,0,0,0,0
1275,1,11,10,11,0.96905,0,0,0,0.3399,1500,0,6500,500,0,0,0,0
1276,1,11,10,11,0.89588,0,0,0,0.38087,1500,0,6500,500,0,0,0,0
1277,1,12,10,11,0.031934,1,0,0,0.40843,1500,0,6500,500,0,0,0,0
1278,1,11,10,11,0.98941,0,0,0,0.39746,1500,0,6500,500,0,0,0,0
1279,1,11,10,11,0.94259,0,0,0,0.3715,1500,0,6500,500,0,0,0,0
1280,1,12,10,11,0.11539,1,0,0,0.40281,1500,0,6500,500,0,0,0,0
1281,1,12,10,12,0.96693,0,0,0,0.41515,1500,0,6500,500,0,0,0,0
1282,1,11,10,12,0.47371,1,0,0,0.34652,1500,0,6500,500,0,0,0,0
1283,1,12,10,12,0.92333,0,0,0,0.43264,1500,0,6500,500,0,0,0,0
1284,1,11,10,11,0.79743,0,0,0,0.4271,1500,0,6500,500,0,0,0,0
1285,1,12,10,12,0.8954,0,0,0,0.43414,1500,0,6500,500,0,0,0,0
1286,1,11,10,12,0.46655,1,0,0,0.35943,1500,0,6500,500,0,0,0,0
1287,1,11,10,11,0.87486,0,0,0,0.41239,1500,0,6500,500,0,0,0,0
1288,1,11,10,11,0.75946,0,0,0,0.39589,1500,0,6500,500,0,0,0,0
1289,1,11,10,11,0.42758,0,0,0,0.46287,1500,0,6500,500,0,0,0,0
1290,1,12,10,11,0.37645,1,0,0,0.32819,1500,0,6500,500,0,0,0,0
1291,1,11,10,11,0.94323,0,0,0,0.42033,1500,0,6500,500,0,0,0,0
1292,1,11,10,12,0.67143,1,0,0,0.3636,1500,0,6500,500,0,0,0,0
1293,1,12,10,12,0.5975,0,0,0,0.3633,1500,0,6500,500,0,0,0,0
1294,1,11,10,11,0.98939,0,0,0,0.48032,1500,0,6500,500,0,0,0,0
1295,1,11,10,12,0.058301,1,0,0,0.42137,1500,0,6500,500,0,0,0,0
1296,1,12,10,11,0.60878,1,0,0,0.33741,1500,0,6500,500,0,0,0,0
1297,1,12,10,12,0.92523,0,0,0,0.38964,1500,0,6500,500,0,0,0,0
1298,1,11,10,12,0.76651,1,0,0,0.34694,1500,0,6500,500,0,0,0,0
1299,1,11,10,12,0.0032992,1,0,0,0.43163,1500,0,6500,500,0,0,0,0
1300,1,11,10,11,0.28017,0,0,0,0.46771,1500,0,6500,500,0,0,0,0
1301,1,11,10,12,0.32104,1,0,0,0.38333,1500,0,6500,500,0,0,0,0
1302,1,12,10,12,0.52554,0,0,0,0.43659,1500,0,6500,500,0,0,0,0
1303,1,11,10,11,0.75262,0,0,0,0.40521,1500,0,6500,500,0,0,0,0
1304,1,11,10,11,0.94584,0,0,0,0.36442,1500,0,6500,500,0,0,0,0
1305,1,12,10,12,0.88304,0,0,0,0.42784,1500,0,6500,500,0,0,0,0
1306,1,12,10,12,0.4688,0,0,0,0.38276,1500,0,6500,500,0,0,0,0
1307,1,12,10,12,0.92373,0,0,0,0.48696,1500,0,6500,500,0,0,0,0
1308,1,11,10,12,0.7337,1,0,0,0.38317,1500,0,6500,500,0,0,0,0
1309,1,11,10,11,0.56749,0,0,0,0.41744,1500,0,6500,500,0,0,0,0
1310,1,11,10,11,0.89091,0,0,0,0.36879,1500,0,6500,500,0,0,0,0
1311,1,11,10,11,0.8867,0,0,0,0.40015,1500,0,6500,500,0,0,0,0
1312,1,12,10,12,0.58693,0,0,0,0.39979,1500,0,6500,500,0,0,0,0
1313,1,12,10,11,0.12318,1,0,0,0.37565,1500,0,6500,500,0,0,0,0
1314,1,12,10,12,0.83699,0,0,0,0.33006,1500,0,6500,500,0,0,0,0
1315,1,12,10,11,0.52131,1,0,0,0.40995,1500,0,6500,500,0,0,0,0
1316,1,12,10,11,0.12098,1,0,0,0.41129,1500,0,6500,500,0,0,0,0
1317,1,12,10,12,0.9259,0,0,0,0.37993,1500,0,6500,500,0,0,0,0
1318,1,12,10,11,0.66085,1,0,0,0.38444,1500,0,6500,500,0,0,0,0
1319,1,12,10,12,0.9671,0,0,0,0.33735,1500,0,6500,500,0,0,0,0
1320,1,11,10,11,0.38124,0,0,0,0.41053,1500,0,6500,500,0,0,0,0
1321,1,12,10,12,0.98668,0,0,0,0.35872,1500,0,6500,500,0,0,0,0
1322,1,12,10,12,0.24335,0,0,0,0.3965,1500,0,6500,500,0,0,0,0
1323,1,12,10,11,0.17762,1,0,0,0.3575,1500,0,6500,500,0,0,0,0
1324,1,12,10,11,0.030777,1,0,0,0.35764,1500,0,6500,500,0,0,0,0
1325,1,12,10,11,0.62674,1,0,0,0.36375,1500,0,6500,500,0,0,0,0
1326,1,12,10,12,0.71967,0,0,0,0.35003,1500,0,6500,500,0,0,0,0
1327,1,12,10,11,0.46174,1,0,0,0.44251,1500,0,6500,500,0,0,0,0
1328,1,12,10,12,0.64203,0,0,0,0.39309,1500,0,6500,500,0,0,0,0
1329,1,11,10,11,0.62661,0,0,0,0.34835,1500,0,6500,500,0,0,0,0
1330,1,12,10,12,0.91713,0,0,0,0.41835,1500,0,6500,500,0,0,0,0
1331,1,11,10,11,0.8219,0,0,0,0.38932,1500,0,6500,500,0,0,0,0
1332,1,12,10,12,0.56184,0,0,0,0.46056,1500,0,6500,500,0,0,0,0
1333,1,12,10,12,0.87179,0,0,0,0.33834,1500,0,6500,500,0,0,0,0
1334,1,11,10,11,0.96731,0,0,0,0.40575,1500,0,6500,500,0,0,0,0
1335,1,12,10,12,0.91357,0,0,0,0.46969,1500,0,6500,500,0,0,0,0
1336,1,12,10,11,0.014727,1,0,0,0.44725,1500,0,6500,500,0,0,0,0
1337,1,12,10,11,0.040404,1,0,0,0.49143,1500,0,6500,500,0,0,0,0
1338,1,11,10,12,0.11727,1,0,0,0.43818,1500,0,6500,500,0,0,0,0
1339,1,11,10,12,0.78603,1,0,0,0.442,1500,0,6500,500,0,0,0,0
1340,1,12,10,11,0.36837,1,0,0,0.41801,1500,0,6500,500,0,0,0,0
1341,1,11,10,11,0.79925,0,0,0,0.34008,1500,0,6500,500,0,0,0,0
1342,1,11,10,11,0.91736,0,0,0,0.36772,1500,0,6500,500,0,0,0,0
1343,1,12,10,12,0.82481,0,0,0,0.46879,1500,0,6500,500,0,0,0,0
1344,1,11,10,11,0.58695,0,0,0,0.37198,1500,0,6500,500,0,0,0,0
1345,1,11,10,11,0.90283,0,0,0,0.38863,1500,0,6500,500,0,0,0,0
1346,1,11,10,11,0.75649,0,0,0,0.39816,1500,0,6500,500,0,0,0,0
1347,1,12,10,12,0.8587,0,0,0,0.46369,1500,0,6500,500,0,0,0,0
1348,1,12,10,12,0.64191,0,0,0,0.49219,1500,0,6500,500,0,0,0,0
1349,1,12,10,12,0.78066,0,0,0,0.40309,1500,0,6500,500,0,0,0,0
1350,1,12,10,11,0.27477,1,0,0,0.37384,1500,0,6500,500,0,0,0,0
1351,1,12,10,11,0.25829,1,0,0,0.39842,1500,0,6500,500,0,0,0,0
1352,1,12,10,11,0.22632,1,0,0,0.42592,1500,0,6500,500,0,0,0,0
1353,1,12,10,11,0.038978,1,0,0,0.41091,1500,0,6500,500,0,0,0,0
1354,1,12,10,12,0.57777,0,0,0,0.36985,1500,0,6500,500,0,0,0,0
1355,1,11,10,11,0.34534,0,0,0,0.4415,1500,0,6500,500,0,0,0,0
1356,1,11,10,11,0.80573,0,0,0,0.34183,1500,0,6500,500,0,0,0,0
1357,1,11,10,11,0.84034,0,0,0,0.30038,1500,0,6500,500,0,0,0,0
1358,1,12,10,12,0.92123,0,0,0,0.41156,1500,0,6500,500,0,0,0,0
1359,1,11,10,11,0.68068,0,0,0,0.38547,1500,0,6500,500,0,0,0,0
1360,1,12,10,12,0.5506,0,0,0,0.34477,1500,0,6500,500,0,0,0,0
1361,1,11,10,11,0.77728,0,0,0,0.41324,1500,0,6500,500,0,0,0,0
1362,1,11,10,11,0.35424,0,0,0,0.47802,1500,0,6500,500,0,0,0,0
1363,1,12,10,11,0.046439,1,0,0,0.32543,1500,0,6500,500,0,0,0,0
1364,1,11,10,11,0.99275,0,0,0,0.36304,1500,0,6500,500,0,0,0,0
1365,1,11,10,11,0.71551,0,0,0,0.40301,1500,0,6500,500,0,0,0,0
1366,1,12,10,12,0.30504,0,0,0,0.27859,1500,0,6500,500,0,0,0,0
1367,1,11,10,12,0.41565,1,0,0,0.33132,1500,0,6500,500,0,0,0,0
1368,1,11,10,11,0.95275,0,0,0,0.38628,1500,0,6500,500,0,0,0,0
1369,1,11,10,11,0.88816,0,0,0,0.40525,1500,0,6500,500,0,0,0,0
1370,1,12,10,11,0.69006,1,0,0,0.45206,1500,0,6500,500,0,0,0,0
1371,1,12,10,11,0.33529,1,0,0,0.40538,1500,0,6500,500,0,0,0,0
1372,1,11,10,11,0.74677,0,0,0,0.43602,1500,0,6500,500,0,0,0,0
1373,1,11,10,11,0.77562,0,0,0,0.39151,1500,0,6500,500,0,0,0,0
1374,1,12,10,12,0.92171,0,0,0,0.38835,1500,0,6500,500,0,0,0,0
1375,1,11,10,11,0.80143,0,0,0,0.37688,1500,0,6500,500,0,0,0,0
1376,1,11,10,11,0.84591,0,0,0,0.45414,1500,0,6500,500,0,0,0,0
1377,1,12,10,12,0.75978,0,0,0,0.31608,1500,0,6500,500,0,0,0,0
1378,1,11,10,12,0.17082,1,0,0,0.38315,1500,0,6500,500,0,0,0,0
1379,1,11,10,11,0.33658,0,0,0,0.36254,1500,0,6500,500,0,0,0,0
1380,1,12,10,12,0.75233,0,0,0,0.48968,1500,0,6500,500,0,0,0,0
1381,1,12,10,12,0.93924,0,0,0,0.40775,1500,0,6500,500,0,0,0,0
1382,1,11,10,12,0.078278,1,0,0,0.44988,1500,0,6500,500,0,0,0,0
1383,1,11,10,11,0.089751,0,0,0,0.49533,1500,0,6500,500,0,0,0,0
1384,1,11,10,12,0.23542,1,0,0,0.41888,1500,0,6500,500,0,0,0,0
1385,1,12,10,11,0.77689,1,0,0,0.49754,1500,0,6500,500,0,0,0,0
1386,1,12,10,12,0.27768,0,0,0,0.47077,1500,0,6500,500,0,0,0,0
1387,1,12,10,12,0.96673,0,0,0,0.46361,1500,0,6500,500,0,0,0,0
1388,1,11,10,11,0.60326,0,0,0,0.38,1500,0,6500,500,0,0,0,0
1389,1,12,10,12,0.94071,0,0,0,0.45207,1500,0,6500,500,0,0,0,0
1390,1,11,10,11,0.82073,0,0,0,0.38969,1500,0,6500,500,0,0,0,0
1391,1,11,10,11,0.47351,0,0,0,0.39913,1500,0,6500,500,0,0,0,0
1392,1,11,10,11,0.68119,0,0,0,0.44312,1500,0,6500,500,0,0,0,0
1393,1,11,10,11,0.86485,0,0,0,0.38074,1500,0,6500,500,0,0,0,0
1394,1,11,10,12,0.10124,1,0,0,0.3543,1500,0,6500,500,0,0,0,0
1395,1,12,10,12,0.62061,0,0,0,0.34799,1500,0,6500,500,0,0,0,0
1396,1,12,10,12,0.6254,0,0,0,0.32891,1500,0,6500,500,0,0,0,0
1397,1,12,10,12,0.94053,0,0,0,0.41922,1500,0,6500,500,0,0,0,0
1398,1,12,10,12,0.1836,0,0,0,0.46561,1500,0,6500,500,0,0,0,0
1399,1,11,10,11,0.92377,0,0,0,0.29365,1500,0,6500,500,0,0,0,0
1400,1,12,10,12,0.95445,0,0,0,0.37645,1500,0,6500,500,0,0,0,0
1401,1,12,10,11,0.38426,1,0,0,0.40454,1500,0,6500,500,0,0,0,0
1402,1,11,10,12,0.018205,1,0,0,0.27132,1500,0,6500,500,0,0,0,0
1403,1,11,10,11,0.79229,0,0,0,0.3899,1500,0,6500,500,0,0,0,0
1404,1,11,10,11,0.92824,0,0,0,0.40138,1500,0,6500,500,0,0,0,0
1405,1,11,10,11,0.39797,0,0,0,0.38695,1500,0,6500,500,0,0,0,0
1406,1,11,10,12,0.29031,1,0,0,0.33754,1500,0,6500,500,0,0,0,0
1407,1,11,10,11,0.90315,0,0,0,0.36581,1500,0,6500,500,0,0,0,0
1408,1,11,10,11,0.56334,0,0,0,0.40989,1500,0,6500,500,0,0,0,0
1409,1,12,10,12,0.92058,0,0,0,0.39222,1500,0,6500,500,0,0,0,0
1410,1,12,10,12,0.80323,0,0,0,0.44754,1500,0,6500,500,0,0,0,0
1411,1,11,10,11,0.8966,0,0,0,0.4741,1500,0,6500,500,0,0,0,0
1412,1,11,10,11,0.56131,0,0,0,0.40727,1500,0,6500,500,0,0,0,0
1413,1,11,10,12,0.11625,1,0,0,0.32487,1500,0,6500,500,0,0,0,0
1414,1,12,10,12,0.6203,0,0,0,0.3751,1500,0,6500,500,0,0,0,0
1415,1,11,10,12,0.017046,1,0,0,0.40914,1500,0,6500,500,0,0,0,0
1416,1,11,10,11,0.68307,0,0,0,0.41134,1500,0,6500,500,0,0,0,0
1417,1,12,10,12,0.94326,0,0,0,0.37862,1500,0,6500,500,0,0,0,0
1418,1,12,10,12,0.75078,0,0,0,0.47207,1500,0,6500,500,0,0,0,0
1419,1,11,10,12,0.26046,1,0,0,0.3433,1500,0,6500,500,0,0,0,0
1420,1,11,10,11,0.8605,0,0,0,0.36195,1500,0,6500,500,0,0,0,0
1421,1,12,10,12,0.53586,0,0,0,0.39108,1500,0,6500,500,0,0,0,0
1422,1,12,10,12,0.56126,0,0,0,0.32801,1500,0,6500,500,0,0,0,0
1423,1,11,10,11,0.75962,0,0,0,0.36132,1500,0,6500,500,0,0,0,0
1424,1,12,10,12,0.27809,0,0,0,0.41851,1500,0,6500,500,0,0,0,0
1425,1,11,10,11,0.64385,0,0,0,0.48624,1500,0,6500,500,0,0,0,0
1426,1,11,10,11,0.60306,0,0,0,0.44671,1500,0,6500,500,0,0,0,0
1427,1,12,10,12,0.97281,0,0,0,0.41676,1500,0,6500,500,0,0,0,0
1428,1,12,10,11,0.13903,1,0,0,0.43087,1500,0,6500,500,0,0,0,0
1429,1,11,10,11,0.57603,0,0,0,0.4184,1500,0,6500,500,0,0,0,0
1430,1,11,10,11,0.88092,0,0,0,0.37167,1500,0,6500,500,0,0,0,0
1431,1,11,10,11,0.86088,0,0,0,0.39416,1500,0,6500,500,0,0,0,0
1432,1,12,10,11,0.26849,1,0,0,0.2239,1500,0,6500,500,0,0,0,0
1433,1,12,10,12,0.49276,0,0,0,0.34546,1500,0,6500,500,0,0,0,0
1434,1,11,10,12,0.22894,1,0,0,0.36456,1500,0,6500,500,0,0,0,0
1435,1,12,10,12,0.9108,0,0,0,0.43274,1500,0,6500,500,0,0,0,0
1436,1,11,10,11,0.66388,0,0,0,0.36424,1500,0,6500,500,0,0,0,0
1437,1,11,10,12,0.40697,1,0,0,0.40228,1500,0,6500,500,0,0,0,0
1438,1,11,10,12,0.093544,1,0,0,0.46549,1500,0,6500,500,0,0,0,0
1439,1,12,10,12,0.94228,0,0,0,0.36281,1500,0,6500,500,0,0,0,0
1440,1,11,10,11,0.92236,0,0,0,0.44316,1500,0,6500,500,0,0,0,0
1441,1,12,10,12,0.62039,0,0,0,0.39795,1500,0,6500,500,0,0,0,0
1442,1,12,10,12,0.80712,0,0,0,0.43936,1500,0,6500,500,0,0,0,0
1443,1,11,10,11,0.2004,0,0,0,0.36148,1500,0,6500,500,0,0,0,0
1444,1,11,10,11,0.83057,0,0,0,0.42403,1500,0,6500,500,0,0,0,0
1445,1,11,10,11,0.97373,0,0,0,0.3596,1500,0,6500,500,0,0,0,0
1446,1,11,10,12,0.084355,1,0,0,0.38171,1500,0,6500,500,0,0,0,0
1447,1,12,10,12,0.56418,0,0,0,0.46877,1500,0,6500,500,0,0,0,0
1448,1,11,10,11,0.75661,0,0,0,0.32676,1500,0,6500,500,0,0,0,0
1449,1,11,10,12,0.25949,1,0,0,0.3077,1500,0,6500,500,0,0,0,0
1450,1,12,10,12,0.89283,0,0,0,0.35246,1500,0,6500,500,0,0,0,0
1451,1,12,10,12,0.99338,0,0,0,0.37932,1500,0,6500,500,0,0,0,0
1452,1,12,10,12,0.16079,0,0,0,0.36219,1500,0,6500,500,0,0,0,0
1453,1,12,10,12,0.66512,0,0,0,0.47758,1500,0,6500,500,0,0,0,0
1454,1,11,10,12,0.010526,1,0,0,0.48841,1500,0,6500,500,0,0,0,0
1455,1,11,10,12,0.22166,1,0,0,0.34198,1500,0,6500,500,0,0,0,0
1456,1,12,10,12,0.36048,0,0,0,0.40643,1500,0,6500,500,0,0,0,0
1457,1,12,10,11,0.08087,1,0,0,0.36524,1500,0,6500,500,0,0,0,0
1458,1,12,10,12,0.69083,0,0,0,0.46353,1500,0,6500,500,0,0,0,0
1459,1,12,10,12,0.57299,0,0,0,0.40809,1500,0,6500,500,0,0,0,0
1460,1,12,10,11,0.42272,1,0,0,0.38931,1500,0,6500,500,0,0,0,0
1461,1,12,10,11,0.19945,1,0,0,0.38182,1500,0,6500,500,0,0,0,0
1462,1,11,10,12,0.023818,1,0,0,0.4157,1500,0,6500,500,0,0,0,0
1463,1,11,10,11,0.92879,0,0,0,0.3976,1500,0,6500,500,0,0,0,0
1464,1,12,10,12,0.77777,0,0,0,0.42139,1500,0,6500,500,0,0,0,0
1465,1,11,10,12,0.17214,1,0,0,0.44953,1500,0,6500,500,0,0,0,0
1466,1,11,10,11,0.71084,0,0,0,0.36701,1500,0,6500,500,0,0,0,0
1467,1,12,10,11,0.38604,1,0,0,0.43937,1500,0,6500,500,0,0,0,0
1468,1,12,10,12,0.856,0,0,0,0.45343,1500,0,6500,500,0,0,0,0
1469,1,12,10,12,0.74196,0,0,0,0.46564,1500,0,6500,500,0,0,0,0
1470,1,12,10,12,0.94457,0,0,0,0.47542,1500,0,6500,500,0,0,0,0
1471,1,11,10,12,0.022937,1,0,0,0.31617,1500,0,6500,500,0,0,0,0
1472,1,12,10,11,0.12806,1,0,0,0.3578,1500,0,6500,500,0,0,0,0
1473,1,11,10,11,0.96031,0,0,0,0.39214,1500,0,6500,500,0,0,0,0
1474,1,12,10,11,0.043978,1,0,0,0.45229,1500,0,6500,500,0,0,0,0
1475,1,12,10,11,0.41232,1,0,0,0.42848,1500,0,6500,500,0,0,0,0
1476,1,11,10,12,0.54696,1,0,0,0.4265,1500,0,6500,500,0,0,0,0
1477,1,11,10,11,0.61944,0,0,0,0.37425,1500,0,6500,500,0,0,0,0
1478,1,12,10,11,0.035014,1,0,0,0.34973,1500,0,6500,500,0,0,0,0
1479,1,11,10,11,0.49602,0,0,0,0.39262,1500,0,6500,500,0,0,0,0
1480,1,11,10,11,0.24454,0,0,0,0.34435,1500,0,6500,500,0,0,0,0
1481,1,11,10,11,0.67437,0,0,0,0.46692,1500,0,6500,500,0,0,0,0
1482,1,11,10,11,0.95356,0,0,0,0.34638,1500,0,6500,500,0,0,0,0
1483,1,12,10,12,0.88201,0,0,0,0.42559,1500,0,6500,500,0,0,0,0
1484,1,12,10,11,0.32509,1,0,0,0.41124,1500,0,6500,500,0,0,0,0
1485,1,11,10,12,0.06341,1,0,0,0.40642,1500,0,6500,500,0,0,0,0
1486,1,12,10,12,0.84452,0,0,0,0.36543,1500,0,6500,500,0,0,0,0
1487,1,11,10,11,0.95785,0,0,0,0.43666,1500,0,6500,500,0,0,0,0
1488,1,12,10,12,0.75137,0,0,0,0.3678,1500,0,6500,500,0,0,0,0
1489,1,11,10,11,0.80799,0,0,0,0.34037,1500,0,6500,500,0,0,0,0
1490,1,12,10,11,0.14678,1,0,0,0.38533,1500,0,6500,500,0,0,0,0
1491,1,12,10,12,0.89008,0,0,0,0.4888,1500,0,6500,500,0,0,0,0
1492,1,11,10,11,0.35876,0,0,0,0.32098,1500,0,6500,500,0,0,0,0
1493,1,12,10,12,0.94795,0,0,0,0.42426,1500,0,6500,500,0,0,0,0
1494,1,12,10,12,0.7422,0,0,0,0.37958,1500,0,6500,500,0,0,0,0
1495,1,12,10,12,0.81774,0,0,0,0.47772,1500,0,6500,500,0,0,0,0
1496,1,12,10,11,0.12659,1,0,0,0.3173,1500,0,6500,500,0,0,0,0
1497,1,12,10,12,0.66564,0,0,0,0.42926,1500,0,6500,500,0,0,0,0
1498,1,12,10,12,0.21505,0,0,0,0.43254,1500,0,6500,500,0,0,0,0
1499,1,11,10,11,0.49121,0,0,0,0.36026,1500,0,6500,500,0,0,0,0
1500,1,12,10,12,0.78083,0,0,0,0.39145,1500,0,6500,500,0,0,0,0
1501,1,11,10,11,0.85858,0,0,0,0.41281,1500,0,6500,500,0,0,0,0
1502,1,12,10,12,0.64584,0,0,0,0.47778,1500,0,6500,500,0,0,0,0
1503,1,11,10,11,0.87153,0,0,0,0.32279,1500,0,6500,500,0,0,0,0
1504,1,11,10,11,0.8033,0,0,0,0.31714,1500,0,6500,500,0,0,0,0
1505,1,12,10,11,0.042434,1,0,0,0.38066,1500,0,6500,500,0,0,0,0
1506,1,11,10,12,0.18629,1,0,0,0.42872,1500,0,6500,500,0,0,0,0
1507,1,11,10,11,0.17045,0,0,0,0.34549,1500,0,6500,500,0,0,0,0
1508,1,11,10,11,0.43635,0,0,0,0.46603,1500,0,6500,500,0,0,0,0
1509,1,12,10,12,0.87596,0,0,0,0.44556,1500,0,6500,500,0,0,0,0
1510,1,12,10,12,0.7833,0,0,0,0.43917,1500,0,6500,500,0,0,0,0
1511,1,12,10,11,0.20903,1,0,0,0.45326,1500,0,6500,500,0,0,0,0
1512,1,11,10,11,0.96157,0,0,0,0.48118,1500,0,6500,500,0,0,0,0
1513,1,11,10,11,0.50897,0,0,0,0.35999,1500,0,6500,500,0,0,0,0
1514,1,11,10,11,0.56576,0,0,0,0.41568,1500,0,6500,500,0,0,0,0
1515,1,11,10,11,0.64923,0,0,0,0.40181,1500,0,6500,500,0,0,0,0
1516,1,11,10,11,0.83903,0,0,0,0.35782,1500,0,6500,500,0,0,0,0
1517,1,11,10,12,0.1999,1,0,0,0.31255,1500,0,6500,500,0,0,0,0
1518,1,11,10,11,0.96004,0,0,0,0.3688,1500,0,6500,500,0,0,0,0
1519,1,12,10,12,0.89926,0,0,0,0.34565,1500,0,6500,500,0,0,0,0
1520,1,11,10,11,0.6659,0,0,0,0.37191,1500,0,6500,500,0,0,0,0
1521,1,11,10,11,0.92082,0,0,0,0.33116,1500,0,6500,500,0,0,0,0
1522,1,12,10,12,0.83299,0,0,0,0.46503,1500,0,6500,500,0,0,0,0
1523,1,12,10,11,0.60374,1,0,0,0.39951,1500,0,6500,500,0,0,0,0
1524,1,12,10,12,0.97495,0,0,0,0.39499,1500,0,6500,500,0,0,0,0
1525,1,11,10,11,0.90583,0,0,0,0.36638,1500,0,6500,500,0,0,0,0
1526,1,11,10,11,0.50847,0,0,0,0.41373,1500,0,6500,500,0,0,0,0
1527,1,11,10,11,0.93933,0,0,0,0.45738,1500,0,6500,500,0,0,0,0
1528,1,12,10,11,0.28321,1,0,0,0.43541,1500,0,6500,500,0,0,0,0
1529,1,11,10,12,0.40555,1,0,0,0.43275,1500,0,6500,500,0,0,0,0
1530,1,11,10,11,0.69752,0,0,0,0.45952,1500,0,6500,500,0,0,0,0
1531,1,11,10,11,0.9757,0,0,0,0.44844,1500,0,6500,500,0,0,0,0
1532,1,12,10,11,0.1052,1,0,0,0.37989,1500,0,6500,500,0,0,0,0
1533,1,12,10,12,0.43651,0,0,0,0.3903,1500,0,6500,500,0,0,0,0
1534,1,11,10,11,0.97576,0,0,0,0.35264,1500,0,6500,500,0,0,0,0
1535,1,12,10,12,0.9045,0,0,0,0.32499,1500,0,6500,500,0,0,0,0
1536,1,12,10,11,0.068673,1,0,0,0.38623,1500,0,6500,500,0,0,0,0
1537,1,11,10,11,0.8814,0,0,0,0.36766,1500,0,6500,500,0,0,0,0
1538,1,12,10,12,0.80548,0,0,0,0.39736,1500,0,6500,500,0,0,0,0
1539,1,11,10,11,0.8841,0,0,0,0.43789,1500,0,6500,500,0,0,0,0
1540,1,12,10,12,0.5784,0,0,0,0.35767,1500,0,6500,500,0,0,0,0
1541,1,12,10,12,0.98663,0,0,0,0.46307,1500,0,6500,500,0,0,0,0
1542,1,12,10,12,0.99849,0,0,0,0.4921,1500,0,6500,500,0,0,0,0
1543,1,12,10,12,0.70365,0,0,0,0.37355,1500,0,6500,500,0,0,0,0
1544,1,12,10,11,0.083938,1,0,0,0.36331,1500,0,6500,500,0,0,0,0
1545,1,11,10,11,0.4449,0,0,0,0.41676,1500,0,6500,500,0,0,0,0
1546,1,12,10,12,0.98686,0,0,0,0.40677,1500,0,6500,500,0,0,0,0
1547,1,11,10,11,0.43212,0,0,0,0.37417,1500,0,6500,500,0,0,0,0
1548,1,11,10,12,0.8975,1,0,0,0.3848,1500,0,6500,500,0,0,0,0
1549,1,11,10,12,0.074109,1,0,0,0.44122,1500,0,6500,500,0,0,0,0
1550,1,12,10,12,0.83215,0,0,0,0.33251,1500,0,6500,500,0,0,0,0
1551,1,11,10,12,0.075569,1,0,0,0.38373,1500,0,6500,500,0,0,0,0
1552,1,11,10,12,0.24206,1,0,0,0.40998,1500,0,6500,500,0,0,0,0
1553,1,12,10,12,0.9689,0,0,0,0.4447,1500,0,6500,500,0,0,0,0
1554,1,11,10,11,0.74168,0,0,0,0.37678,1500,0,6500,500,0,0,0,0
1555,1,12,10,12,0.7618,0,0,0,0.41089,1500,0,6500,500,0,0,0,0
1556,1,11,10,11,0.88642,0,0,0,0.47553,1500,0,6500,500,0,0,0,0
1557,1,11,10,11,0.76167,0,0,0,0.46355,1500,0,6500,500,0,0,0,0
1558,1,11,10,12,0.08262,1,0,0,0.35983,1500,0,6500,500,0,0,0,0
1559,1,12,10,12,0.61644,0,0,0,0.4917,1500,0,6500,500,0,0,0,0
1560,1,12,10,12,0.83423,0,0,0,0.40799,1500,0,6500,500,0,0,0,0
1561,1,11,10,11,0.85991,0,0,0,0.42204,1500,0,6500,500,0,0,0,0
1562,1,11,10,12,0.024587,1,0,0,0.31774,1500,0,6500,500,0,0,0,0
1563,1,12,10,12,0.20993,0,0,0,0.38177,1500,0,6500,500,0,0,0,0
1564,1,12,10,12,0.9621,0,0,0,0.41036,1500,0,6500,500,0,0,0,0
1565,1,12,10,12,0.65721,0,0,0,0.4216,1500,0,6500,500,0,0,0,0
1566,1,12,10,12,0.88662,0,0,0,0.49074,1500,0,6500,500,0,0,0,0
1567,1,12,10,12,0.7905,0,0,0,0.34021,1500,0,6500,500,0,0,0,0
1568,1,12,10,11,0.07716,1,0,0,0.47444,1500,0,6500,500,0,0,0,0
1569,1,11,10,11,0.88903,0,0,0,0.41712,1500,0,6500,500,0,0,0,0
1570,1,11,10,11,0.41574,0,0,0,0.37269,1500,0,6500,500,0,0,0,0
1571,1,11,10,11,0.90636,0,0,0,0.3995,1500,0,6500,500,0,0,0,0
1572,1,11,10,11,0.7772,0,0,0,0.31576,1500,0,6500,500,0,0,0,0
1573,1,11,10,11,0.57812,0,0,0,0.34755,1500,0,6500,500,0,0,0,0
1574,1,12,10,12,0.95566,0,0,0,0.35017,1500,0,6500,500,0,0,0,0
1575,1,11,10,11,0.31303,0,0,0,0.3558,1500,0,6500,500,0,0,0,0
1576,1,11,10,11,0.52886,0,0,0,0.38651,1500,0,6500,500,0,0,0,0
1577,1,11,10,11,0.85714,0,0,0,0.3908,1500,0,6500,500,0,0,0,0
1578,1,12,10,11,0.22523,1,0,0,0.42982,1500,0,6500,500,0,0,0,0
1579,1,12,10,12,0.82143,0,0,0,0.40131,1500,0,6500,500,0,0,0,0
1580,1,11,10,12,0.17574,1,0,0,0.37518,1500,0,6500,500,0,0,0,0
1581,1,12,10,12,0.86186,0,0,0,0.41281,1500,0,6500,500,0,0,0,0
1582,1,11,10,11,0.61951,0,0,0,0.45477,1500,0,6500,500,0,0,0,0
1583,1,12,10,12,0.957,0,0,0,0.41264,1500,0,6500,500,0,0,0,0
1584,1,11,10,12,0.30272,1,0,0,0.35934,1500,0,6500,500,0,0,0,0
1585,1,12,10,12,0.60609,0,0,0,0.43972,1500,0,6500,500,0,0,0,0
1586,1,11,10,11,0.9663,0,0,0,0.42324,1500,0,6500,500,0,0,0,0
1587,1,12,10,12,0.22422,0,0,0,0.41431,1500,0,6500,500,0,0,0,0
1588,1,12,10,12,0.72643,0,0,0,0.38613,1500,0,6500,500,0,0,0,0
1589,1,11,10,11,0.88932,0,0,0,0.45855,1500,0,6500,500,0,0,0,0
1590,1,11,10,12,0.29375,1,0,0,0.35589,1500,0,6500,500,0,0,0,0
