0,0.0,11.0,12.0,11.0,0.39,0.0,11500.0,500.0,400.0,1500.0,780.0,6500.0,500.0,0.0,-1.0,-1.0,0.0
1,0.0,12.0,12.0,12.0,0.7,0.0,20500.0,1380.0,400.0,1500.0,2200.0,6500.0,500.0,0.4,-1.0,-1.0,0.0
2,0.0,12.0,11.0,11.0,0.78,1.0,30380.0,1520.0,380.0,1500.0,420.0,6500.0,500.0,1.0,1.0,-1.0,0.0
3,0.0,11.0,12.0,12.0,0.67,1.0,40400.0,620.0,320.0,1500.0,1440.0,6500.0,500.0,0.6,1.0,-1.0,0.0
4,0.0,11.0,13.0,11.0,0.77,0.0,49520.0,840.0,360.0,1500.0,2340.0,6500.0,500.0,0.4,-1.0,-1.0,0.0
5,0.0,12.0,13.0,12.0,0.57,0.0,58860.0,1200.0,300.0,1500.0,440.0,6500.0,500.0,0.8,-1.0,-1.0,0.0
6,0.0,12.0,12.0,12.0,0.88,0.0,68560.0,1160.0,380.0,1500.0,560.0,6500.0,500.0,0.6,1.0,-1.0,0.0
7,0.0,11.0,12.0,11.0,0.75,0.0,78220.0,720.0,260.0,1500.0,480.0,6500.0,500.0,1.0,1.0,-1.0,0.0
8,0.0,12.0,11.0,12.0,0.82,0.0,87440.0,1020.0,280.0,1500.0,1640.0,6500.0,500.0,0.0,-1.0,-1.0,0.0
9,0.0,11.0,11.0,11.0,0.81,0.0,96960.0,880.0,300.0,1500.0,420.0,6500.0,500.0,0.6,1.0,-1.0,0.0
10,0.0,12.0,10.0,11.0,0.28,1.0,106340.0,1120.0,300.0,1500.0,1360.0,6500.0,500.0,0.4,-1.0,-1.0,0.0
11,0.0,11.0,11.0,12.0,0.19,1.0,115960.0,940.0,280.0,1500.0,1980.0,6500.0,500.0,0.8,-1.0,-1.0,0.0
12,1.0,11.0,12.0,11.0,0.67,0.0,129400.0,720.0,260.0,1500.0,640.0,6500.0,500.0,1.0,1.0,-1.0,0.0
13,1.0,12.0,13.0,12.0,0.83,0.0,138620.0,1200.0,300.0,1500.0,3260.0,6500.0,500.0,0.8,-1.0,-1.0,0.0
14,1.0,11.0,12.0,11.0,0.26,0.0,148320.0,500.0,400.0,1500.0,520.0,6500.0,500.0,0.0,-1.0,-1.0,0.0
15,1.0,12.0,11.0,12.0,0.41,0.0,157320.0,1020.0,280.0,1500.0,820.0,6500.0,500.0,0.0,-1.0,-1.0,0.0
16,1.0,12.0,10.0,11.0,0.03,1.0,166840.0,1120.0,300.0,1500.0,720.0,6500.0,500.0,0.4,-1.0,-1.0,0.0
17,1.0,11.0,11.0,12.0,0.49,1.0,176460.0,940.0,280.0,1500.0,600.0,6500.0,500.0,0.8,-1.0,-1.0,0.0
18,1.0,11.0,11.0,11.0,0.88,0.0,185900.0,880.0,300.0,1500.0,560.0,6500.0,500.0,0.6,1.0,-1.0,0.0
19,1.0,11.0,12.0,12.0,0.57,1.0,195280.0,620.0,320.0,1500.0,1640.0,6500.0,500.0,0.6,1.0,-1.0,0.0
20,1.0,12.0,11.0,11.0,0.14,1.0,204400.0,1520.0,380.0,1500.0,1700.0,6500.0,500.0,1.0,1.0,-1.0,0.0
21,1.0,12.0,12.0,12.0,0.43,0.0,214420.0,1380.0,400.0,1500.0,1660.0,6500.0,500.0,0.4,-1.0,-1.0,0.0
22,1.0,12.0,12.0,12.0,0.91,0.0,224300.0,1160.0,380.0,1500.0,620.0,6500.0,500.0,0.6,1.0,-1.0,0.0
23,1.0,11.0,13.0,11.0,0.72,0.0,233960.0,840.0,360.0,1500.0,2240.0,6500.0,500.0,0.4,-1.0,-1.0,0.0
24,0.0,12.0,12.0,12.0,0.74,0.0,247300.0,1420.0,640.0,1500.0,4280.0,6500.0,500.0,0.6,1.0,-1.0,6.0
25,0.0,12.0,12.0,12.0,0.81,0.0,257220.0,1460.0,300.0,1500.0,3220.0,6500.0,500.0,0.8,-1.0,-1.0,0.0
26,0.0,12.0,11.0,12.0,0.78,0.0,267180.0,1060.0,320.0,1500.0,1160.0,6500.0,500.0,0.2,1.0,-1.0,0.0
27,0.0,11.0,11.0,11.0,0.71,0.0,276740.0,980.0,460.0,1500.0,560.0,6500.0,500.0,1.0,1.0,-1.0,0.0
28,0.0,12.0,10.0,11.0,0.31,1.0,286220.0,1280.0,260.0,1500.0,620.0,6500.0,500.0,0.0,-1.0,-1.0,0.0
29,0.0,11.0,11.0,12.0,0.57,1.0,296000.0,660.0,280.0,1500.0,440.0,6500.0,500.0,0.8,-1.0,-1.0,0.0
30,0.0,11.0,12.0,11.0,0.73,0.0,305160.0,800.0,360.0,1500.0,1060.0,6500.0,500.0,0.2,1.0,-1.0,0.0
31,0.0,12.0,12.0,11.0,0.71,1.0,314460.0,1240.0,140.0,1500.0,560.0,6500.0,500.0,1.0,1.0,-1.0,0.0
32,0.0,11.0,13.0,12.0,0.14,1.0,324200.0,580.0,280.0,1500.0,500.0,6500.0,500.0,0.4,-1.0,-1.0,0.0
33,0.0,12.0,14.0,12.0,-1.0,0.0,333280.0,1340.0,580.0,1500.0,-20.0,6500.0,500.0,0.2,1.0,-1.0,6.0
34,0.0,11.0,14.0,12.0,0.32,1.0,343120.0,760.0,300.0,1500.0,640.0,6500.0,500.0,0.0,-1.0,-1.0,0.0
35,0.0,11.0,15.0,11.0,0.84,0.0,352380.0,540.0,320.0,1500.0,1280.0,6500.0,500.0,0.2,1.0,-1.0,0.0
36,1.0,11.0,11.0,11.0,0.74,0.0,365420.0,980.0,460.0,1500.0,500.0,6500.0,500.0,1.0,1.0,-1.0,0.0
37,1.0,11.0,15.0,11.0,0.43,0.0,374900.0,540.0,320.0,1500.0,460.0,6500.0,500.0,0.2,1.0,-1.0,0.0
38,1.0,11.0,14.0,12.0,0.23,1.0,383940.0,760.0,300.0,1500.0,460.0,6500.0,500.0,0.0,-1.0,-1.0,0.0
39,1.0,12.0,12.0,12.0,0.56,0.0,393200.0,1460.0,300.0,1500.0,460.0,6500.0,500.0,0.8,-1.0,-1.0,0.0
40,1.0,11.0,11.0,12.0,0.54,1.0,403160.0,660.0,280.0,1500.0,2680.0,6500.0,500.0,0.8,-1.0,-1.0,0.0
41,1.0,12.0,12.0,11.0,0.29,1.0,412320.0,1240.0,140.0,1500.0,1400.0,6500.0,500.0,1.0,1.0,-1.0,0.0
42,1.0,11.0,13.0,12.0,0.62,1.0,422060.0,580.0,280.0,1500.0,2040.0,6500.0,500.0,0.4,-1.0,-1.0,0.0
43,1.0,12.0,14.0,12.0,0.89,0.0,431140.0,1340.0,580.0,1500.0,1380.0,6500.0,500.0,0.2,1.0,-1.0,6.0
44,1.0,12.0,11.0,12.0,0.61,0.0,440980.0,1060.0,320.0,1500.0,820.0,6500.0,500.0,0.2,1.0,-1.0,0.0
45,1.0,11.0,12.0,11.0,0.58,0.0,450540.0,800.0,360.0,1500.0,760.0,6500.0,500.0,0.2,1.0,-1.0,0.0
46,1.0,12.0,10.0,11.0,0.27,1.0,459840.0,1280.0,260.0,1500.0,540.0,6500.0,500.0,0.0,-1.0,-1.0,0.0
47,1.0,12.0,12.0,12.0,0.93,0.0,469620.0,1420.0,640.0,1500.0,660.0,6500.0,500.0,0.6,1.0,-1.0,6.0
