0,0.0,11.0,24.0,11.0,0.9,0.0,11620.0,620.0,420.0,1500.0,4600.0,6500.0,500.0,0.6,1.0,-1.0,0.0
1,0.0,11.0,24.0,11.0,0.89,0.0,20740.0,980.0,340.0,1500.0,3780.0,6500.0,500.0,1.0,1.0,-1.0,0.0
2,0.0,11.0,23.0,11.0,0.88,0.0,30220.0,580.0,360.0,1500.0,2560.0,6500.0,500.0,0.4,-1.0,-1.0,0.0
3,0.0,12.0,23.0,11.0,0.06,1.0,39300.0,1380.0,540.0,1500.0,660.0,6500.0,500.0,0.4,-1.0,-1.0,6.0
4,0.0,12.0,24.0,12.0,0.88,0.0,49180.0,1160.0,340.0,1500.0,560.0,6500.0,500.0,0.6,1.0,-1.0,0.0
5,0.0,11.0,24.0,11.0,0.9,0.0,58840.0,840.0,360.0,1500.0,2600.0,6500.0,500.0,0.4,-1.0,-1.0,0.0
6,0.0,11.0,23.0,11.0,0.92,0.0,68180.0,940.0,380.0,1500.0,3440.0,6500.0,500.0,0.8,-1.0,-1.0,0.0
7,0.0,12.0,23.0,11.0,0.24,1.0,77620.0,1120.0,380.0,1500.0,1280.0,6500.0,500.0,0.4,-1.0,-1.0,0.0
8,0.0,11.0,24.0,11.0,0.84,0.0,87240.0,800.0,300.0,1500.0,1280.0,6500.0,500.0,0.2,1.0,-1.0,0.0
9,0.0,11.0,24.0,11.0,0.86,0.0,96540.0,540.0,400.0,1500.0,1320.0,6500.0,500.0,0.2,1.0,-1.0,0.0
10,0.0,11.0,23.0,11.0,0.28,0.0,105580.0,760.0,540.0,1500.0,560.0,6500.0,500.0,0.0,-1.0,-1.0,6.0
11,0.0,11.0,23.0,11.0,0.9,0.0,114840.0,720.0,340.0,1500.0,3800.0,6500.0,500.0,1.0,1.0,-1.0,0.0
12,1.0,11.0,24.0,11.0,0.96,0.0,128060.0,620.0,420.0,1500.0,4720.0,6500.0,500.0,0.6,1.0,-1.0,0.0
13,1.0,11.0,23.0,11.0,0.83,0.0,137180.0,580.0,360.0,1500.0,2460.0,6500.0,500.0,0.4,-1.0,-1.0,0.0
14,1.0,11.0,23.0,11.0,0.83,0.0,146260.0,760.0,540.0,1500.0,1660.0,6500.0,500.0,0.0,-1.0,-1.0,6.0
15,1.0,11.0,23.0,11.0,0.98,0.0,155520.0,720.0,340.0,1500.0,3960.0,6500.0,500.0,1.0,1.0,-1.0,0.0
16,1.0,12.0,24.0,12.0,0.93,0.0,164740.0,1160.0,340.0,1500.0,660.0,6500.0,500.0,0.6,1.0,-1.0,0.0
17,1.0,12.0,23.0,11.0,0.05,1.0,174400.0,1120.0,380.0,1500.0,680.0,6500.0,500.0,0.4,-1.0,-1.0,0.0
18,1.0,11.0,24.0,11.0,0.89,0.0,184020.0,980.0,340.0,1500.0,3780.0,6500.0,500.0,1.0,1.0,-1.0,0.0
19,1.0,11.0,24.0,11.0,0.9,0.0,193500.0,800.0,300.0,1500.0,1400.0,6500.0,500.0,0.2,1.0,-1.0,0.0
20,1.0,11.0,23.0,11.0,0.9,0.0,202800.0,940.0,380.0,1500.0,3400.0,6500.0,500.0,0.8,-1.0,-1.0,0.0
21,1.0,12.0,23.0,11.0,0.06,1.0,212240.0,1380.0,540.0,1500.0,660.0,6500.0,500.0,0.4,-1.0,-1.0,6.0
22,1.0,11.0,24.0,11.0,0.9,0.0,222120.0,840.0,360.0,1500.0,2600.0,6500.0,500.0,0.4,-1.0,-1.0,0.0
23,1.0,11.0,24.0,11.0,0.9,0.0,231460.0,540.0,400.0,1500.0,1400.0,6500.0,500.0,0.2,1.0,-1.0,0.0
24,0.0,12.0,22.0,11.0,0.02,1.0,244500.0,1340.0,400.0,1500.0,3540.0,6500.0,500.0,0.2,1.0,-1.0,0.0
25,0.0,12.0,23.0,12.0,0.86,0.0,254340.0,1240.0,380.0,1500.0,3720.0,6500.0,500.0,1.0,1.0,-1.0,0.0
26,0.0,12.0,23.0,11.0,0.11,1.0,264080.0,1420.0,360.0,1500.0,2560.0,6500.0,500.0,0.6,1.0,-1.0,0.0
27,0.0,12.0,24.0,12.0,0.95,0.0,274000.0,1280.0,440.0,1500.0,5900.0,6500.0,500.0,0.0,-1.0,-1.0,0.0
28,0.0,12.0,24.0,11.0,0.15,1.0,283780.0,1460.0,460.0,1500.0,1280.0,6500.0,500.0,0.8,-1.0,-1.0,0.0
29,0.0,11.0,25.0,11.0,0.09,0.0,293740.0,500.0,520.0,1500.0,3800.0,6500.0,500.0,0.0,-1.0,-1.0,6.0
30,0.0,11.0,25.0,11.0,0.89,0.0,302740.0,880.0,340.0,1500.0,580.0,6500.0,500.0,0.6,1.0,-1.0,0.0
31,0.0,12.0,24.0,11.0,0.24,1.0,312120.0,1200.0,360.0,1500.0,1100.0,6500.0,500.0,0.8,-1.0,-1.0,0.0
32,0.0,12.0,25.0,11.0,0.1,1.0,321820.0,1060.0,300.0,1500.0,3380.0,6500.0,500.0,0.2,1.0,-1.0,0.0
33,0.0,12.0,26.0,11.0,0.1,1.0,331380.0,1020.0,440.0,1500.0,3780.0,6500.0,500.0,0.0,-1.0,-1.0,0.0
34,0.0,12.0,27.0,12.0,0.9,0.0,340900.0,1520.0,360.0,1500.0,3800.0,6500.0,500.0,1.0,1.0,-1.0,0.0
35,0.0,11.0,27.0,11.0,0.83,0.0,350920.0,660.0,380.0,1500.0,3260.0,6500.0,500.0,0.8,-1.0,-1.0,0.0
36,1.0,12.0,25.0,11.0,0.13,1.0,364080.0,1060.0,300.0,1500.0,3320.0,6500.0,500.0,0.2,1.0,-1.0,0.0
37,1.0,11.0,27.0,11.0,0.88,0.0,373640.0,660.0,380.0,1500.0,3360.0,6500.0,500.0,0.8,-1.0,-1.0,0.0
38,1.0,12.0,26.0,11.0,0.04,1.0,382800.0,1020.0,440.0,1500.0,4080.0,6500.0,500.0,0.0,-1.0,-1.0,0.0
39,1.0,12.0,27.0,12.0,0.97,0.0,392320.0,1520.0,360.0,1500.0,4060.0,6500.0,500.0,1.0,1.0,-1.0,0.0
40,1.0,12.0,22.0,11.0,0.07,1.0,402340.0,1340.0,400.0,1500.0,3440.0,6500.0,500.0,0.2,1.0,-1.0,0.0
41,1.0,12.0,23.0,12.0,0.86,0.0,412180.0,1240.0,380.0,1500.0,3720.0,6500.0,500.0,1.0,1.0,-1.0,0.0
42,1.0,11.0,25.0,11.0,0.91,0.0,421920.0,500.0,520.0,1500.0,1820.0,6500.0,500.0,0.0,-1.0,-1.0,6.0
43,1.0,11.0,25.0,11.0,0.94,0.0,430920.0,880.0,340.0,1500.0,680.0,6500.0,500.0,0.6,1.0,-1.0,0.0
44,1.0,12.0,24.0,12.0,0.91,0.0,440300.0,1280.0,440.0,1500.0,1820.0,6500.0,500.0,0.0,-1.0,-1.0,0.0
45,1.0,12.0,24.0,11.0,0.12,1.0,450080.0,1460.0,460.0,1500.0,1340.0,6500.0,500.0,0.8,-1.0,-1.0,0.0
46,1.0,12.0,24.0,11.0,0.12,1.0,460040.0,1200.0,360.0,1500.0,1340.0,6500.0,500.0,0.8,-1.0,-1.0,0.0
47,1.0,12.0,23.0,11.0,0.93,1.0,469740.0,1420.0,360.0,1500.0,660.0,6500.0,500.0,0.6,1.0,-1.0,0.0
