0,0.0,12.0,15.0,12.0,0.8,0.0,12520.0,1520.0,340.0,1500.0,3600.0,6500.0,500.0,1.0,1.0,-1.0,0.0
1,0.0,12.0,15.0,12.0,0.8,0.0,22540.0,1120.0,300.0,1500.0,2400.0,6500.0,500.0,0.4,-1.0,-1.0,0.0
2,0.0,11.0,14.0,11.0,0.76,0.0,32160.0,660.0,460.0,1500.0,3120.0,6500.0,500.0,0.8,-1.0,-1.0,0.0
3,0.0,12.0,14.0,12.0,0.84,0.0,41320.0,1200.0,380.0,1500.0,3280.0,6500.0,500.0,0.8,-1.0,-1.0,0.0
4,0.0,12.0,13.0,12.0,0.94,0.0,51020.0,1420.0,400.0,1500.0,680.0,6500.0,500.0,0.6,1.0,-1.0,0.0
5,0.0,11.0,13.0,12.0,0.26,1.0,60940.0,620.0,440.0,1500.0,2260.0,6500.0,500.0,0.6,1.0,-1.0,0.0
6,0.0,12.0,14.0,12.0,0.58,0.0,70060.0,1280.0,380.0,1500.0,2820.0,6500.0,500.0,0.0,-1.0,-1.0,0.0
7,0.0,11.0,14.0,12.0,0.0,1.0,79840.0,500.0,300.0,1500.0,3980.0,6500.0,500.0,0.0,-1.0,-1.0,0.0
8,0.0,11.0,15.0,12.0,0.06,1.0,88840.0,800.0,380.0,1500.0,3460.0,6500.0,500.0,0.2,1.0,-1.0,0.0
9,0.0,12.0,16.0,12.0,0.85,0.0,98140.0,1060.0,400.0,1500.0,1300.0,6500.0,500.0,0.2,1.0,-1.0,0.0
10,0.0,12.0,16.0,12.0,0.91,0.0,107700.0,1380.0,360.0,1500.0,2620.0,6500.0,500.0,0.4,-1.0,-1.0,0.0
11,0.0,11.0,15.0,12.0,0.46,1.0,117580.0,720.0,400.0,1500.0,1060.0,6500.0,500.0,1.0,1.0,-1.0,0.0
12,1.0,12.0,16.0,12.0,0.55,0.0,130800.0,1380.0,360.0,1500.0,1900.0,6500.0,500.0,0.4,-1.0,-1.0,0.0
13,1.0,11.0,15.0,12.0,0.0,1.0,140680.0,800.0,380.0,1500.0,3580.0,6500.0,500.0,0.2,1.0,-1.0,0.0
14,1.0,12.0,16.0,12.0,0.91,0.0,149980.0,1060.0,400.0,1500.0,1420.0,6500.0,500.0,0.2,1.0,-1.0,0.0
15,1.0,11.0,13.0,12.0,0.28,1.0,159540.0,620.0,440.0,1500.0,2220.0,6500.0,500.0,0.6,1.0,-1.0,0.0
16,1.0,11.0,15.0,12.0,0.01,1.0,168660.0,720.0,400.0,1500.0,2020.0,6500.0,500.0,1.0,1.0,-1.0,0.0
17,1.0,12.0,14.0,12.0,0.92,0.0,177880.0,1280.0,380.0,1500.0,1840.0,6500.0,500.0,0.0,-1.0,-1.0,0.0
18,1.0,12.0,15.0,12.0,0.8,0.0,187660.0,1120.0,300.0,1500.0,2400.0,6500.0,500.0,0.4,-1.0,-1.0,0.0
19,1.0,12.0,13.0,12.0,0.67,0.0,197280.0,1420.0,400.0,1500.0,1440.0,6500.0,500.0,0.6,1.0,-1.0,0.0
20,1.0,12.0,14.0,12.0,0.77,0.0,207200.0,1200.0,380.0,1500.0,3140.0,6500.0,500.0,0.8,-1.0,-1.0,0.0
21,1.0,12.0,15.0,12.0,0.87,0.0,216900.0,1520.0,340.0,1500.0,3740.0,6500.0,500.0,1.0,1.0,-1.0,0.0
22,1.0,11.0,14.0,11.0,0.89,0.0,226920.0,660.0,460.0,1500.0,3380.0,6500.0,500.0,0.8,-1.0,-1.0,0.0
23,1.0,11.0,14.0,12.0,0.01,1.0,236080.0,500.0,300.0,1500.0,3960.0,6500.0,500.0,0.0,-1.0,-1.0,0.0
24,0.0,11.0,16.0,12.0,0.12,1.0,249080.0,540.0,500.0,1500.0,3340.0,6500.0,500.0,0.2,1.0,-1.0,0.0
25,0.0,11.0,17.0,11.0,0.49,0.0,258120.0,580.0,920.0,1500.0,1780.0,6500.0,500.0,0.4,-1.0,-1.0,6.0
26,0.0,11.0,17.0,11.0,0.51,0.0,267200.0,940.0,400.0,1500.0,560.0,6500.0,500.0,0.8,-1.0,-1.0,0.0
27,0.0,12.0,16.0,12.0,0.88,0.0,276640.0,1340.0,380.0,1500.0,1360.0,6500.0,500.0,0.2,1.0,-1.0,0.0
28,0.0,11.0,16.0,12.0,0.26,1.0,286480.0,980.0,320.0,1500.0,1460.0,6500.0,500.0,1.0,1.0,-1.0,0.0
29,0.0,11.0,17.0,11.0,0.89,0.0,295960.0,840.0,340.0,1500.0,2580.0,6500.0,500.0,0.4,-1.0,-1.0,0.0
30,0.0,12.0,17.0,12.0,0.83,0.0,305300.0,1020.0,360.0,1500.0,1660.0,6500.0,500.0,0.0,-1.0,-1.0,0.0
31,0.0,11.0,16.0,12.0,0.0,1.0,314820.0,760.0,360.0,1500.0,3980.0,6500.0,500.0,0.0,-1.0,-1.0,0.0
32,0.0,12.0,17.0,12.0,0.88,0.0,324080.0,1460.0,320.0,1500.0,3360.0,6500.0,500.0,0.8,-1.0,-1.0,0.0
33,0.0,12.0,17.0,12.0,0.59,0.0,334040.0,1160.0,280.0,1500.0,1600.0,6500.0,500.0,0.6,1.0,-1.0,0.0
34,0.0,11.0,16.0,11.0,0.78,0.0,343700.0,880.0,540.0,1500.0,1220.0,6500.0,500.0,0.6,1.0,-1.0,6.0
35,0.0,12.0,16.0,12.0,0.67,0.0,353080.0,1240.0,440.0,1500.0,640.0,6500.0,500.0,1.0,1.0,-1.0,0.0
36,1.0,12.0,16.0,12.0,0.88,0.0,366820.0,1340.0,380.0,1500.0,1360.0,6500.0,500.0,0.2,1.0,-1.0,0.0
37,1.0,11.0,17.0,11.0,0.98,0.0,376660.0,940.0,400.0,1500.0,3560.0,6500.0,500.0,0.8,-1.0,-1.0,0.0
38,1.0,11.0,16.0,11.0,0.91,0.0,386100.0,880.0,540.0,1500.0,620.0,6500.0,500.0,0.6,1.0,-1.0,6.0
39,1.0,12.0,17.0,12.0,0.97,0.0,395480.0,1460.0,320.0,1500.0,3540.0,6500.0,500.0,0.8,-1.0,-1.0,0.0
40,1.0,11.0,17.0,11.0,0.92,0.0,405440.0,840.0,340.0,1500.0,2640.0,6500.0,500.0,0.4,-1.0,-1.0,0.0
41,1.0,12.0,16.0,12.0,0.66,0.0,414780.0,1240.0,440.0,1500.0,3320.0,6500.0,500.0,1.0,1.0,-1.0,0.0
42,1.0,11.0,16.0,12.0,0.32,1.0,424520.0,980.0,320.0,1500.0,1340.0,6500.0,500.0,1.0,1.0,-1.0,0.0
43,1.0,11.0,16.0,12.0,0.15,1.0,434000.0,540.0,500.0,1500.0,3280.0,6500.0,500.0,0.2,1.0,-1.0,0.0
44,1.0,11.0,17.0,11.0,0.95,0.0,443040.0,580.0,920.0,1500.0,2700.0,6500.0,500.0,0.4,-1.0,-1.0,6.0
45,1.0,11.0,16.0,12.0,0.01,1.0,452120.0,760.0,360.0,1500.0,3960.0,6500.0,500.0,0.0,-1.0,-1.0,0.0
46,1.0,12.0,17.0,12.0,0.94,0.0,461380.0,1020.0,360.0,1500.0,1880.0,6500.0,500.0,0.0,-1.0,-1.0,0.0
47,1.0,12.0,17.0,12.0,0.88,0.0,470900.0,1160.0,280.0,1500.0,4560.0,6500.0,500.0,0.6,1.0,-1.0,0.0
