0,0.0,11.0,12.0,11.0,0.31,0.0,11980.0,980.0,400.0,1500.0,1360.0,6500.0,500.0,1.0,1.0,-1.0,0.0
1,0.0,12.0,12.0,12.0,0.97,0.0,21460.0,1380.0,480.0,1500.0,2740.0,6500.0,500.0,0.4,-1.0,-1.0,0.0
2,0.0,11.0,11.0,11.0,0.5,0.0,31340.0,880.0,500.0,1500.0,1780.0,6500.0,500.0,0.6,1.0,-1.0,0.0
3,0.0,12.0,11.0,12.0,0.75,0.0,40720.0,1460.0,380.0,1500.0,3100.0,6500.0,500.0,0.8,-1.0,-1.0,0.0
4,0.0,11.0,10.0,11.0,0.48,0.0,50680.0,620.0,380.0,1500.0,1820.0,6500.0,500.0,0.6,1.0,-1.0,0.0
5,0.0,12.0,10.0,11.0,0.23,1.0,59800.0,1280.0,400.0,1500.0,3520.0,6500.0,500.0,0.0,-1.0,-1.0,0.0
6,0.0,12.0,11.0,11.0,0.53,1.0,69580.0,1240.0,360.0,1500.0,3060.0,6500.0,500.0,1.0,1.0,-1.0,0.0
7,0.0,12.0,12.0,12.0,0.27,0.0,79320.0,1520.0,460.0,1500.0,2540.0,6500.0,500.0,1.0,1.0,-1.0,0.0
8,0.0,12.0,12.0,12.0,0.7,0.0,89340.0,1120.0,580.0,1500.0,2200.0,6500.0,500.0,0.4,-1.0,-1.0,6.0
9,0.0,11.0,11.0,12.0,0.49,1.0,98960.0,760.0,520.0,1500.0,980.0,6500.0,500.0,0.0,-1.0,-1.0,6.0
10,0.0,11.0,12.0,11.0,0.74,0.0,108220.0,500.0,480.0,1500.0,1480.0,6500.0,500.0,0.0,-1.0,-1.0,0.0
11,0.0,11.0,12.0,11.0,0.88,0.0,117220.0,840.0,460.0,1500.0,2560.0,6500.0,500.0,0.4,-1.0,-1.0,0.0
12,1.0,12.0,12.0,12.0,0.83,0.0,130560.0,1380.0,480.0,1500.0,2460.0,6500.0,500.0,0.4,-1.0,-1.0,0.0
13,1.0,11.0,12.0,11.0,0.98,0.0,140440.0,980.0,400.0,1500.0,3960.0,6500.0,500.0,1.0,1.0,-1.0,0.0
14,1.0,12.0,12.0,12.0,0.86,0.0,149920.0,1120.0,580.0,1500.0,2520.0,6500.0,500.0,0.4,-1.0,-1.0,6.0
15,1.0,11.0,11.0,12.0,0.3,1.0,159540.0,760.0,520.0,1500.0,600.0,6500.0,500.0,0.0,-1.0,-1.0,6.0
16,1.0,12.0,11.0,12.0,0.79,0.0,168800.0,1460.0,380.0,1500.0,3180.0,6500.0,500.0,0.8,-1.0,-1.0,0.0
17,1.0,11.0,12.0,11.0,0.47,0.0,178760.0,500.0,480.0,1500.0,3040.0,6500.0,500.0,0.0,-1.0,-1.0,0.0
18,1.0,11.0,12.0,11.0,0.87,0.0,187760.0,840.0,460.0,1500.0,2540.0,6500.0,500.0,0.4,-1.0,-1.0,0.0
19,1.0,11.0,11.0,11.0,0.47,0.0,197100.0,880.0,500.0,1500.0,1840.0,6500.0,500.0,0.6,1.0,-1.0,0.0
20,1.0,12.0,11.0,11.0,0.46,1.0,206480.0,1240.0,360.0,1500.0,1060.0,6500.0,500.0,1.0,1.0,-1.0,0.0
21,1.0,12.0,12.0,12.0,0.99,0.0,216220.0,1520.0,460.0,1500.0,3980.0,6500.0,500.0,1.0,1.0,-1.0,0.0
22,1.0,11.0,10.0,11.0,0.86,0.0,226240.0,620.0,380.0,1500.0,4520.0,6500.0,500.0,0.6,1.0,-1.0,0.0
23,1.0,12.0,10.0,11.0,0.87,1.0,235360.0,1280.0,400.0,1500.0,1740.0,6500.0,500.0,0.0,-1.0,-1.0,0.0
24,0.0,11.0,11.0,12.0,0.12,1.0,249140.0,580.0,440.0,1500.0,540.0,6500.0,500.0,0.4,-1.0,-1.0,0.0
25,0.0,11.0,12.0,11.0,0.89,0.0,258220.0,940.0,480.0,1500.0,3380.0,6500.0,500.0,0.8,-1.0,-1.0,0.0
26,0.0,12.0,12.0,12.0,0.91,0.0,267660.0,1340.0,440.0,1500.0,1420.0,6500.0,500.0,0.2,1.0,-1.0,0.0
27,0.0,12.0,11.0,12.0,0.89,0.0,277500.0,1020.0,640.0,1500.0,1780.0,6500.0,500.0,0.0,-1.0,-1.0,6.0
28,0.0,12.0,11.0,12.0,0.87,0.0,287020.0,1200.0,360.0,1500.0,3340.0,6500.0,500.0,0.8,-1.0,-1.0,0.0
29,0.0,11.0,10.0,12.0,0.43,1.0,296720.0,800.0,340.0,1500.0,460.0,6500.0,500.0,0.2,1.0,-1.0,0.0
30,0.0,11.0,11.0,12.0,0.41,1.0,306020.0,540.0,480.0,1500.0,420.0,6500.0,500.0,0.2,1.0,-1.0,0.0
31,0.0,12.0,12.0,12.0,0.49,0.0,315060.0,1420.0,400.0,1500.0,1800.0,6500.0,500.0,0.6,1.0,-1.0,0.0
32,0.0,11.0,12.0,12.0,0.03,1.0,324980.0,660.0,400.0,1500.0,1520.0,6500.0,500.0,0.8,-1.0,-1.0,0.0
33,0.0,12.0,13.0,12.0,0.25,0.0,334140.0,1060.0,460.0,1500.0,3080.0,6500.0,500.0,0.2,1.0,-1.0,0.0
34,0.0,11.0,13.0,11.0,0.75,0.0,343700.0,720.0,440.0,1500.0,3500.0,6500.0,500.0,1.0,1.0,-1.0,0.0
35,0.0,12.0,12.0,12.0,0.87,0.0,352920.0,1160.0,420.0,1500.0,4540.0,6500.0,500.0,0.6,1.0,-1.0,0.0
36,1.0,11.0,10.0,12.0,0.02,1.0,366580.0,800.0,340.0,1500.0,3540.0,6500.0,500.0,0.2,1.0,-1.0,0.0
37,1.0,12.0,11.0,12.0,0.29,0.0,375880.0,1200.0,360.0,1500.0,2180.0,6500.0,500.0,0.8,-1.0,-1.0,0.0
38,1.0,11.0,12.0,12.0,0.01,1.0,385580.0,660.0,400.0,1500.0,1560.0,6500.0,500.0,0.8,-1.0,-1.0,0.0
39,1.0,11.0,12.0,11.0,0.74,0.0,394740.0,940.0,480.0,1500.0,3080.0,6500.0,500.0,0.8,-1.0,-1.0,0.0
40,1.0,12.0,11.0,12.0,0.47,0.0,404180.0,1020.0,640.0,1500.0,3040.0,6500.0,500.0,0.0,-1.0,-1.0,6.0
41,1.0,12.0,13.0,12.0,0.48,0.0,413700.0,1060.0,460.0,1500.0,4560.0,6500.0,500.0,0.2,1.0,-1.0,0.0
42,1.0,11.0,13.0,11.0,0.85,0.0,423260.0,720.0,440.0,1500.0,3700.0,6500.0,500.0,1.0,1.0,-1.0,0.0
43,1.0,11.0,11.0,12.0,0.02,1.0,432480.0,540.0,480.0,1500.0,3540.0,6500.0,500.0,0.2,1.0,-1.0,0.0
44,1.0,12.0,12.0,12.0,0.14,0.0,441520.0,1420.0,400.0,1500.0,2500.0,6500.0,500.0,0.6,1.0,-1.0,0.0
45,1.0,12.0,12.0,12.0,0.28,0.0,451440.0,1340.0,440.0,1500.0,3020.0,6500.0,500.0,0.2,1.0,-1.0,0.0
46,1.0,12.0,12.0,12.0,0.78,0.0,461280.0,1160.0,420.0,1500.0,1220.0,6500.0,500.0,0.6,1.0,-1.0,0.0
47,1.0,11.0,11.0,12.0,0.02,1.0,470940.0,580.0,440.0,1500.0,4740.0,6500.0,500.0,0.4,-1.0,-1.0,0.0
