0,0.0,12.0,16.0,11.0,0.44,1.0,12020.0,1020.0,380.0,1500.0,3100.0,6500.0,500.0,0.0,-1.0,-1.0,0.0
1,0.0,11.0,17.0,12.0,0.26,1.0,21540.0,580.0,340.0,1500.0,1320.0,6500.0,500.0,0.4,-1.0,-1.0,0.0
2,0.0,11.0,18.0,11.0,0.66,0.0,30620.0,980.0,420.0,1500.0,660.0,6500.0,500.0,1.0,1.0,-1.0,0.0
3,0.0,11.0,18.0,12.0,0.46,1.0,40100.0,800.0,320.0,1500.0,2660.0,6500.0,500.0,0.2,1.0,-1.0,0.0
4,0.0,12.0,19.0,12.0,0.88,0.0,49400.0,1420.0,400.0,1500.0,560.0,6500.0,500.0,0.6,1.0,-1.0,0.0
5,0.0,12.0,19.0,12.0,0.78,0.0,59320.0,1200.0,480.0,1500.0,3160.0,6500.0,500.0,0.8,-1.0,-1.0,0.0
6,0.0,11.0,18.0,11.0,0.7,0.0,69020.0,660.0,340.0,1500.0,3000.0,6500.0,500.0,0.8,-1.0,-1.0,0.0
7,0.0,12.0,18.0,12.0,0.55,0.0,78180.0,1520.0,380.0,1500.0,880.0,6500.0,500.0,1.0,1.0,-1.0,0.0
8,0.0,11.0,17.0,11.0,0.39,0.0,88200.0,940.0,360.0,1500.0,800.0,6500.0,500.0,0.8,-1.0,-1.0,0.0
9,0.0,12.0,17.0,12.0,0.52,0.0,97640.0,1240.0,420.0,1500.0,940.0,6500.0,500.0,1.0,1.0,-1.0,0.0
10,0.0,11.0,16.0,11.0,0.67,0.0,107380.0,760.0,460.0,1500.0,1340.0,6500.0,500.0,0.0,-1.0,-1.0,0.0
11,0.0,11.0,16.0,11.0,0.65,0.0,116640.0,620.0,400.0,1500.0,1480.0,6500.0,500.0,0.6,1.0,-1.0,0.0
12,1.0,11.0,16.0,11.0,0.62,0.0,129760.0,760.0,460.0,1500.0,2740.0,6500.0,500.0,0.0,-1.0,-1.0,0.0
13,1.0,12.0,17.0,12.0,0.81,0.0,139020.0,1240.0,420.0,1500.0,3620.0,6500.0,500.0,1.0,1.0,-1.0,0.0
14,1.0,11.0,18.0,11.0,0.77,0.0,148760.0,660.0,340.0,1500.0,3140.0,6500.0,500.0,0.8,-1.0,-1.0,0.0
15,1.0,11.0,17.0,11.0,0.46,0.0,157920.0,940.0,360.0,1500.0,660.0,6500.0,500.0,0.8,-1.0,-1.0,0.0
16,1.0,12.0,16.0,11.0,0.18,1.0,167360.0,1020.0,380.0,1500.0,3620.0,6500.0,500.0,0.0,-1.0,-1.0,0.0
17,1.0,11.0,16.0,11.0,0.74,0.0,176880.0,620.0,400.0,1500.0,1300.0,6500.0,500.0,0.6,1.0,-1.0,0.0
18,1.0,11.0,18.0,12.0,0.31,1.0,186000.0,800.0,320.0,1500.0,2960.0,6500.0,500.0,0.2,1.0,-1.0,0.0
19,1.0,12.0,19.0,12.0,0.6,0.0,195300.0,1200.0,480.0,1500.0,2800.0,6500.0,500.0,0.8,-1.0,-1.0,0.0
20,1.0,11.0,18.0,11.0,0.46,0.0,205000.0,980.0,420.0,1500.0,1060.0,6500.0,500.0,1.0,1.0,-1.0,0.0
21,1.0,11.0,17.0,12.0,0.32,1.0,214480.0,580.0,340.0,1500.0,4140.0,6500.0,500.0,0.4,-1.0,-1.0,0.0
22,1.0,12.0,18.0,12.0,0.71,0.0,223560.0,1520.0,380.0,1500.0,3420.0,6500.0,500.0,1.0,1.0,-1.0,0.0
23,1.0,12.0,19.0,12.0,0.73,0.0,233580.0,1420.0,400.0,1500.0,1320.0,6500.0,500.0,0.6,1.0,-1.0,0.0
24,0.0,12.0,15.0,12.0,0.64,0.0,247500.0,1380.0,300.0,1500.0,2080.0,6500.0,500.0,0.4,-1.0,-1.0,0.0
25,0.0,12.0,15.0,11.0,0.39,1.0,257380.0,1060.0,720.0,1500.0,2800.0,6500.0,500.0,0.2,1.0,-1.0,6.0
26,0.0,11.0,16.0,11.0,0.74,0.0,266940.0,540.0,400.0,1500.0,1080.0,6500.0,500.0,0.2,1.0,-1.0,0.0
27,0.0,12.0,16.0,12.0,0.6,0.0,275980.0,1120.0,400.0,1500.0,2000.0,6500.0,500.0,0.4,-1.0,-1.0,0.0
28,0.0,11.0,15.0,11.0,0.53,0.0,285600.0,840.0,500.0,1500.0,1860.0,6500.0,500.0,0.4,-1.0,-1.0,0.0
29,0.0,11.0,15.0,11.0,0.63,0.0,294940.0,720.0,360.0,1500.0,720.0,6500.0,500.0,1.0,1.0,-1.0,0.0
30,0.0,12.0,14.0,12.0,0.79,0.0,304160.0,1460.0,440.0,1500.0,3180.0,6500.0,500.0,0.8,-1.0,-1.0,0.0
31,0.0,12.0,14.0,12.0,0.52,0.0,314120.0,1280.0,520.0,1500.0,1040.0,6500.0,500.0,0.0,-1.0,-1.0,6.0
32,0.0,12.0,13.0,12.0,0.68,0.0,323900.0,1340.0,380.0,1500.0,2220.0,6500.0,500.0,0.2,1.0,-1.0,0.0
33,0.0,11.0,13.0,11.0,0.56,0.0,333740.0,500.0,440.0,1500.0,2860.0,6500.0,500.0,0.0,-1.0,-1.0,0.0
34,0.0,12.0,12.0,12.0,0.14,0.0,342740.0,1160.0,640.0,1500.0,2500.0,6500.0,500.0,0.6,1.0,-1.0,6.0
35,0.0,11.0,12.0,11.0,0.5,0.0,352400.0,880.0,360.0,1500.0,1780.0,6500.0,500.0,0.6,1.0,-1.0,0.0
36,1.0,12.0,12.0,12.0,0.69,0.0,365780.0,1160.0,640.0,1500.0,4180.0,6500.0,500.0,0.6,1.0,-1.0,6.0
37,1.0,12.0,16.0,12.0,0.51,0.0,375440.0,1120.0,400.0,1500.0,1820.0,6500.0,500.0,0.4,-1.0,-1.0,0.0
38,1.0,12.0,15.0,11.0,0.31,1.0,385060.0,1060.0,720.0,1500.0,2960.0,6500.0,500.0,0.2,1.0,-1.0,6.0
39,1.0,11.0,15.0,11.0,0.49,0.0,394620.0,840.0,500.0,1500.0,1780.0,6500.0,500.0,0.4,-1.0,-1.0,0.0
40,1.0,12.0,13.0,12.0,0.8,0.0,403960.0,1340.0,380.0,1500.0,1200.0,6500.0,500.0,0.2,1.0,-1.0,0.0
41,1.0,11.0,13.0,11.0,0.6,0.0,413800.0,500.0,440.0,1500.0,1200.0,6500.0,500.0,0.0,-1.0,-1.0,0.0
42,1.0,12.0,15.0,12.0,0.74,0.0,422800.0,1380.0,300.0,1500.0,2280.0,6500.0,500.0,0.4,-1.0,-1.0,0.0
43,1.0,11.0,16.0,11.0,0.69,0.0,432680.0,540.0,400.0,1500.0,980.0,6500.0,500.0,0.2,1.0,-1.0,0.0
44,1.0,12.0,14.0,12.0,0.54,0.0,441720.0,1460.0,440.0,1500.0,2680.0,6500.0,500.0,0.8,-1.0,-1.0,0.0
45,1.0,11.0,12.0,11.0,0.28,0.0,451680.0,880.0,360.0,1500.0,2220.0,6500.0,500.0,0.6,1.0,-1.0,0.0
46,1.0,12.0,14.0,12.0,0.73,0.0,461060.0,1280.0,520.0,1500.0,1460.0,6500.0,500.0,0.0,-1.0,-1.0,6.0
47,1.0,11.0,15.0,11.0,0.48,0.0,470840.0,720.0,360.0,1500.0,1020.0,6500.0,500.0,1.0,1.0,-1.0,0.0
