0,0.0,12.0,12.0,12.0,0.88,0.0,12060.0,1060.0,320.0,1500.0,1360.0,6500.0,500.0,0.2,1.0,-1.0,0.0
1,0.0,12.0,12.0,12.0,0.71,0.0,21620.0,1340.0,340.0,1500.0,1020.0,6500.0,500.0,0.2,1.0,-1.0,0.0
2,0.0,12.0,11.0,12.0,0.83,0.0,31460.0,1160.0,400.0,1500.0,4460.0,6500.0,500.0,0.6,1.0,-1.0,0.0
3,0.0,11.0,11.0,11.0,0.59,0.0,41120.0,660.0,480.0,1500.0,2780.0,6500.0,500.0,0.8,-1.0,-1.0,0.0
4,0.0,11.0,10.0,11.0,0.83,0.0,50280.0,620.0,360.0,1500.0,460.0,6500.0,500.0,0.6,1.0,-1.0,0.0
5,0.0,12.0,10.0,12.0,0.79,0.0,59400.0,1020.0,340.0,1500.0,1580.0,6500.0,500.0,0.0,-1.0,-1.0,0.0
6,0.0,11.0,9.0,11.0,0.6,0.0,68920.0,940.0,340.0,1500.0,2800.0,6500.0,500.0,0.8,-1.0,-1.0,0.0
7,0.0,12.0,9.0,12.0,0.82,0.0,78360.0,1420.0,320.0,1500.0,1140.0,6500.0,500.0,0.6,1.0,-1.0,0.0
8,0.0,12.0,8.0,12.0,0.76,0.0,88280.0,1280.0,340.0,1500.0,1520.0,6500.0,500.0,0.0,-1.0,-1.0,0.0
9,0.0,12.0,8.0,12.0,0.8,0.0,98060.0,1460.0,320.0,1500.0,3200.0,6500.0,500.0,0.8,-1.0,-1.0,0.0
10,0.0,11.0,7.0,12.0,0.66,1.0,108020.0,840.0,320.0,1500.0,2120.0,6500.0,500.0,0.4,-1.0,-1.0,0.0
11,0.0,11.0,8.0,12.0,0.28,1.0,117360.0,760.0,380.0,1500.0,560.0,6500.0,500.0,0.0,-1.0,-1.0,0.0
12,1.0,11.0,7.0,12.0,0.58,1.0,130620.0,840.0,320.0,1500.0,1960.0,6500.0,500.0,0.4,-1.0,-1.0,0.0
13,1.0,12.0,12.0,12.0,0.8,0.0,139960.0,1340.0,340.0,1500.0,1200.0,6500.0,500.0,0.2,1.0,-1.0,0.0
14,1.0,12.0,8.0,12.0,0.72,0.0,149800.0,1460.0,320.0,1500.0,3040.0,6500.0,500.0,0.8,-1.0,-1.0,0.0
15,1.0,12.0,8.0,12.0,0.96,0.0,159760.0,1280.0,340.0,1500.0,1920.0,6500.0,500.0,0.0,-1.0,-1.0,0.0
16,1.0,12.0,10.0,12.0,1.0,0.0,169540.0,1020.0,340.0,1500.0,2000.0,6500.0,500.0,0.0,-1.0,-1.0,0.0
17,1.0,11.0,9.0,11.0,0.55,0.0,179060.0,940.0,340.0,1500.0,2700.0,6500.0,500.0,0.8,-1.0,-1.0,0.0
18,1.0,12.0,12.0,12.0,0.56,0.0,188500.0,1060.0,320.0,1500.0,720.0,6500.0,500.0,0.2,1.0,-1.0,0.0
19,1.0,12.0,9.0,12.0,0.84,0.0,198060.0,1420.0,320.0,1500.0,480.0,6500.0,500.0,0.6,1.0,-1.0,0.0
20,1.0,11.0,8.0,12.0,0.55,1.0,207980.0,760.0,380.0,1500.0,1100.0,6500.0,500.0,0.0,-1.0,-1.0,0.0
21,1.0,11.0,10.0,11.0,0.9,0.0,217240.0,620.0,360.0,1500.0,600.0,6500.0,500.0,0.6,1.0,-1.0,0.0
22,1.0,11.0,11.0,11.0,0.69,0.0,226360.0,660.0,480.0,1500.0,2980.0,6500.0,500.0,0.8,-1.0,-1.0,0.0
23,1.0,12.0,11.0,12.0,0.71,0.0,235520.0,1160.0,400.0,1500.0,1360.0,6500.0,500.0,0.6,1.0,-1.0,0.0
24,0.0,12.0,9.0,12.0,0.7,0.0,249180.0,1520.0,360.0,1500.0,3400.0,6500.0,500.0,1.0,1.0,-1.0,0.0
25,0.0,11.0,9.0,11.0,0.68,0.0,259200.0,880.0,520.0,1500.0,1420.0,6500.0,500.0,0.6,1.0,-1.0,6.0
26,0.0,11.0,8.0,11.0,0.87,0.0,268580.0,720.0,420.0,1500.0,3740.0,6500.0,500.0,1.0,1.0,-1.0,0.0
27,0.0,11.0,8.0,12.0,0.03,1.0,277800.0,580.0,360.0,1500.0,720.0,6500.0,500.0,0.4,-1.0,-1.0,0.0
28,0.0,11.0,9.0,11.0,0.71,0.0,286880.0,500.0,400.0,1500.0,1420.0,6500.0,500.0,0.0,-1.0,-1.0,0.0
29,0.0,12.0,9.0,12.0,0.87,0.0,295880.0,1380.0,380.0,1500.0,2540.0,6500.0,500.0,0.4,-1.0,-1.0,0.0
30,0.0,11.0,8.0,12.0,0.25,1.0,305760.0,800.0,300.0,1500.0,3080.0,6500.0,500.0,0.2,1.0,-1.0,0.0
31,0.0,12.0,9.0,12.0,0.91,0.0,315060.0,1240.0,380.0,1500.0,3820.0,6500.0,500.0,1.0,1.0,-1.0,0.0
32,0.0,12.0,9.0,12.0,0.99,0.0,324800.0,1200.0,400.0,1500.0,3580.0,6500.0,500.0,0.8,-1.0,-1.0,0.0
33,0.0,12.0,8.0,12.0,0.86,0.0,334500.0,1120.0,320.0,1500.0,2520.0,6500.0,500.0,0.4,-1.0,-1.0,0.0
34,0.0,11.0,8.0,12.0,0.11,1.0,344120.0,980.0,320.0,1500.0,1760.0,6500.0,500.0,1.0,1.0,-1.0,0.0
35,0.0,11.0,9.0,11.0,0.38,0.0,353600.0,540.0,540.0,1500.0,2820.0,6500.0,500.0,0.2,1.0,-1.0,6.0
36,1.0,12.0,9.0,12.0,0.62,0.0,366640.0,1520.0,360.0,1500.0,3240.0,6500.0,500.0,1.0,1.0,-1.0,0.0
37,1.0,11.0,8.0,12.0,0.21,1.0,376660.0,580.0,360.0,1500.0,1220.0,6500.0,500.0,0.4,-1.0,-1.0,0.0
38,1.0,12.0,9.0,12.0,0.48,0.0,385740.0,1200.0,400.0,1500.0,2560.0,6500.0,500.0,0.8,-1.0,-1.0,0.0
39,1.0,11.0,8.0,12.0,0.3,1.0,395440.0,800.0,300.0,1500.0,2980.0,6500.0,500.0,0.2,1.0,-1.0,0.0
40,1.0,11.0,9.0,11.0,0.77,0.0,404740.0,500.0,400.0,1500.0,1540.0,6500.0,500.0,0.0,-1.0,-1.0,0.0
41,1.0,12.0,8.0,12.0,0.91,0.0,413740.0,1120.0,320.0,1500.0,2620.0,6500.0,500.0,0.4,-1.0,-1.0,0.0
42,1.0,12.0,9.0,12.0,0.98,0.0,423360.0,1240.0,380.0,1500.0,3960.0,6500.0,500.0,1.0,1.0,-1.0,0.0
43,1.0,11.0,8.0,11.0,0.78,0.0,433100.0,720.0,420.0,1500.0,3560.0,6500.0,500.0,1.0,1.0,-1.0,0.0
44,1.0,11.0,9.0,11.0,0.49,0.0,442320.0,540.0,540.0,1500.0,2600.0,6500.0,500.0,0.2,1.0,-1.0,6.0
45,1.0,11.0,9.0,11.0,0.85,0.0,451360.0,880.0,520.0,1500.0,4500.0,6500.0,500.0,0.6,1.0,-1.0,6.0
46,1.0,12.0,9.0,12.0,0.3,0.0,460740.0,1380.0,380.0,1500.0,1400.0,6500.0,500.0,0.4,-1.0,-1.0,0.0
47,1.0,11.0,8.0,12.0,0.18,1.0,470620.0,980.0,320.0,1500.0,1620.0,6500.0,500.0,1.0,1.0,-1.0,0.0
