0,0.0,11.0,10.0,0.0,0.62,-1.0,11840.0,840.0,-20.0,1500.0,2040.0,6500.0,500.0,0.4,-1.0,-1.0,7.0
1,0.0,11.0,11.0,11.0,0.72,0.0,21180.0,800.0,440.0,1500.0,5040.0,6500.0,500.0,0.2,1.0,-1.0,0.0
2,0.0,12.0,11.0,12.0,0.62,0.0,30480.0,1460.0,540.0,1500.0,2840.0,6500.0,500.0,0.8,-1.0,-1.0,6.0
3,0.0,12.0,10.0,12.0,0.63,0.0,40440.0,1380.0,460.0,1500.0,2060.0,6500.0,500.0,0.4,-1.0,-1.0,0.0
4,0.0,12.0,10.0,12.0,0.82,0.0,50320.0,1240.0,480.0,1500.0,3640.0,6500.0,500.0,1.0,1.0,-1.0,0.0
5,0.0,11.0,9.0,12.0,0.52,1.0,60060.0,660.0,480.0,1500.0,2640.0,6500.0,500.0,0.8,-1.0,-1.0,0.0
6,0.0,11.0,10.0,11.0,0.61,0.0,69220.0,500.0,640.0,1500.0,1220.0,6500.0,500.0,0.0,-1.0,-1.0,6.0
7,0.0,12.0,10.0,12.0,0.54,0.0,78220.0,1340.0,700.0,1500.0,2500.0,6500.0,500.0,0.2,1.0,-1.0,6.0
8,0.0,12.0,9.0,12.0,0.75,0.0,88060.0,1280.0,400.0,1500.0,1500.0,6500.0,500.0,0.0,-1.0,-1.0,0.0
9,0.0,11.0,9.0,11.0,0.44,0.0,97840.0,720.0,440.0,1500.0,1100.0,6500.0,500.0,1.0,1.0,-1.0,0.0
10,0.0,11.0,8.0,12.0,0.41,1.0,107060.0,980.0,440.0,1500.0,1160.0,6500.0,500.0,1.0,1.0,-1.0,0.0
11,0.0,12.0,9.0,12.0,0.42,0.0,116540.0,1420.0,540.0,1500.0,1940.0,6500.0,500.0,0.6,1.0,-1.0,6.0
12,1.0,11.0,9.0,11.0,0.62,0.0,130460.0,720.0,440.0,1500.0,740.0,6500.0,500.0,1.0,1.0,-1.0,0.0
13,1.0,12.0,10.0,12.0,0.61,0.0,139680.0,1380.0,460.0,1500.0,2020.0,6500.0,500.0,0.4,-1.0,-1.0,0.0
14,1.0,12.0,10.0,12.0,0.63,0.0,149560.0,1240.0,480.0,1500.0,3260.0,6500.0,500.0,1.0,1.0,-1.0,0.0
15,1.0,11.0,8.0,12.0,0.44,1.0,159300.0,980.0,440.0,1500.0,1100.0,6500.0,500.0,1.0,1.0,-1.0,0.0
16,1.0,11.0,10.0,11.0,0.58,0.0,168780.0,840.0,520.0,1500.0,1960.0,6500.0,500.0,0.4,-1.0,-1.0,6.0
17,1.0,11.0,11.0,11.0,0.6,0.0,178120.0,800.0,440.0,1500.0,800.0,6500.0,500.0,0.2,1.0,-1.0,0.0
18,1.0,12.0,10.0,12.0,0.57,0.0,187420.0,1340.0,700.0,1500.0,740.0,6500.0,500.0,0.2,1.0,-1.0,6.0
19,1.0,11.0,9.0,12.0,0.6,1.0,197260.0,660.0,480.0,1500.0,2800.0,6500.0,500.0,0.8,-1.0,-1.0,0.0
20,1.0,12.0,11.0,12.0,0.76,0.0,206420.0,1460.0,540.0,1500.0,3120.0,6500.0,500.0,0.8,-1.0,-1.0,6.0
21,1.0,12.0,9.0,12.0,0.74,0.0,216380.0,1420.0,540.0,1500.0,4280.0,6500.0,500.0,0.6,1.0,-1.0,6.0
22,1.0,12.0,9.0,12.0,0.78,0.0,226300.0,1280.0,400.0,1500.0,1560.0,6500.0,500.0,0.0,-1.0,-1.0,0.0
23,1.0,11.0,10.0,11.0,0.61,0.0,236080.0,500.0,640.0,1500.0,1220.0,6500.0,500.0,0.0,-1.0,-1.0,6.0
24,0.0,11.0,9.0,11.0,0.57,0.0,249080.0,540.0,880.0,1500.0,740.0,6500.0,500.0,0.2,1.0,-1.0,6.0
25,0.0,11.0,9.0,11.0,0.56,0.0,258120.0,880.0,700.0,1500.0,1660.0,6500.0,500.0,0.6,1.0,-1.0,6.0
26,0.0,12.0,8.0,12.0,0.56,0.0,267500.0,1160.0,560.0,1500.0,1660.0,6500.0,500.0,0.6,1.0,-1.0,6.0
27,0.0,11.0,8.0,11.0,0.41,0.0,277160.0,620.0,380.0,1500.0,1960.0,6500.0,500.0,0.6,1.0,-1.0,0.0
28,0.0,12.0,7.0,12.0,0.63,0.0,286280.0,1020.0,360.0,1500.0,1260.0,6500.0,500.0,0.0,-1.0,-1.0,0.0
29,0.0,11.0,7.0,12.0,0.46,1.0,295800.0,760.0,520.0,1500.0,920.0,6500.0,500.0,0.0,-1.0,-1.0,6.0
30,0.0,11.0,8.0,11.0,0.61,0.0,305060.0,580.0,420.0,1500.0,2020.0,6500.0,500.0,0.4,-1.0,-1.0,0.0
31,0.0,11.0,8.0,11.0,0.46,0.0,314140.0,940.0,700.0,1500.0,2520.0,6500.0,500.0,0.8,-1.0,-1.0,6.0
32,0.0,12.0,7.0,12.0,0.77,0.0,323580.0,1120.0,340.0,1500.0,2340.0,6500.0,500.0,0.4,-1.0,-1.0,0.0
33,0.0,12.0,7.0,11.0,0.41,1.0,333200.0,1200.0,420.0,1500.0,760.0,6500.0,500.0,0.8,-1.0,-1.0,0.0
34,0.0,12.0,8.0,12.0,0.61,0.0,342900.0,1060.0,420.0,1500.0,820.0,6500.0,500.0,0.2,1.0,-1.0,0.0
35,0.0,12.0,8.0,12.0,0.6,0.0,352460.0,1520.0,380.0,1500.0,780.0,6500.0,500.0,1.0,1.0,-1.0,0.0
36,1.0,11.0,7.0,12.0,0.6,1.0,366480.0,760.0,520.0,1500.0,1200.0,6500.0,500.0,0.0,-1.0,-1.0,6.0
37,1.0,12.0,8.0,12.0,0.74,0.0,375740.0,1060.0,420.0,1500.0,1080.0,6500.0,500.0,0.2,1.0,-1.0,0.0
38,1.0,12.0,7.0,12.0,0.62,0.0,385300.0,1120.0,340.0,1500.0,2040.0,6500.0,500.0,0.4,-1.0,-1.0,0.0
39,1.0,11.0,8.0,11.0,0.38,0.0,394920.0,940.0,700.0,1500.0,820.0,6500.0,500.0,0.8,-1.0,-1.0,6.0
40,1.0,12.0,8.0,12.0,0.73,0.0,404360.0,1520.0,380.0,1500.0,3460.0,6500.0,500.0,1.0,1.0,-1.0,0.0
41,1.0,12.0,7.0,11.0,0.33,1.0,414380.0,1200.0,420.0,1500.0,920.0,6500.0,500.0,0.8,-1.0,-1.0,0.0
42,1.0,11.0,8.0,11.0,0.28,0.0,424080.0,620.0,380.0,1500.0,2220.0,6500.0,500.0,0.6,1.0,-1.0,0.0
43,1.0,12.0,7.0,12.0,0.67,0.0,433200.0,1020.0,360.0,1500.0,1340.0,6500.0,500.0,0.0,-1.0,-1.0,0.0
44,1.0,11.0,9.0,11.0,0.59,0.0,442720.0,880.0,700.0,1500.0,1600.0,6500.0,500.0,0.6,1.0,-1.0,6.0
45,1.0,11.0,9.0,11.0,0.33,0.0,452100.0,540.0,880.0,1500.0,2920.0,6500.0,500.0,0.2,1.0,-1.0,6.0
46,1.0,11.0,8.0,11.0,0.45,0.0,461140.0,580.0,420.0,1500.0,1700.0,6500.0,500.0,0.4,-1.0,-1.0,0.0
47,1.0,12.0,8.0,12.0,0.57,0.0,470220.0,1160.0,560.0,1500.0,1640.0,6500.0,500.0,0.6,1.0,-1.0,6.0
