0,0.0,12.0,14.0,12.0,0.58,0.0,12340.0,1340.0,420.0,1500.0,760.0,6500.0,500.0,0.2,1.0,-1.0,0.0
1,0.0,11.0,14.0,11.0,0.82,0.0,22180.0,880.0,400.0,1500.0,1140.0,6500.0,500.0,0.6,1.0,-1.0,0.0
2,0.0,11.0,13.0,11.0,0.66,0.0,31560.0,940.0,380.0,1500.0,2920.0,6500.0,500.0,0.8,-1.0,-1.0,0.0
3,0.0,11.0,13.0,11.0,0.7,0.0,41000.0,720.0,360.0,1500.0,3400.0,6500.0,500.0,1.0,1.0,-1.0,0.0
4,0.0,12.0,12.0,12.0,0.57,0.0,50220.0,1280.0,440.0,1500.0,1140.0,6500.0,500.0,0.0,-1.0,-1.0,0.0
5,0.0,12.0,12.0,12.0,0.69,0.0,60000.0,1420.0,420.0,1500.0,1400.0,6500.0,500.0,0.6,1.0,-1.0,0.0
6,0.0,12.0,11.0,12.0,0.78,0.0,69920.0,1160.0,580.0,1500.0,1220.0,6500.0,500.0,0.6,1.0,-1.0,6.0
7,0.0,11.0,11.0,11.0,0.43,0.0,79580.0,800.0,380.0,1500.0,2720.0,6500.0,500.0,0.2,1.0,-1.0,0.0
8,0.0,12.0,10.0,12.0,0.52,0.0,88880.0,1520.0,440.0,1500.0,940.0,6500.0,500.0,1.0,1.0,-1.0,0.0
9,0.0,11.0,10.0,11.0,0.42,0.0,98900.0,620.0,440.0,1500.0,1940.0,6500.0,500.0,0.6,1.0,-1.0,0.0
10,0.0,11.0,9.0,11.0,0.6,0.0,108020.0,500.0,380.0,1500.0,1200.0,6500.0,500.0,0.0,-1.0,-1.0,0.0
11,0.0,12.0,9.0,11.0,0.3,1.0,117020.0,1380.0,400.0,1500.0,1400.0,6500.0,500.0,0.4,-1.0,-1.0,0.0
12,1.0,11.0,10.0,11.0,0.51,0.0,130900.0,620.0,440.0,1500.0,1760.0,6500.0,500.0,0.6,1.0,-1.0,0.0
13,1.0,11.0,9.0,11.0,0.67,0.0,140020.0,500.0,380.0,1500.0,1340.0,6500.0,500.0,0.0,-1.0,-1.0,0.0
14,1.0,12.0,10.0,12.0,0.65,0.0,149020.0,1520.0,440.0,1500.0,3300.0,6500.0,500.0,1.0,1.0,-1.0,0.0
15,1.0,12.0,12.0,12.0,0.7,0.0,159040.0,1420.0,420.0,1500.0,1380.0,6500.0,500.0,0.6,1.0,-1.0,0.0
16,1.0,12.0,14.0,12.0,0.8,0.0,168960.0,1340.0,420.0,1500.0,1200.0,6500.0,500.0,0.2,1.0,-1.0,0.0
17,1.0,11.0,13.0,11.0,0.66,0.0,178800.0,720.0,360.0,1500.0,3320.0,6500.0,500.0,1.0,1.0,-1.0,0.0
18,1.0,11.0,13.0,11.0,0.79,0.0,188020.0,940.0,380.0,1500.0,3180.0,6500.0,500.0,0.8,-1.0,-1.0,0.0
19,1.0,12.0,9.0,11.0,0.24,1.0,197460.0,1380.0,400.0,1500.0,1280.0,6500.0,500.0,0.4,-1.0,-1.0,0.0
20,1.0,12.0,11.0,12.0,0.7,0.0,207340.0,1160.0,580.0,1500.0,4200.0,6500.0,500.0,0.6,1.0,-1.0,6.0
21,1.0,11.0,14.0,11.0,0.81,0.0,217000.0,880.0,400.0,1500.0,1160.0,6500.0,500.0,0.6,1.0,-1.0,0.0
22,1.0,11.0,11.0,11.0,0.53,0.0,226380.0,800.0,380.0,1500.0,660.0,6500.0,500.0,0.2,1.0,-1.0,0.0
23,1.0,12.0,12.0,12.0,0.72,0.0,235680.0,1280.0,440.0,1500.0,5440.0,6500.0,500.0,0.0,-1.0,-1.0,0.0
24,0.0,11.0,10.0,11.0,0.66,0.0,249460.0,980.0,380.0,1500.0,3320.0,6500.0,500.0,1.0,1.0,-1.0,0.0
25,0.0,11.0,10.0,11.0,0.73,0.0,258940.0,660.0,420.0,1500.0,4120.0,6500.0,500.0,0.8,-1.0,-1.0,0.0
26,0.0,12.0,9.0,11.0,0.38,1.0,268100.0,1020.0,440.0,1500.0,3220.0,6500.0,500.0,0.0,-1.0,-1.0,0.0
27,0.0,11.0,10.0,11.0,0.7,0.0,277620.0,760.0,380.0,1500.0,1400.0,6500.0,500.0,0.0,-1.0,-1.0,0.0
28,0.0,11.0,10.0,11.0,0.21,0.0,286880.0,580.0,640.0,1500.0,1220.0,6500.0,500.0,0.4,-1.0,-1.0,6.0
29,0.0,12.0,9.0,11.0,0.31,1.0,295960.0,1460.0,420.0,1500.0,960.0,6500.0,500.0,0.8,-1.0,-1.0,0.0
30,0.0,12.0,10.0,12.0,0.68,0.0,305920.0,1060.0,460.0,1500.0,960.0,6500.0,500.0,0.2,1.0,-1.0,0.0
31,0.0,12.0,10.0,11.0,0.16,1.0,315480.0,1200.0,400.0,1500.0,1260.0,6500.0,500.0,0.8,-1.0,-1.0,0.0
32,0.0,12.0,11.0,11.0,0.2,1.0,325180.0,1120.0,440.0,1500.0,4380.0,6500.0,500.0,0.4,-1.0,-1.0,0.0
33,0.0,11.0,12.0,12.0,0.16,1.0,334800.0,840.0,440.0,1500.0,1120.0,6500.0,500.0,0.4,-1.0,-1.0,0.0
34,0.0,11.0,13.0,11.0,0.82,0.0,344140.0,540.0,400.0,1500.0,1240.0,6500.0,500.0,0.2,1.0,-1.0,0.0
35,0.0,12.0,13.0,12.0,0.22,0.0,353180.0,1240.0,520.0,1500.0,1540.0,6500.0,500.0,1.0,1.0,-1.0,6.0
36,1.0,12.0,9.0,11.0,0.31,1.0,366920.0,1460.0,420.0,1500.0,960.0,6500.0,500.0,0.8,-1.0,-1.0,0.0
37,1.0,11.0,10.0,11.0,0.71,0.0,376880.0,660.0,420.0,1500.0,3020.0,6500.0,500.0,0.8,-1.0,-1.0,0.0
38,1.0,11.0,10.0,11.0,0.79,0.0,386040.0,760.0,380.0,1500.0,1580.0,6500.0,500.0,0.0,-1.0,-1.0,0.0
39,1.0,12.0,13.0,12.0,0.04,0.0,395300.0,1240.0,520.0,1500.0,1900.0,6500.0,500.0,1.0,1.0,-1.0,6.0
40,1.0,11.0,10.0,11.0,0.17,0.0,405040.0,580.0,640.0,1500.0,1140.0,6500.0,500.0,0.4,-1.0,-1.0,6.0
41,1.0,12.0,10.0,12.0,0.81,0.0,414120.0,1060.0,460.0,1500.0,1220.0,6500.0,500.0,0.2,1.0,-1.0,0.0
42,1.0,11.0,12.0,12.0,0.19,1.0,423680.0,840.0,440.0,1500.0,1180.0,6500.0,500.0,0.4,-1.0,-1.0,0.0
43,1.0,12.0,11.0,11.0,0.3,1.0,433020.0,1120.0,440.0,1500.0,1400.0,6500.0,500.0,0.4,-1.0,-1.0,0.0
44,1.0,12.0,10.0,11.0,0.38,1.0,442640.0,1200.0,400.0,1500.0,2360.0,6500.0,500.0,0.8,-1.0,-1.0,0.0
45,1.0,11.0,13.0,11.0,0.76,0.0,452340.0,540.0,400.0,1500.0,1120.0,6500.0,500.0,0.2,1.0,-1.0,0.0
46,1.0,12.0,9.0,11.0,0.3,1.0,461380.0,1020.0,440.0,1500.0,3380.0,6500.0,500.0,0.0,-1.0,-1.0,0.0
47,1.0,11.0,10.0,11.0,0.75,0.0,470900.0,980.0,380.0,1500.0,3500.0,6500.0,500.0,1.0,1.0,-1.0,0.0
