0,0.0,12.0,13.0,12.0,0.78,0.0,12280.0,1280.0,300.0,1500.0,1560.0,6500.0,500.0,0.0,-1.0,-1.0,0.0
1,0.0,11.0,13.0,12.0,0.34,1.0,22060.0,880.0,440.0,1500.0,2100.0,6500.0,500.0,0.6,1.0,-1.0,0.0
2,0.0,11.0,14.0,11.0,0.61,0.0,31440.0,660.0,380.0,1500.0,2820.0,6500.0,500.0,0.8,-1.0,-1.0,0.0
3,0.0,11.0,14.0,11.0,0.9,0.0,40600.0,620.0,380.0,1500.0,600.0,6500.0,500.0,0.6,1.0,-1.0,0.0
4,0.0,11.0,13.0,11.0,0.74,0.0,49720.0,800.0,340.0,1500.0,1080.0,6500.0,500.0,0.2,1.0,-1.0,0.0
5,0.0,12.0,13.0,12.0,0.6,0.0,59020.0,1200.0,380.0,1500.0,2800.0,6500.0,500.0,0.8,-1.0,-1.0,0.0
6,0.0,11.0,12.0,11.0,0.65,0.0,68720.0,540.0,440.0,1500.0,900.0,6500.0,500.0,0.2,1.0,-1.0,0.0
7,0.0,11.0,12.0,11.0,0.7,0.0,77760.0,940.0,380.0,1500.0,3000.0,6500.0,500.0,0.8,-1.0,-1.0,0.0
8,0.0,12.0,11.0,11.0,0.31,1.0,87200.0,1120.0,380.0,1500.0,1420.0,6500.0,500.0,0.4,-1.0,-1.0,0.0
9,0.0,12.0,12.0,12.0,0.66,0.0,96820.0,1340.0,420.0,1500.0,920.0,6500.0,500.0,0.2,1.0,-1.0,0.0
10,0.0,11.0,12.0,12.0,0.43,1.0,106660.0,760.0,360.0,1500.0,3120.0,6500.0,500.0,0.0,-1.0,-1.0,0.0
11,0.0,11.0,13.0,11.0,0.68,0.0,115920.0,840.0,380.0,1500.0,2160.0,6500.0,500.0,0.4,-1.0,-1.0,0.0
12,1.0,11.0,12.0,11.0,0.97,0.0,129260.0,540.0,440.0,1500.0,1660.0,6500.0,500.0,0.2,1.0,-1.0,0.0
13,1.0,12.0,11.0,11.0,0.16,1.0,138300.0,1120.0,380.0,1500.0,1120.0,6500.0,500.0,0.4,-1.0,-1.0,0.0
14,1.0,11.0,13.0,11.0,0.83,0.0,147920.0,800.0,340.0,1500.0,1260.0,6500.0,500.0,0.2,1.0,-1.0,0.0
15,1.0,11.0,12.0,12.0,0.33,1.0,157220.0,760.0,360.0,1500.0,3320.0,6500.0,500.0,0.0,-1.0,-1.0,0.0
16,1.0,11.0,14.0,11.0,0.68,0.0,166480.0,620.0,380.0,1500.0,1420.0,6500.0,500.0,0.6,1.0,-1.0,0.0
17,1.0,12.0,13.0,12.0,0.76,0.0,175600.0,1280.0,300.0,1500.0,2460.0,6500.0,500.0,0.0,-1.0,-1.0,0.0
18,1.0,11.0,12.0,11.0,0.66,0.0,185380.0,940.0,380.0,1500.0,2920.0,6500.0,500.0,0.8,-1.0,-1.0,0.0
19,1.0,12.0,12.0,12.0,0.61,0.0,194820.0,1340.0,420.0,1500.0,820.0,6500.0,500.0,0.2,1.0,-1.0,0.0
20,1.0,12.0,13.0,12.0,0.83,0.0,204660.0,1200.0,380.0,1500.0,3260.0,6500.0,500.0,0.8,-1.0,-1.0,0.0
21,1.0,11.0,13.0,12.0,0.48,1.0,214360.0,880.0,440.0,1500.0,1820.0,6500.0,500.0,0.6,1.0,-1.0,0.0
22,1.0,11.0,13.0,11.0,0.69,0.0,223740.0,840.0,380.0,1500.0,2180.0,6500.0,500.0,0.4,-1.0,-1.0,0.0
23,1.0,11.0,14.0,11.0,0.77,0.0,233080.0,660.0,380.0,1500.0,3140.0,6500.0,500.0,0.8,-1.0,-1.0,0.0
24,0.0,12.0,13.0,12.0,0.15,0.0,246240.0,1380.0,700.0,1500.0,480.0,6500.0,500.0,0.4,-1.0,-1.0,6.0
25,0.0,11.0,13.0,11.0,0.71,0.0,256120.0,980.0,340.0,1500.0,560.0,6500.0,500.0,1.0,1.0,-1.0,0.0
26,0.0,12.0,12.0,12.0,0.92,0.0,265600.0,1160.0,420.0,1500.0,640.0,6500.0,500.0,0.6,1.0,-1.0,0.0
27,0.0,12.0,12.0,12.0,0.86,0.0,275260.0,1420.0,560.0,1500.0,520.0,6500.0,500.0,0.6,1.0,-1.0,6.0
28,0.0,12.0,11.0,12.0,0.69,0.0,285180.0,1240.0,340.0,1500.0,3380.0,6500.0,500.0,1.0,1.0,-1.0,0.0
29,0.0,11.0,11.0,12.0,0.24,1.0,294920.0,720.0,340.0,1500.0,1500.0,6500.0,500.0,1.0,1.0,-1.0,0.0
30,0.0,12.0,12.0,11.0,0.31,1.0,304140.0,1020.0,360.0,1500.0,3360.0,6500.0,500.0,0.0,-1.0,-1.0,0.0
31,0.0,11.0,13.0,12.0,0.46,1.0,313660.0,500.0,320.0,1500.0,3060.0,6500.0,500.0,0.0,-1.0,-1.0,0.0
32,0.0,12.0,14.0,12.0,0.85,0.0,322660.0,1520.0,460.0,1500.0,3700.0,6500.0,500.0,1.0,1.0,-1.0,0.0
33,0.0,12.0,14.0,12.0,0.93,0.0,332680.0,1460.0,340.0,1500.0,3460.0,6500.0,500.0,0.8,-1.0,-1.0,0.0
34,0.0,11.0,13.0,12.0,0.38,1.0,342640.0,580.0,340.0,1500.0,1560.0,6500.0,500.0,0.4,-1.0,-1.0,0.0
35,0.0,12.0,14.0,12.0,0.73,0.0,351720.0,1060.0,500.0,1500.0,1060.0,6500.0,500.0,0.2,1.0,-1.0,0.0
36,1.0,11.0,13.0,12.0,0.24,1.0,365280.0,580.0,340.0,1500.0,1280.0,6500.0,500.0,0.4,-1.0,-1.0,0.0
37,1.0,12.0,12.0,11.0,0.35,1.0,374360.0,1020.0,360.0,1500.0,700.0,6500.0,500.0,0.0,-1.0,-1.0,0.0
38,1.0,12.0,12.0,12.0,0.79,0.0,383880.0,1420.0,560.0,1500.0,1200.0,6500.0,500.0,0.6,1.0,-1.0,6.0
39,1.0,12.0,12.0,12.0,0.78,0.0,393800.0,1160.0,420.0,1500.0,1220.0,6500.0,500.0,0.6,1.0,-1.0,0.0
40,1.0,12.0,14.0,12.0,0.93,0.0,403460.0,1520.0,460.0,1500.0,3860.0,6500.0,500.0,1.0,1.0,-1.0,0.0
41,1.0,12.0,13.0,12.0,0.33,0.0,413480.0,1380.0,700.0,1500.0,1460.0,6500.0,500.0,0.4,-1.0,-1.0,6.0
42,1.0,11.0,11.0,12.0,0.46,1.0,423360.0,720.0,340.0,1500.0,1060.0,6500.0,500.0,1.0,1.0,-1.0,0.0
43,1.0,12.0,11.0,12.0,0.62,0.0,432580.0,1240.0,340.0,1500.0,3240.0,6500.0,500.0,1.0,1.0,-1.0,0.0
44,1.0,11.0,13.0,11.0,0.75,0.0,442320.0,980.0,340.0,1500.0,3500.0,6500.0,500.0,1.0,1.0,-1.0,0.0
45,1.0,11.0,13.0,12.0,0.23,1.0,451800.0,500.0,320.0,1500.0,3520.0,6500.0,500.0,0.0,-1.0,-1.0,0.0
46,1.0,12.0,14.0,12.0,0.83,0.0,460800.0,1060.0,500.0,1500.0,1260.0,6500.0,500.0,0.2,1.0,-1.0,0.0
47,1.0,12.0,14.0,12.0,0.84,0.0,470360.0,1460.0,340.0,1500.0,3280.0,6500.0,500.0,0.8,-1.0,-1.0,0.0
