0,0.0,11.0,9.0,12.0,0.18,1.0,11720.0,720.0,300.0,1500.0,1620.0,6500.0,500.0,1.0,1.0,-1.0,0.0
1,0.0,11.0,10.0,11.0,0.72,0.0,20940.0,660.0,360.0,1500.0,3040.0,6500.0,500.0,0.8,-1.0,-1.0,0.0
2,0.0,12.0,10.0,12.0,0.73,0.0,30100.0,1520.0,280.0,1500.0,520.0,6500.0,500.0,1.0,1.0,-1.0,0.0
3,0.0,11.0,9.0,11.0,0.48,0.0,40120.0,880.0,500.0,1500.0,1820.0,6500.0,500.0,0.6,1.0,-1.0,0.0
4,0.0,11.0,9.0,11.0,0.46,0.0,49500.0,500.0,460.0,1500.0,920.0,6500.0,500.0,0.0,-1.0,-1.0,0.0
5,0.0,11.0,8.0,11.0,0.69,0.0,58500.0,760.0,380.0,1500.0,1380.0,6500.0,500.0,0.0,-1.0,-1.0,0.0
6,0.0,12.0,8.0,12.0,0.92,0.0,67760.0,1460.0,400.0,1500.0,3440.0,6500.0,500.0,0.8,-1.0,-1.0,0.0
7,0.0,12.0,7.0,12.0,0.49,0.0,77720.0,1240.0,300.0,1500.0,1000.0,6500.0,500.0,1.0,1.0,-1.0,0.0
8,0.0,11.0,7.0,11.0,0.61,0.0,87460.0,540.0,420.0,1500.0,820.0,6500.0,500.0,0.2,1.0,-1.0,0.0
9,0.0,11.0,6.0,12.0,0.27,1.0,96500.0,980.0,300.0,1500.0,1440.0,6500.0,500.0,1.0,1.0,-1.0,0.0
10,0.0,11.0,7.0,12.0,0.16,1.0,105980.0,620.0,280.0,1500.0,2460.0,6500.0,500.0,0.6,1.0,-1.0,0.0
11,0.0,11.0,8.0,11.0,0.43,0.0,115100.0,940.0,380.0,1500.0,720.0,6500.0,500.0,0.8,-1.0,-1.0,0.0
12,1.0,11.0,7.0,12.0,0.48,1.0,128540.0,620.0,280.0,1500.0,1820.0,6500.0,500.0,0.6,1.0,-1.0,0.0
13,1.0,11.0,9.0,11.0,0.53,0.0,137660.0,880.0,500.0,1500.0,1720.0,6500.0,500.0,0.6,1.0,-1.0,0.0
14,1.0,12.0,10.0,12.0,0.75,0.0,147040.0,1520.0,280.0,1500.0,480.0,6500.0,500.0,1.0,1.0,-1.0,0.0
15,1.0,11.0,9.0,11.0,0.43,0.0,157060.0,500.0,460.0,1500.0,860.0,6500.0,500.0,0.0,-1.0,-1.0,0.0
16,1.0,12.0,7.0,12.0,0.48,0.0,166060.0,1240.0,300.0,1500.0,1020.0,6500.0,500.0,1.0,1.0,-1.0,0.0
17,1.0,11.0,6.0,12.0,0.3,1.0,175800.0,980.0,300.0,1500.0,1380.0,6500.0,500.0,1.0,1.0,-1.0,0.0
18,1.0,11.0,8.0,11.0,0.48,0.0,185280.0,940.0,380.0,1500.0,620.0,6500.0,500.0,0.8,-1.0,-1.0,0.0
19,1.0,11.0,7.0,11.0,0.68,0.0,194720.0,540.0,420.0,1500.0,960.0,6500.0,500.0,0.2,1.0,-1.0,0.0
20,1.0,12.0,8.0,12.0,0.83,0.0,203760.0,1460.0,400.0,1500.0,3260.0,6500.0,500.0,0.8,-1.0,-1.0,0.0
21,1.0,11.0,9.0,12.0,0.36,1.0,213720.0,720.0,300.0,1500.0,1260.0,6500.0,500.0,1.0,1.0,-1.0,0.0
22,1.0,11.0,10.0,11.0,0.52,0.0,222940.0,660.0,360.0,1500.0,540.0,6500.0,500.0,0.8,-1.0,-1.0,0.0
23,1.0,11.0,8.0,11.0,0.47,0.0,232100.0,760.0,380.0,1500.0,940.0,6500.0,500.0,0.0,-1.0,-1.0,0.0
24,0.0,12.0,8.0,12.0,0.72,0.0,245360.0,1120.0,300.0,1500.0,2240.0,6500.0,500.0,0.4,-1.0,-1.0,0.0
25,0.0,11.0,8.0,11.0,0.49,0.0,254980.0,800.0,320.0,1500.0,580.0,6500.0,500.0,0.2,1.0,-1.0,0.0
26,0.0,11.0,7.0,12.0,0.43,1.0,264280.0,840.0,440.0,1500.0,1660.0,6500.0,500.0,0.4,-1.0,-1.0,0.0
27,0.0,12.0,8.0,12.0,0.61,0.0,273620.0,1380.0,360.0,1500.0,2020.0,6500.0,500.0,0.4,-1.0,-1.0,0.0
28,0.0,12.0,8.0,11.0,0.25,1.0,283500.0,1020.0,420.0,1500.0,500.0,6500.0,500.0,0.0,-1.0,-1.0,0.0
29,0.0,12.0,9.0,12.0,0.8,0.0,293020.0,1160.0,320.0,1500.0,400.0,6500.0,500.0,0.6,1.0,-1.0,0.0
30,0.0,12.0,9.0,12.0,0.56,0.0,302680.0,1200.0,320.0,1500.0,460.0,6500.0,500.0,0.8,-1.0,-1.0,0.0
31,0.0,12.0,8.0,12.0,0.76,0.0,312380.0,1060.0,400.0,1500.0,1120.0,6500.0,500.0,0.2,1.0,-1.0,0.0
32,0.0,12.0,8.0,12.0,0.68,0.0,321940.0,1340.0,340.0,1500.0,960.0,6500.0,500.0,0.2,1.0,-1.0,0.0
33,0.0,11.0,7.0,11.0,0.64,0.0,331780.0,580.0,360.0,1500.0,2080.0,6500.0,500.0,0.4,-1.0,-1.0,0.0
34,0.0,12.0,7.0,12.0,0.88,0.0,340860.0,1280.0,360.0,1500.0,1760.0,6500.0,500.0,0.0,-1.0,-1.0,0.0
35,0.0,12.0,6.0,12.0,0.62,0.0,350640.0,1420.0,420.0,1500.0,1540.0,6500.0,500.0,0.6,1.0,-1.0,0.0
36,1.0,12.0,8.0,11.0,0.3,1.0,364560.0,1020.0,420.0,1500.0,600.0,6500.0,500.0,0.0,-1.0,-1.0,0.0
37,1.0,12.0,6.0,12.0,0.68,0.0,374080.0,1420.0,420.0,1500.0,1420.0,6500.0,500.0,0.6,1.0,-1.0,0.0
38,1.0,11.0,8.0,11.0,0.5,0.0,384000.0,800.0,320.0,1500.0,600.0,6500.0,500.0,0.2,1.0,-1.0,0.0
39,1.0,11.0,7.0,12.0,0.49,1.0,393300.0,840.0,440.0,1500.0,1780.0,6500.0,500.0,0.4,-1.0,-1.0,0.0
40,1.0,12.0,8.0,12.0,0.63,0.0,402640.0,1340.0,340.0,1500.0,860.0,6500.0,500.0,0.2,1.0,-1.0,0.0
41,1.0,12.0,8.0,12.0,0.72,0.0,412480.0,1060.0,400.0,1500.0,1040.0,6500.0,500.0,0.2,1.0,-1.0,0.0
42,1.0,11.0,7.0,11.0,0.47,0.0,422040.0,580.0,360.0,1500.0,1740.0,6500.0,500.0,0.4,-1.0,-1.0,0.0
43,1.0,12.0,9.0,12.0,0.67,0.0,431120.0,1160.0,320.0,1500.0,1440.0,6500.0,500.0,0.6,1.0,-1.0,0.0
44,1.0,12.0,7.0,12.0,0.63,0.0,440780.0,1280.0,360.0,1500.0,1260.0,6500.0,500.0,0.0,-1.0,-1.0,0.0
45,1.0,12.0,8.0,12.0,0.68,0.0,450560.0,1120.0,300.0,1500.0,3420.0,6500.0,500.0,0.4,-1.0,-1.0,0.0
46,1.0,12.0,8.0,12.0,0.45,0.0,460180.0,1380.0,360.0,1500.0,1700.0,6500.0,500.0,0.4,-1.0,-1.0,0.0
47,1.0,12.0,9.0,12.0,0.84,0.0,470060.0,1200.0,320.0,1500.0,3280.0,6500.0,500.0,0.8,-1.0,-1.0,0.0
