0,0.0,11.0,4.0,11.0,0.62,0.0,11580.0,580.0,460.0,1500.0,2040.0,6500.0,500.0,0.4,-1.0,-1.0,0.0
1,0.0,11.0,4.0,12.0,0.51,1.0,20660.0,720.0,340.0,1500.0,960.0,6500.0,500.0,1.0,1.0,-1.0,0.0
2,0.0,12.0,5.0,12.0,0.6,0.0,29880.0,1380.0,360.0,1500.0,2000.0,6500.0,500.0,0.4,-1.0,-1.0,0.0
3,0.0,11.0,5.0,11.0,0.45,0.0,39760.0,800.0,540.0,1500.0,2680.0,6500.0,500.0,0.2,1.0,-1.0,6.0
4,0.0,12.0,4.0,12.0,0.54,0.0,49060.0,1160.0,440.0,1500.0,1700.0,6500.0,500.0,0.6,1.0,-1.0,0.0
5,0.0,11.0,4.0,11.0,0.76,0.0,58720.0,620.0,420.0,1500.0,1260.0,6500.0,500.0,0.6,1.0,-1.0,0.0
6,0.0,11.0,3.0,11.0,0.54,0.0,67840.0,660.0,540.0,1500.0,2680.0,6500.0,500.0,0.8,-1.0,-1.0,6.0
7,0.0,12.0,3.0,12.0,0.46,0.0,77000.0,1060.0,380.0,1500.0,2660.0,6500.0,500.0,0.2,1.0,-1.0,0.0
8,0.0,12.0,2.0,11.0,0.45,1.0,86560.0,1240.0,340.0,1500.0,2900.0,6500.0,500.0,1.0,1.0,-1.0,0.0
9,0.0,12.0,3.0,12.0,0.5,0.0,96300.0,1120.0,380.0,1500.0,1800.0,6500.0,500.0,0.4,-1.0,-1.0,0.0
10,0.0,12.0,3.0,11.0,0.52,1.0,105920.0,1420.0,400.0,1500.0,1740.0,6500.0,500.0,0.6,1.0,-1.0,0.0
11,0.0,12.0,4.0,11.0,0.53,1.0,115840.0,1200.0,420.0,1500.0,2660.0,6500.0,500.0,0.8,-1.0,-1.0,0.0
12,1.0,11.0,4.0,11.0,0.5,0.0,129540.0,580.0,460.0,1500.0,1800.0,6500.0,500.0,0.4,-1.0,-1.0,0.0
13,1.0,12.0,4.0,11.0,0.41,1.0,138620.0,1200.0,420.0,1500.0,760.0,6500.0,500.0,0.8,-1.0,-1.0,0.0
14,1.0,11.0,4.0,12.0,0.42,1.0,148320.0,720.0,340.0,1500.0,2840.0,6500.0,500.0,1.0,1.0,-1.0,0.0
15,1.0,12.0,2.0,11.0,0.68,1.0,157540.0,1240.0,340.0,1500.0,620.0,6500.0,500.0,1.0,1.0,-1.0,0.0
16,1.0,12.0,3.0,12.0,0.72,0.0,167280.0,1060.0,380.0,1500.0,5040.0,6500.0,500.0,0.2,1.0,-1.0,0.0
17,1.0,11.0,5.0,11.0,0.76,0.0,176840.0,800.0,540.0,1500.0,2060.0,6500.0,500.0,0.2,1.0,-1.0,6.0
18,1.0,11.0,4.0,11.0,0.71,0.0,186140.0,620.0,420.0,1500.0,4220.0,6500.0,500.0,0.6,1.0,-1.0,0.0
19,1.0,12.0,3.0,12.0,0.51,0.0,195260.0,1120.0,380.0,1500.0,1820.0,6500.0,500.0,0.4,-1.0,-1.0,0.0
20,1.0,12.0,5.0,12.0,0.48,0.0,204880.0,1380.0,360.0,1500.0,1760.0,6500.0,500.0,0.4,-1.0,-1.0,0.0
21,1.0,12.0,3.0,11.0,0.69,1.0,214760.0,1420.0,400.0,1500.0,4180.0,6500.0,500.0,0.6,1.0,-1.0,0.0
22,1.0,12.0,4.0,12.0,0.75,0.0,224680.0,1160.0,440.0,1500.0,1280.0,6500.0,500.0,0.6,1.0,-1.0,0.0
23,1.0,11.0,3.0,11.0,0.58,0.0,234340.0,660.0,540.0,1500.0,2760.0,6500.0,500.0,0.8,-1.0,-1.0,6.0
24,0.0,11.0,5.0,11.0,0.31,0.0,247500.0,760.0,400.0,1500.0,620.0,6500.0,500.0,0.0,-1.0,-1.0,0.0
25,0.0,11.0,5.0,12.0,0.31,1.0,256760.0,940.0,360.0,1500.0,960.0,6500.0,500.0,0.8,-1.0,-1.0,0.0
26,0.0,11.0,6.0,11.0,0.55,0.0,266200.0,880.0,400.0,1500.0,1680.0,6500.0,500.0,0.6,1.0,-1.0,0.0
27,0.0,11.0,6.0,12.0,0.16,1.0,275580.0,540.0,420.0,1500.0,3260.0,6500.0,500.0,0.2,1.0,-1.0,0.0
28,0.0,12.0,7.0,0.0,0.51,-1.0,284620.0,1340.0,-20.0,1500.0,2560.0,6500.0,500.0,0.2,1.0,-1.0,7.0
29,0.0,12.0,8.0,12.0,0.47,0.0,294460.0,1020.0,500.0,1500.0,940.0,6500.0,500.0,0.0,-1.0,-1.0,0.0
30,0.0,12.0,8.0,11.0,0.38,1.0,303980.0,1280.0,360.0,1500.0,3220.0,6500.0,500.0,0.0,-1.0,-1.0,0.0
31,0.0,11.0,9.0,11.0,0.59,0.0,313760.0,500.0,500.0,1500.0,1180.0,6500.0,500.0,0.0,-1.0,-1.0,0.0
32,0.0,12.0,9.0,0.0,0.5,-1.0,322760.0,1460.0,-20.0,1500.0,2600.0,6500.0,500.0,0.8,-1.0,-1.0,7.0
33,0.0,12.0,10.0,12.0,0.67,0.0,332720.0,1520.0,440.0,1500.0,640.0,6500.0,500.0,1.0,1.0,-1.0,0.0
34,0.0,11.0,10.0,11.0,0.8,0.0,342740.0,980.0,480.0,1500.0,3600.0,6500.0,500.0,1.0,1.0,-1.0,0.0
35,0.0,11.0,9.0,11.0,0.64,0.0,352220.0,840.0,520.0,1500.0,2080.0,6500.0,500.0,0.4,-1.0,-1.0,6.0
36,1.0,11.0,10.0,11.0,0.94,0.0,365560.0,980.0,480.0,1500.0,3880.0,6500.0,500.0,1.0,1.0,-1.0,0.0
37,1.0,11.0,6.0,12.0,0.05,1.0,375040.0,540.0,420.0,1500.0,3480.0,6500.0,500.0,0.2,1.0,-1.0,0.0
38,1.0,12.0,7.0,12.0,0.81,0.0,384080.0,1340.0,520.0,1500.0,1220.0,6500.0,500.0,0.2,1.0,-1.0,6.0
39,1.0,11.0,5.0,12.0,0.04,1.0,393920.0,940.0,360.0,1500.0,1500.0,6500.0,500.0,0.8,-1.0,-1.0,0.0
40,1.0,12.0,8.0,12.0,0.33,0.0,403360.0,1020.0,500.0,1500.0,3320.0,6500.0,500.0,0.0,-1.0,-1.0,0.0
41,1.0,11.0,5.0,11.0,0.87,0.0,412880.0,760.0,400.0,1500.0,1740.0,6500.0,500.0,0.0,-1.0,-1.0,0.0
42,1.0,11.0,6.0,11.0,0.9,0.0,422140.0,880.0,400.0,1500.0,600.0,6500.0,500.0,0.6,1.0,-1.0,0.0
43,1.0,12.0,9.0,12.0,0.52,0.0,431520.0,1460.0,520.0,1500.0,540.0,6500.0,500.0,0.8,-1.0,-1.0,6.0
44,1.0,11.0,9.0,11.0,0.73,0.0,441480.0,500.0,500.0,1500.0,1460.0,6500.0,500.0,0.0,-1.0,-1.0,0.0
45,1.0,11.0,9.0,11.0,0.53,0.0,450480.0,840.0,520.0,1500.0,1860.0,6500.0,500.0,0.4,-1.0,-1.0,6.0
46,1.0,12.0,10.0,12.0,0.49,0.0,459820.0,1520.0,440.0,1500.0,2980.0,6500.0,500.0,1.0,1.0,-1.0,0.0
47,1.0,12.0,8.0,11.0,0.64,1.0,469840.0,1280.0,360.0,1500.0,2700.0,6500.0,500.0,0.0,-1.0,-1.0,0.0
