0,0.0,12.0,14.0,11.0,0.42,1.0,12420.0,1420.0,380.0,1500.0,1940.0,6500.0,500.0,0.6,1.0,-1.0,0.0
1,0.0,12.0,15.0,12.0,0.96,0.0,22340.0,1380.0,440.0,1500.0,2720.0,6500.0,500.0,0.4,-1.0,-1.0,0.0
2,0.0,12.0,15.0,12.0,0.89,0.0,32220.0,1200.0,520.0,1500.0,3380.0,6500.0,500.0,0.8,-1.0,-1.0,6.0
3,0.0,11.0,14.0,11.0,0.94,0.0,41920.0,660.0,400.0,1500.0,3480.0,6500.0,500.0,0.8,-1.0,-1.0,0.0
4,0.0,12.0,14.0,12.0,0.83,0.0,51080.0,1340.0,820.0,1500.0,1260.0,6500.0,500.0,0.2,1.0,-1.0,6.0
5,0.0,11.0,13.0,11.0,0.61,0.0,60920.0,760.0,400.0,1500.0,1220.0,6500.0,500.0,0.0,-1.0,-1.0,0.0
6,0.0,11.0,13.0,11.0,0.84,0.0,70180.0,940.0,440.0,1500.0,3280.0,6500.0,500.0,0.8,-1.0,-1.0,0.0
7,0.0,12.0,12.0,12.0,0.78,0.0,79620.0,1120.0,440.0,1500.0,2360.0,6500.0,500.0,0.4,-1.0,-1.0,0.0
8,0.0,11.0,12.0,11.0,0.67,0.0,89240.0,540.0,680.0,1500.0,940.0,6500.0,500.0,0.2,1.0,-1.0,6.0
9,0.0,12.0,11.0,12.0,0.49,0.0,98280.0,1460.0,660.0,1500.0,2580.0,6500.0,500.0,0.8,-1.0,-1.0,6.0
10,0.0,11.0,11.0,11.0,0.8,0.0,108240.0,840.0,360.0,1500.0,2400.0,6500.0,500.0,0.4,-1.0,-1.0,0.0
11,0.0,12.0,10.0,11.0,0.61,1.0,117580.0,1520.0,400.0,1500.0,760.0,6500.0,500.0,1.0,1.0,-1.0,0.0
12,1.0,12.0,15.0,12.0,0.78,0.0,131600.0,1200.0,520.0,1500.0,3160.0,6500.0,500.0,0.8,-1.0,-1.0,6.0
13,1.0,11.0,11.0,11.0,0.89,0.0,141300.0,840.0,360.0,1500.0,2580.0,6500.0,500.0,0.4,-1.0,-1.0,0.0
14,1.0,12.0,11.0,12.0,0.6,0.0,150640.0,1460.0,660.0,1500.0,2800.0,6500.0,500.0,0.8,-1.0,-1.0,6.0
15,1.0,11.0,12.0,11.0,0.78,0.0,160600.0,540.0,680.0,1500.0,1160.0,6500.0,500.0,0.2,1.0,-1.0,6.0
16,1.0,11.0,13.0,11.0,0.47,0.0,169640.0,760.0,400.0,1500.0,940.0,6500.0,500.0,0.0,-1.0,-1.0,0.0
17,1.0,12.0,14.0,12.0,0.58,0.0,178900.0,1340.0,820.0,1500.0,2420.0,6500.0,500.0,0.2,1.0,-1.0,6.0
18,1.0,12.0,12.0,12.0,0.2,0.0,188740.0,1120.0,440.0,1500.0,4380.0,6500.0,500.0,0.4,-1.0,-1.0,0.0
19,1.0,11.0,13.0,11.0,0.93,0.0,198360.0,940.0,440.0,1500.0,3460.0,6500.0,500.0,0.8,-1.0,-1.0,0.0
20,1.0,12.0,15.0,12.0,0.98,0.0,207800.0,1380.0,440.0,1500.0,2760.0,6500.0,500.0,0.4,-1.0,-1.0,0.0
21,1.0,11.0,14.0,11.0,0.49,0.0,217680.0,660.0,400.0,1500.0,4600.0,6500.0,500.0,0.8,-1.0,-1.0,0.0
22,1.0,12.0,14.0,11.0,0.04,1.0,226840.0,1420.0,380.0,1500.0,2700.0,6500.0,500.0,0.6,1.0,-1.0,0.0
23,1.0,12.0,10.0,11.0,0.37,1.0,236760.0,1520.0,400.0,1500.0,1240.0,6500.0,500.0,1.0,1.0,-1.0,0.0
24,0.0,11.0,11.0,11.0,0.67,0.0,250780.0,800.0,500.0,1500.0,2240.0,6500.0,500.0,0.2,1.0,-1.0,0.0
25,0.0,11.0,11.0,11.0,0.74,0.0,260080.0,880.0,560.0,1500.0,1300.0,6500.0,500.0,0.6,1.0,-1.0,6.0
26,0.0,12.0,10.0,11.0,0.69,1.0,269460.0,1160.0,460.0,1500.0,1400.0,6500.0,500.0,0.6,1.0,-1.0,0.0
27,0.0,12.0,11.0,12.0,0.76,0.0,279120.0,1280.0,420.0,1500.0,1520.0,6500.0,500.0,0.0,-1.0,-1.0,0.0
28,0.0,11.0,11.0,11.0,0.42,0.0,288900.0,980.0,560.0,1500.0,1140.0,6500.0,500.0,1.0,1.0,-1.0,6.0
29,0.0,12.0,10.0,11.0,0.34,1.0,298380.0,1020.0,420.0,1500.0,680.0,6500.0,500.0,0.0,-1.0,-1.0,0.0
30,0.0,11.0,11.0,11.0,0.04,0.0,307900.0,720.0,440.0,1500.0,1900.0,6500.0,500.0,1.0,1.0,-1.0,0.0
31,0.0,11.0,11.0,11.0,0.5,0.0,317120.0,580.0,560.0,1500.0,1800.0,6500.0,500.0,0.4,-1.0,-1.0,6.0
32,0.0,11.0,10.0,11.0,0.47,0.0,326200.0,500.0,600.0,1500.0,940.0,6500.0,500.0,0.0,-1.0,-1.0,6.0
33,0.0,12.0,10.0,11.0,0.57,1.0,335200.0,1240.0,340.0,1500.0,840.0,6500.0,500.0,1.0,1.0,-1.0,0.0
34,0.0,12.0,11.0,12.0,0.48,0.0,344940.0,1060.0,400.0,1500.0,2620.0,6500.0,500.0,0.2,1.0,-1.0,0.0
35,0.0,11.0,11.0,11.0,0.28,0.0,354500.0,620.0,620.0,1500.0,2220.0,6500.0,500.0,0.6,1.0,-1.0,6.0
36,1.0,11.0,11.0,11.0,0.81,0.0,367620.0,720.0,440.0,1500.0,3620.0,6500.0,500.0,1.0,1.0,-1.0,0.0
37,1.0,12.0,11.0,12.0,0.85,0.0,376840.0,1280.0,420.0,1500.0,1700.0,6500.0,500.0,0.0,-1.0,-1.0,0.0
38,1.0,12.0,10.0,11.0,0.04,1.0,386620.0,1160.0,460.0,1500.0,2700.0,6500.0,500.0,0.6,1.0,-1.0,0.0
39,1.0,12.0,10.0,11.0,0.42,1.0,396280.0,1020.0,420.0,1500.0,4840.0,6500.0,500.0,0.0,-1.0,-1.0,0.0
40,1.0,11.0,11.0,11.0,0.53,0.0,405800.0,580.0,560.0,1500.0,1860.0,6500.0,500.0,0.4,-1.0,-1.0,6.0
41,1.0,11.0,11.0,11.0,0.68,0.0,414880.0,880.0,560.0,1500.0,1420.0,6500.0,500.0,0.6,1.0,-1.0,6.0
42,1.0,11.0,10.0,11.0,0.81,0.0,424260.0,500.0,600.0,1500.0,1620.0,6500.0,500.0,0.0,-1.0,-1.0,6.0
43,1.0,12.0,10.0,11.0,0.54,1.0,433260.0,1240.0,340.0,1500.0,3080.0,6500.0,500.0,1.0,1.0,-1.0,0.0
44,1.0,11.0,11.0,11.0,0.32,0.0,443000.0,620.0,620.0,1500.0,2140.0,6500.0,500.0,0.6,1.0,-1.0,6.0
45,1.0,11.0,11.0,11.0,0.63,0.0,452120.0,800.0,500.0,1500.0,2320.0,6500.0,500.0,0.2,1.0,-1.0,0.0
46,1.0,11.0,11.0,11.0,0.6,0.0,461420.0,980.0,560.0,1500.0,3200.0,6500.0,500.0,1.0,1.0,-1.0,6.0
47,1.0,12.0,11.0,12.0,0.65,0.0,470900.0,1060.0,400.0,1500.0,4900.0,6500.0,500.0,0.2,1.0,-1.0,0.0
