0,0.0,12.0,13.0,11.0,0.44,1.0,12340.0,1340.0,620.0,1500.0,2700.0,6500.0,500.0,0.2,1.0,-1.0,6.0
1,0.0,11.0,14.0,11.0,0.91,0.0,22180.0,880.0,320.0,1500.0,620.0,6500.0,500.0,0.6,1.0,-1.0,0.0
2,0.0,11.0,14.0,12.0,0.17,1.0,31560.0,800.0,340.0,1500.0,3240.0,6500.0,500.0,0.2,1.0,-1.0,0.0
3,0.0,11.0,15.0,11.0,0.54,0.0,40860.0,500.0,540.0,1500.0,1080.0,6500.0,500.0,0.0,-1.0,-1.0,6.0
4,0.0,12.0,15.0,11.0,0.45,1.0,49860.0,1200.0,360.0,1500.0,680.0,6500.0,500.0,0.8,-1.0,-1.0,0.0
5,0.0,12.0,16.0,11.0,0.61,1.0,59560.0,1240.0,320.0,1500.0,760.0,6500.0,500.0,1.0,1.0,-1.0,0.0
6,0.0,11.0,17.0,11.0,0.89,0.0,69300.0,840.0,300.0,1500.0,3000.0,6500.0,500.0,0.4,-1.0,-1.0,0.0
7,0.0,11.0,17.0,12.0,0.33,1.0,78640.0,620.0,520.0,1500.0,2120.0,6500.0,500.0,0.6,1.0,-1.0,6.0
8,0.0,12.0,18.0,11.0,0.56,1.0,87760.0,1120.0,400.0,1500.0,1920.0,6500.0,500.0,0.4,-1.0,-1.0,0.0
9,0.0,12.0,19.0,11.0,0.12,1.0,97380.0,1280.0,280.0,1500.0,3740.0,6500.0,500.0,0.0,-1.0,-1.0,0.0
10,0.0,12.0,20.0,11.0,0.03,1.0,107160.0,1420.0,320.0,1500.0,2720.0,6500.0,500.0,0.6,1.0,-1.0,0.0
11,0.0,11.0,21.0,12.0,0.03,1.0,117080.0,760.0,360.0,1500.0,3920.0,6500.0,500.0,0.0,-1.0,-1.0,0.0
12,1.0,12.0,13.0,11.0,0.64,1.0,130340.0,1340.0,620.0,1500.0,2300.0,6500.0,500.0,0.2,1.0,-1.0,6.0
13,1.0,12.0,18.0,11.0,0.02,1.0,140180.0,1120.0,400.0,1500.0,840.0,6500.0,500.0,0.4,-1.0,-1.0,0.0
14,1.0,12.0,15.0,11.0,0.27,1.0,149800.0,1200.0,360.0,1500.0,1040.0,6500.0,500.0,0.8,-1.0,-1.0,0.0
15,1.0,11.0,14.0,12.0,0.14,1.0,159500.0,800.0,340.0,1500.0,3300.0,6500.0,500.0,0.2,1.0,-1.0,0.0
16,1.0,12.0,20.0,11.0,-1.0,1.0,168800.0,1420.0,320.0,1500.0,2720.0,6500.0,500.0,0.6,1.0,-1.0,0.0
17,1.0,11.0,14.0,11.0,0.69,0.0,178720.0,880.0,320.0,1500.0,1400.0,6500.0,500.0,0.6,1.0,-1.0,0.0
18,1.0,12.0,19.0,11.0,0.42,1.0,188100.0,1280.0,280.0,1500.0,840.0,6500.0,500.0,0.0,-1.0,-1.0,0.0
19,1.0,11.0,21.0,12.0,0.39,1.0,197880.0,760.0,360.0,1500.0,3200.0,6500.0,500.0,0.0,-1.0,-1.0,0.0
20,1.0,11.0,17.0,12.0,0.17,1.0,207140.0,620.0,520.0,1500.0,2440.0,6500.0,500.0,0.6,1.0,-1.0,6.0
21,1.0,11.0,15.0,11.0,0.88,0.0,216260.0,500.0,540.0,1500.0,1760.0,6500.0,500.0,0.0,-1.0,-1.0,6.0
22,1.0,12.0,16.0,11.0,0.45,1.0,225260.0,1240.0,320.0,1500.0,1080.0,6500.0,500.0,1.0,1.0,-1.0,0.0
23,1.0,11.0,17.0,11.0,0.94,0.0,235000.0,840.0,300.0,1500.0,2680.0,6500.0,500.0,0.4,-1.0,-1.0,0.0
24,0.0,12.0,22.0,0.0,0.21,-1.0,248340.0,1380.0,-20.0,1500.0,360.0,6500.0,500.0,0.4,-1.0,-1.0,7.0
25,0.0,12.0,23.0,11.0,0.06,1.0,258220.0,1020.0,300.0,1500.0,3860.0,6500.0,500.0,0.0,-1.0,-1.0,0.0
26,0.0,11.0,24.0,12.0,0.42,1.0,267740.0,660.0,380.0,1500.0,740.0,6500.0,500.0,0.8,-1.0,-1.0,0.0
27,0.0,11.0,25.0,11.0,0.8,0.0,276900.0,580.0,620.0,1500.0,2400.0,6500.0,500.0,0.4,-1.0,-1.0,6.0
28,0.0,12.0,25.0,11.0,-1.0,1.0,285980.0,1460.0,620.0,1500.0,-20.0,6500.0,500.0,0.8,-1.0,-1.0,6.0
29,0.0,11.0,26.0,12.0,0.16,1.0,295940.0,720.0,340.0,1500.0,1660.0,6500.0,500.0,1.0,1.0,-1.0,0.0
30,0.0,12.0,27.0,11.0,0.12,1.0,305160.0,1520.0,360.0,1500.0,1740.0,6500.0,500.0,1.0,1.0,-1.0,0.0
31,0.0,11.0,28.0,11.0,0.91,0.0,315180.0,980.0,400.0,1500.0,3820.0,6500.0,500.0,1.0,1.0,-1.0,0.0
32,0.0,11.0,28.0,11.0,0.75,0.0,324660.0,540.0,320.0,1500.0,1100.0,6500.0,500.0,0.2,1.0,-1.0,0.0
33,0.0,12.0,27.0,0.0,-1.0,-1.0,333700.0,1160.0,-20.0,1500.0,-20.0,6500.0,500.0,0.6,1.0,-1.0,7.0
34,0.0,12.0,28.0,12.0,0.86,0.0,343360.0,1060.0,520.0,1500.0,1320.0,6500.0,500.0,0.2,1.0,-1.0,6.0
35,0.0,11.0,28.0,11.0,0.98,0.0,352920.0,940.0,320.0,1500.0,3560.0,6500.0,500.0,0.8,-1.0,-1.0,0.0
36,1.0,11.0,24.0,12.0,0.27,1.0,366360.0,660.0,380.0,1500.0,1040.0,6500.0,500.0,0.8,-1.0,-1.0,0.0
37,1.0,11.0,28.0,11.0,-1.0,0.0,375520.0,980.0,400.0,1500.0,3820.0,6500.0,500.0,1.0,1.0,-1.0,0.0
38,1.0,11.0,28.0,11.0,0.85,0.0,385000.0,940.0,320.0,1500.0,3300.0,6500.0,500.0,0.8,-1.0,-1.0,0.0
39,1.0,12.0,23.0,11.0,0.14,1.0,394440.0,1020.0,300.0,1500.0,3700.0,6500.0,500.0,0.0,-1.0,-1.0,0.0
40,1.0,12.0,27.0,12.0,0.99,0.0,403960.0,1160.0,520.0,1500.0,820.0,6500.0,500.0,0.6,1.0,-1.0,6.0
41,1.0,11.0,25.0,11.0,0.9,0.0,413620.0,580.0,620.0,1500.0,2600.0,6500.0,500.0,0.4,-1.0,-1.0,6.0
42,1.0,12.0,22.0,12.0,0.86,0.0,422700.0,1380.0,520.0,1500.0,2520.0,6500.0,500.0,0.4,-1.0,-1.0,6.0
43,1.0,11.0,26.0,12.0,0.21,1.0,432580.0,720.0,340.0,1500.0,5560.0,6500.0,500.0,1.0,1.0,-1.0,0.0
44,1.0,12.0,25.0,11.0,0.1,1.0,441800.0,1460.0,620.0,1500.0,1380.0,6500.0,500.0,0.8,-1.0,-1.0,6.0
45,1.0,12.0,27.0,11.0,0.72,1.0,451760.0,1520.0,360.0,1500.0,3440.0,6500.0,500.0,1.0,1.0,-1.0,0.0
46,1.0,12.0,28.0,12.0,0.98,0.0,461780.0,1060.0,520.0,1500.0,1560.0,6500.0,500.0,0.2,1.0,-1.0,6.0
47,1.0,11.0,28.0,11.0,-1.0,0.0,471340.0,540.0,320.0,1500.0,1100.0,6500.0,500.0,0.2,1.0,-1.0,0.0
