0,0.0,11.0,15.0,11.0,0.77,0.0,11500.0,500.0,400.0,1500.0,1540.0,6500.0,500.0,0.0,-1.0,-1.0,0.0
1,0.0,12.0,15.0,12.0,0.72,0.0,20500.0,1280.0,520.0,1500.0,1440.0,6500.0,500.0,0.0,-1.0,-1.0,6.0
2,0.0,12.0,14.0,12.0,0.89,0.0,30280.0,1020.0,360.0,1500.0,1780.0,6500.0,500.0,0.0,-1.0,-1.0,0.0
3,0.0,11.0,14.0,11.0,0.8,0.0,39800.0,940.0,400.0,1500.0,3200.0,6500.0,500.0,0.8,-1.0,-1.0,0.0
4,0.0,12.0,13.0,12.0,0.98,0.0,49240.0,1160.0,360.0,1500.0,840.0,6500.0,500.0,0.6,1.0,-1.0,0.0
5,0.0,12.0,13.0,12.0,0.63,0.0,58900.0,1380.0,360.0,1500.0,2060.0,6500.0,500.0,0.4,-1.0,-1.0,0.0
6,0.0,11.0,12.0,11.0,0.74,0.0,68780.0,580.0,400.0,1500.0,2280.0,6500.0,500.0,0.4,-1.0,-1.0,0.0
7,0.0,11.0,12.0,12.0,0.22,1.0,77860.0,620.0,380.0,1500.0,2340.0,6500.0,500.0,0.6,1.0,-1.0,0.0
8,0.0,12.0,13.0,12.0,0.78,0.0,86980.0,1520.0,360.0,1500.0,3560.0,6500.0,500.0,1.0,1.0,-1.0,0.0
9,0.0,12.0,13.0,12.0,0.79,0.0,97000.0,1460.0,380.0,1500.0,3180.0,6500.0,500.0,0.8,-1.0,-1.0,0.0
10,0.0,11.0,12.0,12.0,0.2,1.0,106960.0,760.0,380.0,1500.0,3580.0,6500.0,500.0,0.0,-1.0,-1.0,0.0
11,0.0,11.0,13.0,11.0,0.74,0.0,116220.0,720.0,320.0,1500.0,3480.0,6500.0,500.0,1.0,1.0,-1.0,0.0
12,1.0,11.0,13.0,11.0,0.74,0.0,129440.0,720.0,320.0,1500.0,3480.0,6500.0,500.0,1.0,1.0,-1.0,0.0
13,1.0,11.0,14.0,11.0,0.89,0.0,138660.0,940.0,400.0,1500.0,3380.0,6500.0,500.0,0.8,-1.0,-1.0,0.0
14,1.0,12.0,13.0,12.0,0.92,0.0,148100.0,1160.0,360.0,1500.0,640.0,6500.0,500.0,0.6,1.0,-1.0,0.0
15,1.0,11.0,12.0,12.0,0.2,1.0,157760.0,760.0,380.0,1500.0,3580.0,6500.0,500.0,0.0,-1.0,-1.0,0.0
16,1.0,12.0,13.0,12.0,0.63,0.0,167020.0,1380.0,360.0,1500.0,2060.0,6500.0,500.0,0.4,-1.0,-1.0,0.0
17,1.0,12.0,15.0,12.0,0.87,0.0,176900.0,1280.0,520.0,1500.0,1740.0,6500.0,500.0,0.0,-1.0,-1.0,6.0
18,1.0,11.0,12.0,12.0,0.04,1.0,186680.0,620.0,380.0,1500.0,2700.0,6500.0,500.0,0.6,1.0,-1.0,0.0
19,1.0,12.0,13.0,12.0,0.44,0.0,195800.0,1520.0,360.0,1500.0,2880.0,6500.0,500.0,1.0,1.0,-1.0,0.0
20,1.0,11.0,15.0,11.0,0.66,0.0,205820.0,500.0,400.0,1500.0,1320.0,6500.0,500.0,0.0,-1.0,-1.0,0.0
21,1.0,12.0,14.0,12.0,0.96,0.0,214820.0,1020.0,360.0,1500.0,1920.0,6500.0,500.0,0.0,-1.0,-1.0,0.0
22,1.0,11.0,12.0,11.0,0.62,0.0,224340.0,580.0,400.0,1500.0,2040.0,6500.0,500.0,0.4,-1.0,-1.0,0.0
23,1.0,12.0,13.0,12.0,0.78,0.0,233420.0,1460.0,380.0,1500.0,3160.0,6500.0,500.0,0.8,-1.0,-1.0,0.0
24,0.0,11.0,13.0,11.0,0.75,0.0,247380.0,540.0,520.0,1500.0,1100.0,6500.0,500.0,0.2,1.0,-1.0,6.0
25,0.0,11.0,13.0,11.0,0.82,0.0,256420.0,660.0,460.0,1500.0,3240.0,6500.0,500.0,0.8,-1.0,-1.0,0.0
26,0.0,12.0,12.0,12.0,0.8,0.0,265580.0,1420.0,420.0,1500.0,1180.0,6500.0,500.0,0.6,1.0,-1.0,0.0
27,0.0,11.0,12.0,11.0,0.95,0.0,275500.0,840.0,340.0,1500.0,2700.0,6500.0,500.0,0.4,-1.0,-1.0,0.0
28,0.0,11.0,11.0,11.0,0.98,0.0,284840.0,980.0,300.0,1500.0,3960.0,6500.0,500.0,1.0,1.0,-1.0,0.0
29,0.0,12.0,11.0,12.0,0.72,0.0,294320.0,1200.0,420.0,1500.0,3040.0,6500.0,500.0,0.8,-1.0,-1.0,0.0
30,0.0,12.0,10.0,12.0,0.78,0.0,304020.0,1120.0,300.0,1500.0,2360.0,6500.0,500.0,0.4,-1.0,-1.0,0.0
31,0.0,12.0,10.0,12.0,0.59,0.0,313640.0,1340.0,320.0,1500.0,780.0,6500.0,500.0,0.2,1.0,-1.0,0.0
32,0.0,11.0,9.0,11.0,0.94,0.0,323480.0,800.0,300.0,1500.0,1480.0,6500.0,500.0,0.2,1.0,-1.0,0.0
33,0.0,11.0,9.0,12.0,0.03,1.0,332780.0,880.0,360.0,1500.0,2720.0,6500.0,500.0,0.6,1.0,-1.0,0.0
34,0.0,12.0,10.0,11.0,0.02,1.0,342160.0,1060.0,300.0,1500.0,3540.0,6500.0,500.0,0.2,1.0,-1.0,0.0
35,0.0,12.0,11.0,12.0,0.59,0.0,351720.0,1240.0,380.0,1500.0,800.0,6500.0,500.0,1.0,1.0,-1.0,0.0
36,1.0,11.0,11.0,11.0,0.64,0.0,365460.0,980.0,300.0,1500.0,700.0,6500.0,500.0,1.0,1.0,-1.0,0.0
37,1.0,12.0,10.0,12.0,0.65,0.0,374940.0,1120.0,300.0,1500.0,2100.0,6500.0,500.0,0.4,-1.0,-1.0,0.0
38,1.0,11.0,9.0,12.0,0.38,1.0,384560.0,880.0,360.0,1500.0,2020.0,6500.0,500.0,0.6,1.0,-1.0,0.0
39,1.0,11.0,13.0,11.0,0.8,0.0,393940.0,540.0,520.0,1500.0,1200.0,6500.0,500.0,0.2,1.0,-1.0,6.0
40,1.0,11.0,12.0,11.0,0.79,0.0,402980.0,840.0,340.0,1500.0,2380.0,6500.0,500.0,0.4,-1.0,-1.0,0.0
41,1.0,12.0,10.0,12.0,0.49,0.0,412320.0,1340.0,320.0,1500.0,2600.0,6500.0,500.0,0.2,1.0,-1.0,0.0
42,1.0,12.0,11.0,12.0,0.97,0.0,422160.0,1240.0,380.0,1500.0,3940.0,6500.0,500.0,1.0,1.0,-1.0,0.0
43,1.0,12.0,12.0,12.0,0.95,0.0,431900.0,1420.0,420.0,1500.0,700.0,6500.0,500.0,0.6,1.0,-1.0,0.0
44,1.0,11.0,13.0,11.0,0.81,0.0,441820.0,660.0,460.0,1500.0,3220.0,6500.0,500.0,0.8,-1.0,-1.0,0.0
45,1.0,12.0,11.0,12.0,0.85,0.0,450980.0,1200.0,420.0,1500.0,3300.0,6500.0,500.0,0.8,-1.0,-1.0,0.0
46,1.0,12.0,10.0,11.0,0.16,1.0,460680.0,1060.0,300.0,1500.0,3260.0,6500.0,500.0,0.2,1.0,-1.0,0.0
47,1.0,11.0,9.0,11.0,0.56,0.0,470240.0,800.0,300.0,1500.0,2460.0,6500.0,500.0,0.2,1.0,-1.0,0.0
