0,0.0,12.0,19.0,12.0,0.63,0.0,12120.0,1120.0,300.0,1500.0,2060.0,6500.0,500.0,0.4,-1.0,-1.0,0.0
1,0.0,12.0,19.0,12.0,0.7,0.0,21740.0,1460.0,420.0,1500.0,3000.0,6500.0,500.0,0.8,-1.0,-1.0,0.0
2,0.0,12.0,18.0,12.0,0.76,0.0,31700.0,1060.0,400.0,1500.0,1120.0,6500.0,500.0,0.2,1.0,-1.0,0.0
3,0.0,12.0,18.0,12.0,0.9,0.0,41260.0,1420.0,440.0,1500.0,600.0,6500.0,500.0,0.6,1.0,-1.0,0.0
4,0.0,12.0,17.0,12.0,0.57,0.0,51180.0,1160.0,420.0,1500.0,1640.0,6500.0,500.0,0.6,1.0,-1.0,0.0
5,0.0,12.0,17.0,12.0,0.38,0.0,60840.0,1200.0,400.0,1500.0,820.0,6500.0,500.0,0.8,-1.0,-1.0,0.0
6,0.0,11.0,16.0,12.0,0.17,1.0,70540.0,580.0,320.0,1500.0,440.0,6500.0,500.0,0.4,-1.0,-1.0,0.0
7,0.0,12.0,17.0,11.0,0.29,1.0,79620.0,1020.0,440.0,1500.0,580.0,6500.0,500.0,0.0,-1.0,-1.0,0.0
8,0.0,11.0,18.0,11.0,0.28,0.0,89140.0,760.0,440.0,1500.0,560.0,6500.0,500.0,0.0,-1.0,-1.0,0.0
9,0.0,11.0,18.0,12.0,0.11,1.0,98400.0,540.0,340.0,1500.0,3360.0,6500.0,500.0,0.2,1.0,-1.0,0.0
10,0.0,12.0,19.0,12.0,0.78,0.0,107440.0,1280.0,420.0,1500.0,5560.0,6500.0,500.0,0.0,-1.0,-1.0,0.0
11,0.0,11.0,19.0,12.0,0.13,1.0,117220.0,720.0,360.0,1500.0,1720.0,6500.0,500.0,1.0,1.0,-1.0,0.0
12,1.0,11.0,16.0,12.0,0.11,1.0,130440.0,580.0,320.0,1500.0,560.0,6500.0,500.0,0.4,-1.0,-1.0,0.0
13,1.0,11.0,18.0,12.0,0.18,1.0,139520.0,540.0,340.0,1500.0,3220.0,6500.0,500.0,0.2,1.0,-1.0,0.0
14,1.0,12.0,19.0,12.0,0.76,0.0,148560.0,1120.0,300.0,1500.0,2320.0,6500.0,500.0,0.4,-1.0,-1.0,0.0
15,1.0,12.0,17.0,12.0,0.7,0.0,158180.0,1160.0,420.0,1500.0,1380.0,6500.0,500.0,0.6,1.0,-1.0,0.0
16,1.0,12.0,18.0,12.0,0.44,0.0,167840.0,1060.0,400.0,1500.0,480.0,6500.0,500.0,0.2,1.0,-1.0,0.0
17,1.0,12.0,19.0,12.0,0.82,0.0,177400.0,1460.0,420.0,1500.0,3240.0,6500.0,500.0,0.8,-1.0,-1.0,0.0
18,1.0,11.0,19.0,12.0,0.19,1.0,187360.0,720.0,360.0,1500.0,1600.0,6500.0,500.0,1.0,1.0,-1.0,0.0
19,1.0,12.0,17.0,11.0,0.23,1.0,196580.0,1020.0,440.0,1500.0,3520.0,6500.0,500.0,0.0,-1.0,-1.0,0.0
20,1.0,12.0,18.0,12.0,0.59,0.0,206100.0,1420.0,440.0,1500.0,1600.0,6500.0,500.0,0.6,1.0,-1.0,0.0
21,1.0,12.0,19.0,12.0,0.49,0.0,216020.0,1280.0,420.0,1500.0,4980.0,6500.0,500.0,0.0,-1.0,-1.0,0.0
22,1.0,12.0,17.0,12.0,0.7,0.0,225800.0,1200.0,400.0,1500.0,3000.0,6500.0,500.0,0.8,-1.0,-1.0,0.0
23,1.0,11.0,18.0,11.0,0.72,0.0,235500.0,760.0,440.0,1500.0,1440.0,6500.0,500.0,0.0,-1.0,-1.0,0.0
24,0.0,11.0,20.0,11.0,0.7,0.0,248760.0,620.0,480.0,1500.0,1380.0,6500.0,500.0,0.6,1.0,-1.0,0.0
25,0.0,12.0,20.0,12.0,0.56,0.0,257880.0,1380.0,380.0,1500.0,1920.0,6500.0,500.0,0.4,-1.0,-1.0,0.0
26,0.0,11.0,19.0,11.0,0.65,0.0,267760.0,940.0,440.0,1500.0,2900.0,6500.0,500.0,0.8,-1.0,-1.0,0.0
27,0.0,12.0,19.0,12.0,0.67,0.0,277200.0,1340.0,360.0,1500.0,2240.0,6500.0,500.0,0.2,1.0,-1.0,0.0
28,0.0,11.0,18.0,11.0,0.84,0.0,287040.0,880.0,420.0,1500.0,1100.0,6500.0,500.0,0.6,1.0,-1.0,0.0
29,0.0,12.0,18.0,12.0,0.63,0.0,296420.0,1240.0,440.0,1500.0,3260.0,6500.0,500.0,1.0,1.0,-1.0,0.0
30,0.0,11.0,17.0,11.0,0.84,0.0,306160.0,980.0,480.0,1500.0,3680.0,6500.0,500.0,1.0,1.0,-1.0,0.0
31,0.0,12.0,17.0,12.0,0.51,0.0,315640.0,1520.0,420.0,1500.0,960.0,6500.0,500.0,1.0,1.0,-1.0,0.0
32,0.0,11.0,16.0,11.0,0.72,0.0,325660.0,500.0,380.0,1500.0,1440.0,6500.0,500.0,0.0,-1.0,-1.0,0.0
33,0.0,11.0,16.0,12.0,0.26,1.0,334660.0,660.0,700.0,1500.0,1060.0,6500.0,500.0,0.8,-1.0,-1.0,6.0
34,0.0,11.0,17.0,12.0,0.15,1.0,343820.0,840.0,380.0,1500.0,480.0,6500.0,500.0,0.4,-1.0,-1.0,0.0
35,0.0,11.0,18.0,12.0,0.22,1.0,353160.0,800.0,340.0,1500.0,3140.0,6500.0,500.0,0.2,1.0,-1.0,0.0
36,1.0,11.0,17.0,12.0,0.17,1.0,366460.0,840.0,380.0,1500.0,440.0,6500.0,500.0,0.4,-1.0,-1.0,0.0
37,1.0,11.0,20.0,11.0,0.85,0.0,375800.0,620.0,480.0,1500.0,1080.0,6500.0,500.0,0.6,1.0,-1.0,0.0
38,1.0,12.0,19.0,12.0,0.87,0.0,384920.0,1340.0,360.0,1500.0,1340.0,6500.0,500.0,0.2,1.0,-1.0,0.0
39,1.0,11.0,16.0,12.0,0.14,1.0,394760.0,660.0,700.0,1500.0,1300.0,6500.0,500.0,0.8,-1.0,-1.0,6.0
40,1.0,12.0,18.0,12.0,0.71,0.0,403920.0,1240.0,440.0,1500.0,560.0,6500.0,500.0,1.0,1.0,-1.0,0.0
41,1.0,12.0,17.0,12.0,0.7,0.0,413660.0,1520.0,420.0,1500.0,3400.0,6500.0,500.0,1.0,1.0,-1.0,0.0
42,1.0,12.0,20.0,12.0,0.67,0.0,423680.0,1380.0,380.0,1500.0,2140.0,6500.0,500.0,0.4,-1.0,-1.0,0.0
43,1.0,11.0,19.0,11.0,0.63,0.0,433560.0,940.0,440.0,1500.0,2860.0,6500.0,500.0,0.8,-1.0,-1.0,0.0
44,1.0,11.0,16.0,11.0,0.73,0.0,443000.0,500.0,380.0,1500.0,1460.0,6500.0,500.0,0.0,-1.0,-1.0,0.0
45,1.0,11.0,17.0,11.0,0.39,0.0,452000.0,980.0,480.0,1500.0,1200.0,6500.0,500.0,1.0,1.0,-1.0,0.0
46,1.0,11.0,18.0,11.0,0.78,0.0,461480.0,880.0,420.0,1500.0,1220.0,6500.0,500.0,0.6,1.0,-1.0,0.0
47,1.0,11.0,18.0,12.0,0.07,1.0,470860.0,800.0,340.0,1500.0,3440.0,6500.0,500.0,0.2,1.0,-1.0,0.0
